4/synch_counter/simulation/qsim/synch_counter.msim.vcd
$comment
	File created using the following command:
		vcd file synch_counter.msim.vcd -direction
$end
$date
	Mon May 14 01:47:56 2018
$end
$version
	ModelSim Version 10.1d
$end
$timescale
	1ps
$end
$scope module synch_counter_vlg_vec_tst $end
$var reg 1 ! clk $end
$var wire 1 " q [3] $end
$var wire 1 # q [2] $end
$var wire 1 $ q [1] $end
$var wire 1 % q [0] $end
$var wire 1 & sampler $end
$scope module i1 $end
$var wire 1 ' gnd $end
$var wire 1 ( vcc $end
$var wire 1 ) unknown $end
$var tri1 1 * devclrn $end
$var tri1 1 + devpor $end
$var tri1 1 , devoe $end
$var wire 1 - q[0]~output_o $end
$var wire 1 . q[1]~output_o $end
$var wire 1 / q[2]~output_o $end
$var wire 1 0 q[3]~output_o $end
$var wire 1 1 clk~input_o $end
$var wire 1 2 clk~inputclkctrl_outclk $end
$var wire 1 3 cell0|q~0_combout $end
$var wire 1 4 cell0|q~q $end
$var wire 1 5 gen:1:other_cells|q~0_combout $end
$var wire 1 6 gen:1:other_cells|q~q $end
$var wire 1 7 gen:2:other_cells|q~0_combout $end
$var wire 1 8 gen:2:other_cells|q~q $end
$var wire 1 9 gen:3:other_cells|q~0_combout $end
$var wire 1 : gen:3:other_cells|q~q $end
$upscope $end
$upscope $end
$enddefinitions $end
#0
$dumpvars
0!
x%
x$
x#
x"
x&
0'
1(
x)
1*
1+
1,
x-
x.
x/
x0
01
x2
13
04
x5
06
x7
08
x9
0:
$end
#158
02
#444
09
#449
05
#450
07
#2370
0.
0$
#2483
0/
0#
#2504
00
0"
#2765
0-
0%
#30000
1!
0&
#30690
11
#30870
12
#32366
14
#32735
03
#32750
15
#35089
1-
1%
#60000
0!
1&
#60852
01
#61010
02
#90000
1!
0&
#90690
11
#90870
12
#92366
04
16
#92719
13
#94693
1.
1$
#95131
0-
0%
#120000
0!
1&
#120852
01
#121010
02
#150000
1!
0&
#150690
11
#150870
12
#152366
14
#152735
03
#152740
05
#152750
17
#155089
1-
1%
#180000
0!
1&
#180852
01
#181010
02
#210000
1!
0&
#210690
11
#210870
12
#212366
04
06
18
#212719
13
#214736
0.
0$
#214826
1/
1#
#215131
0-
0%
#240000
0!
1&
#240852
01
#241010
02
#270000
1!
0&
#270690
11
#270870
12
#272366
14
#272735
03
#272750
15
#275089
1-
1%
#300000
0!
1&
#300852
01
#301010
02
#330000
1!
0&
#330690
11
#330870
12
#332366
04
16
#332719
13
#334693
1.
1$
#335131
0-
0%
#360000
0!
1&
#360852
01
#361010
02
#390000
1!
0&
#390690
11
#390870
12
#392366
14
#392735
03
#392740
05
07
#392974
19
#395089
1-
1%
#420000
0!
1&
#420852
01
#421010
02
#450000
1!
0&
#450690
11
#450870
12
#452366
04
06
08
1:
#452719
13
#454736
0.
0$
#454842
10
1"
#454849
0/
0#
#455131
0-
0%
#480000
0!
1&
#480852
01
#481010
02
#510000
1!
0&
#510690
11
#510870
12
#512366
14
#512735
03
#512750
15
#515089
1-
1%
#540000
0!
1&
#540852
01
#541010
02
#570000
1!
0&
#570690
11
#570870
12
#572366
04
16
#572719
13
#574693
1.
1$
#575131
0-
0%
#600000
0!
1&
#600852
01
#601010
02
#630000
1!
0&
#630690
11
#630870
12
#632366
14
#632735
03
#632740
05
#632750
17
#635089
1-
1%
#660000
0!
1&
#660852
01
#661010
02
#690000
1!
0&
#690690
11
#690870
12
#692366
04
06
18
#692719
13
#694736
0.
0$
#694826
1/
1#
#695131
0-
0%
#720000
0!
1&
#720852
01
#721010
02
#750000
1!
0&
#750690
11
#750870
12
#752366
14
#752735
03
#752750
15
#755089
1-
1%
#780000
0!
1&
#780852
01
#781010
02
#810000
1!
0&
#810690
11
#810870
12
#812366
04
16
#812719
13
#812736
09
#813068
19
#814693
1.
1$
#815131
0-
0%
#840000
0!
1&
#840852
01
#841010
02
#870000
1!
0&
#870690
11
#870870
12
#872366
14
#872735
03
#872740
05
07
#872978
09
#875089
1-
1%
#900000
0!
1&
#900852
01
#901010
02
#930000
1!
0&
#930690
11
#930870
12
#932366
04
06
08
0:
#932719
13
#934736
0.
0$
#934849
0/
0#
#934870
00
0"
#935131
0-
0%
#960000
0!
1&
#960852
01
#961010
02
#990000
1!
0&
#990690
11
#990870
12
#992366
14
#992735
03
#992750
15
#995089
1-
1%
