4/test_nat_therm/simulation/qsim/test_nat_therm.msim.vcd
$comment
	File created using the following command:
		vcd file test_nat_therm.msim.vcd -direction
$end
$date
	Sun May 13 20:35:43 2018
$end
$version
	ModelSim Version 10.1d
$end
$timescale
	1ps
$end
$scope module test_nat_therm_vlg_vec_tst $end
$var reg 3 ! x [2:0] $end
$var wire 1 " y [6] $end
$var wire 1 # y [5] $end
$var wire 1 $ y [4] $end
$var wire 1 % y [3] $end
$var wire 1 & y [2] $end
$var wire 1 ' y [1] $end
$var wire 1 ( y [0] $end
$var wire 1 ) sampler $end
$scope module i1 $end
$var wire 1 * gnd $end
$var wire 1 + vcc $end
$var wire 1 , unknown $end
$var tri1 1 - devclrn $end
$var tri1 1 . devpor $end
$var tri1 1 / devoe $end
$var wire 1 0 y[0]~output_o $end
$var wire 1 1 y[1]~output_o $end
$var wire 1 2 y[2]~output_o $end
$var wire 1 3 y[3]~output_o $end
$var wire 1 4 y[4]~output_o $end
$var wire 1 5 y[5]~output_o $end
$var wire 1 6 y[6]~output_o $end
$var wire 1 7 x[0]~input_o $end
$var wire 1 8 x[1]~input_o $end
$var wire 1 9 x[2]~input_o $end
$var wire 1 : LessThan6~0_combout $end
$var wire 1 ; LessThan5~0_combout $end
$var wire 1 < LessThan4~0_combout $end
$var wire 1 = LessThan2~0_combout $end
$var wire 1 > LessThan1~0_combout $end
$var wire 1 ? LessThan0~0_combout $end
$upscope $end
$upscope $end
$enddefinitions $end
#0
$dumpvars
b11 !
x(
x'
x&
x%
x$
x#
x"
x)
0*
1+
x,
1-
1.
1/
x0
x1
x2
x3
x4
x5
x6
17
18
09
x:
x;
x<
x=
x>
x?
$end
#2877
1:
#3262
1;
#3508
1<
#3560
0=
#3562
0?
#3794
0>
#4953
03
0%
#5814
11
1'
#5996
10
1(
#6099
06
0"
#6162
05
0#
#6359
04
0$
#6489
12
1&
#80000
b1 !
b0 !
0)
#80850
08
#80852
07
#84014
0<
#84373
0;
#84639
0:
#86920
01
0'
#87043
02
0&
#87800
00
0(
#160000
b100 !
b110 !
1)
#160676
19
#160686
18
#163906
1<
#163907
1:
#163948
1>
#164153
1=
#164161
1;
#165393
13
1%
#166323
15
1#
#166713
11
1'
#166887
12
1&
#166941
14
1$
#167026
10
1(
#240000
b111 !
b101 !
0)
#240690
17
#240850
08
#243516
1?
#244371
0>
#244598
0?
#246739
05
0#
#320000
b1 !
b0 !
b10 !
1)
#320686
18
#320840
09
#320852
07
#323948
1>
#324397
0<
#324400
0=
#324634
0>
#325793
03
0%
#327199
04
0$
#327426
02
0&
#400000
b110 !
b100 !
0)
#400676
19
#400850
08
#403906
1<
#403908
1=
#404110
1>
#404371
0>
#404600
0=
#405393
13
1%
#406887
12
1&
#480000
b110 !
1)
#480686
18
#483948
1>
#484153
1=
#486323
15
1#
#486941
14
1$
#560000
b111 !
0)
#560690
17
#563516
1?
#566059
16
1"
#640000
b101 !
1)
#640850
08
#644371
0>
#644598
0?
#646739
05
0#
#647135
06
0"
#720000
b1 !
b0 !
b10 !
0)
#720686
18
#720840
09
#720852
07
#723948
1>
#724397
0<
#724400
0=
#724634
0>
#725793
03
0%
#727199
04
0$
#727426
02
0&
#800000
b11 !
b1 !
1)
#800690
17
#800850
08
#803552
1<
#804373
0;
#804659
0<
#806920
01
0'
#880000
b0 !
0)
#880852
07
#883997
0:
#887158
00
0(
#960000
b10 !
b11 !
1)
#960686
18
#960690
17
#963567
1:
#963948
1;
#964194
1<
#966500
11
1'
#966686
10
1(
#967175
12
1&
