2/abs_difference_calculator/simulation/qsim/abs_difference_calculator.msim.vcd
$comment
	File created using the following command:
		vcd file abs_difference_calculator.msim.vcd -direction
$end
$date
	Wed Apr 25 01:42:39 2018
$end
$version
	ModelSim Version 10.1d
$end
$timescale
	1ps
$end
$scope module abs_difference_calculator_vlg_vec_tst $end
$var reg 5 ! a0 [4:0] $end
$var reg 5 " a1 [4:0] $end
$var reg 5 # a2 [4:0] $end
$var reg 5 $ a3 [4:0] $end
$var reg 5 % a4 [4:0] $end
$var reg 5 & a5 [4:0] $end
$var reg 5 ' b0 [4:0] $end
$var reg 5 ( b1 [4:0] $end
$var reg 5 ) b2 [4:0] $end
$var reg 5 * b3 [4:0] $end
$var reg 5 + b4 [4:0] $end
$var reg 5 , b5 [4:0] $end
$var wire 1 - abs_diff [0] $end
$var wire 1 . abs_diff [1] $end
$var wire 1 / abs_diff [2] $end
$var wire 1 0 abs_diff [3] $end
$var wire 1 1 abs_diff [4] $end
$var wire 1 2 abs_diff [5] $end
$var wire 1 3 abs_diff [6] $end
$var wire 1 4 abs_diff [7] $end
$var wire 1 5 sampler $end
$scope module i1 $end
$var wire 1 6 gnd $end
$var wire 1 7 vcc $end
$var wire 1 8 unknown $end
$var tri1 1 9 devclrn $end
$var tri1 1 : devpor $end
$var tri1 1 ; devoe $end
$var wire 1 < abs_diff[7]~output_o $end
$var wire 1 = abs_diff[6]~output_o $end
$var wire 1 > abs_diff[5]~output_o $end
$var wire 1 ? abs_diff[4]~output_o $end
$var wire 1 @ abs_diff[3]~output_o $end
$var wire 1 A abs_diff[2]~output_o $end
$var wire 1 B abs_diff[1]~output_o $end
$var wire 1 C abs_diff[0]~output_o $end
$var wire 1 D a1[4]~input_o $end
$var wire 1 E b1[4]~input_o $end
$var wire 1 F a1[3]~input_o $end
$var wire 1 G b1[3]~input_o $end
$var wire 1 H b1[2]~input_o $end
$var wire 1 I a1[2]~input_o $end
$var wire 1 J b1[1]~input_o $end
$var wire 1 K a1[1]~input_o $end
$var wire 1 L a1[0]~input_o $end
$var wire 1 M b1[0]~input_o $end
$var wire 1 N Add2~1 $end
$var wire 1 O Add2~3 $end
$var wire 1 P Add2~5 $end
$var wire 1 Q Add2~7 $end
$var wire 1 R Add2~9 $end
$var wire 1 S Add2~10_combout $end
$var wire 1 T Add2~0_combout $end
$var wire 1 U abs_diff_uns~2_combout $end
$var wire 1 V Add3~0_combout $end
$var wire 1 W b0[4]~input_o $end
$var wire 1 X a0[4]~input_o $end
$var wire 1 Y a0[3]~input_o $end
$var wire 1 Z b0[3]~input_o $end
$var wire 1 [ b0[2]~input_o $end
$var wire 1 \ a0[2]~input_o $end
$var wire 1 ] b0[1]~input_o $end
$var wire 1 ^ a0[1]~input_o $end
$var wire 1 _ b0[0]~input_o $end
$var wire 1 ` a0[0]~input_o $end
$var wire 1 a Add0~1 $end
$var wire 1 b Add0~3 $end
$var wire 1 c Add0~5 $end
$var wire 1 d Add0~7 $end
$var wire 1 e Add0~9 $end
$var wire 1 f Add0~10_combout $end
$var wire 1 g Add0~0_combout $end
$var wire 1 h abs_diff_uns~3_combout $end
$var wire 1 i Add1~0_combout $end
$var wire 1 j Add4~0_combout $end
$var wire 1 k a2[0]~input_o $end
$var wire 1 l b2[0]~input_o $end
$var wire 1 m Add5~0_combout $end
$var wire 1 n a2[4]~input_o $end
$var wire 1 o b2[4]~input_o $end
$var wire 1 p a2[3]~input_o $end
$var wire 1 q b2[3]~input_o $end
$var wire 1 r a2[2]~input_o $end
$var wire 1 s b2[2]~input_o $end
$var wire 1 t a2[1]~input_o $end
$var wire 1 u b2[1]~input_o $end
$var wire 1 v Add5~1 $end
$var wire 1 w Add5~3 $end
$var wire 1 x Add5~5 $end
$var wire 1 y Add5~7 $end
$var wire 1 z Add5~9 $end
$var wire 1 { Add5~10_combout $end
$var wire 1 | abs_diff_uns~5_combout $end
$var wire 1 } Add6~0_combout $end
$var wire 1 ~ b3[4]~input_o $end
$var wire 1 !! a3[4]~input_o $end
$var wire 1 "! a3[3]~input_o $end
$var wire 1 #! b3[3]~input_o $end
$var wire 1 $! a3[2]~input_o $end
$var wire 1 %! b3[2]~input_o $end
$var wire 1 &! b3[1]~input_o $end
$var wire 1 '! a3[1]~input_o $end
$var wire 1 (! a3[0]~input_o $end
$var wire 1 )! b3[0]~input_o $end
$var wire 1 *! Add8~1 $end
$var wire 1 +! Add8~3 $end
$var wire 1 ,! Add8~5 $end
$var wire 1 -! Add8~7 $end
$var wire 1 .! Add8~9 $end
$var wire 1 /! Add8~10_combout $end
$var wire 1 0! Add8~0_combout $end
$var wire 1 1! abs_diff_uns~4_combout $end
$var wire 1 2! Add9~0_combout $end
$var wire 1 3! Add7~0_combout $end
$var wire 1 4! abs_diff_uns[3][0]~6_combout $end
$var wire 1 5! b5[0]~input_o $end
$var wire 1 6! a5[0]~input_o $end
$var wire 1 7! Add14~0_combout $end
$var wire 1 8! a5[4]~input_o $end
$var wire 1 9! b5[4]~input_o $end
$var wire 1 :! b5[3]~input_o $end
$var wire 1 ;! a5[3]~input_o $end
$var wire 1 <! b5[2]~input_o $end
$var wire 1 =! a5[2]~input_o $end
$var wire 1 >! b5[1]~input_o $end
$var wire 1 ?! a5[1]~input_o $end
$var wire 1 @! Add14~1 $end
$var wire 1 A! Add14~3 $end
$var wire 1 B! Add14~5 $end
$var wire 1 C! Add14~7 $end
$var wire 1 D! Add14~9 $end
$var wire 1 E! Add14~10_combout $end
$var wire 1 F! abs_diff_uns~0_combout $end
$var wire 1 G! Add15~0_combout $end
$var wire 1 H! b4[4]~input_o $end
$var wire 1 I! a4[4]~input_o $end
$var wire 1 J! a4[3]~input_o $end
$var wire 1 K! b4[3]~input_o $end
$var wire 1 L! a4[2]~input_o $end
$var wire 1 M! b4[2]~input_o $end
$var wire 1 N! b4[1]~input_o $end
$var wire 1 O! a4[1]~input_o $end
$var wire 1 P! b4[0]~input_o $end
$var wire 1 Q! a4[0]~input_o $end
$var wire 1 R! Add11~1 $end
$var wire 1 S! Add11~3 $end
$var wire 1 T! Add11~5 $end
$var wire 1 U! Add11~7 $end
$var wire 1 V! Add11~9 $end
$var wire 1 W! Add11~10_combout $end
$var wire 1 X! Add11~0_combout $end
$var wire 1 Y! abs_diff_uns~1_combout $end
$var wire 1 Z! Add12~0_combout $end
$var wire 1 [! Add13~0_combout $end
$var wire 1 \! Add16~0_combout $end
$var wire 1 ]! Add5~2_combout $end
$var wire 1 ^! Add6~1 $end
$var wire 1 _! Add6~2_combout $end
$var wire 1 `! Add8~2_combout $end
$var wire 1 a! Add9~1 $end
$var wire 1 b! Add9~2_combout $end
$var wire 1 c! Add7~1 $end
$var wire 1 d! Add7~2_combout $end
$var wire 1 e! Add0~2_combout $end
$var wire 1 f! Add1~1 $end
$var wire 1 g! Add1~2_combout $end
$var wire 1 h! Add2~2_combout $end
$var wire 1 i! Add3~1 $end
$var wire 1 j! Add3~2_combout $end
$var wire 1 k! Add4~1 $end
$var wire 1 l! Add4~2_combout $end
$var wire 1 m! abs_diff_uns[3][0]~7 $end
$var wire 1 n! abs_diff_uns[3][1]~8_combout $end
$var wire 1 o! Add14~2_combout $end
$var wire 1 p! Add15~1 $end
$var wire 1 q! Add15~2_combout $end
$var wire 1 r! Add11~2_combout $end
$var wire 1 s! Add12~1 $end
$var wire 1 t! Add12~2_combout $end
$var wire 1 u! Add13~1 $end
$var wire 1 v! Add13~2_combout $end
$var wire 1 w! Add16~1 $end
$var wire 1 x! Add16~2_combout $end
$var wire 1 y! Add8~4_combout $end
$var wire 1 z! Add9~3 $end
$var wire 1 {! Add9~4_combout $end
$var wire 1 |! Add5~4_combout $end
$var wire 1 }! Add6~3 $end
$var wire 1 ~! Add6~4_combout $end
$var wire 1 !" Add7~3 $end
$var wire 1 "" Add7~4_combout $end
$var wire 1 #" Add2~4_combout $end
$var wire 1 $" Add3~3 $end
$var wire 1 %" Add3~4_combout $end
$var wire 1 &" Add0~4_combout $end
$var wire 1 '" Add1~3 $end
$var wire 1 (" Add1~4_combout $end
$var wire 1 )" Add4~3 $end
$var wire 1 *" Add4~4_combout $end
$var wire 1 +" abs_diff_uns[3][1]~9 $end
$var wire 1 ," abs_diff_uns[3][2]~10_combout $end
$var wire 1 -" Add14~4_combout $end
$var wire 1 ." Add15~3 $end
$var wire 1 /" Add15~4_combout $end
$var wire 1 0" Add11~4_combout $end
$var wire 1 1" Add12~3 $end
$var wire 1 2" Add12~4_combout $end
$var wire 1 3" Add13~3 $end
$var wire 1 4" Add13~4_combout $end
$var wire 1 5" Add16~3 $end
$var wire 1 6" Add16~4_combout $end
$var wire 1 7" Add11~6_combout $end
$var wire 1 8" Add12~5 $end
$var wire 1 9" Add12~6_combout $end
$var wire 1 :" Add14~6_combout $end
$var wire 1 ;" Add15~5 $end
$var wire 1 <" Add15~6_combout $end
$var wire 1 =" Add13~5 $end
$var wire 1 >" Add13~6_combout $end
$var wire 1 ?" Add8~6_combout $end
$var wire 1 @" Add9~5 $end
$var wire 1 A" Add9~6_combout $end
$var wire 1 B" Add5~6_combout $end
$var wire 1 C" Add6~5 $end
$var wire 1 D" Add6~6_combout $end
$var wire 1 E" Add7~5 $end
$var wire 1 F" Add7~6_combout $end
$var wire 1 G" Add2~6_combout $end
$var wire 1 H" Add3~5 $end
$var wire 1 I" Add3~6_combout $end
$var wire 1 J" Add0~6_combout $end
$var wire 1 K" Add1~5 $end
$var wire 1 L" Add1~6_combout $end
$var wire 1 M" Add4~5 $end
$var wire 1 N" Add4~6_combout $end
$var wire 1 O" abs_diff_uns[3][2]~11 $end
$var wire 1 P" abs_diff_uns[3][3]~12_combout $end
$var wire 1 Q" Add16~5 $end
$var wire 1 R" Add16~6_combout $end
$var wire 1 S" Add14~8_combout $end
$var wire 1 T" Add15~7 $end
$var wire 1 U" Add15~8_combout $end
$var wire 1 V" Add11~8_combout $end
$var wire 1 W" Add12~7 $end
$var wire 1 X" Add12~8_combout $end
$var wire 1 Y" Add13~7 $end
$var wire 1 Z" Add13~8_combout $end
$var wire 1 [" Add8~8_combout $end
$var wire 1 \" Add9~7 $end
$var wire 1 ]" Add9~8_combout $end
$var wire 1 ^" Add5~8_combout $end
$var wire 1 _" Add6~7 $end
$var wire 1 `" Add6~8_combout $end
$var wire 1 a" Add7~7 $end
$var wire 1 b" Add7~8_combout $end
$var wire 1 c" Add0~8_combout $end
$var wire 1 d" Add1~7 $end
$var wire 1 e" Add1~8_combout $end
$var wire 1 f" Add2~8_combout $end
$var wire 1 g" Add3~7 $end
$var wire 1 h" Add3~8_combout $end
$var wire 1 i" Add4~7 $end
$var wire 1 j" Add4~8_combout $end
$var wire 1 k" abs_diff_uns[3][3]~13 $end
$var wire 1 l" abs_diff_uns[3][4]~14_combout $end
$var wire 1 m" Add16~7 $end
$var wire 1 n" Add16~8_combout $end
$var wire 1 o" Add12~9 $end
$var wire 1 p" Add12~10_combout $end
$var wire 1 q" Add15~9 $end
$var wire 1 r" Add15~10_combout $end
$var wire 1 s" Add13~9 $end
$var wire 1 t" Add13~10_combout $end
$var wire 1 u" Add1~9 $end
$var wire 1 v" Add1~10_combout $end
$var wire 1 w" Add3~9 $end
$var wire 1 x" Add3~10_combout $end
$var wire 1 y" Add4~9 $end
$var wire 1 z" Add4~10_combout $end
$var wire 1 {" Add6~9 $end
$var wire 1 |" Add6~10_combout $end
$var wire 1 }" Add9~9 $end
$var wire 1 ~" Add9~10_combout $end
$var wire 1 !# Add7~9 $end
$var wire 1 "# Add7~10_combout $end
$var wire 1 ## abs_diff_uns[3][4]~15 $end
$var wire 1 $# abs_diff_uns[3][5]~16_combout $end
$var wire 1 %# Add16~9 $end
$var wire 1 &# Add16~10_combout $end
$var wire 1 '# Add4~11 $end
$var wire 1 (# Add4~12_combout $end
$var wire 1 )# Add7~11 $end
$var wire 1 *# Add7~12_combout $end
$var wire 1 +# abs_diff_uns[3][5]~17 $end
$var wire 1 ,# abs_diff_uns[3][6]~18_combout $end
$var wire 1 -# Add13~11 $end
$var wire 1 .# Add13~12_combout $end
$var wire 1 /# Add16~11 $end
$var wire 1 0# Add16~12_combout $end
$var wire 1 1# abs_diff_uns[3][6]~19 $end
$var wire 1 2# abs_diff_uns[3][7]~20_combout $end
$var wire 1 3# Add16~13 $end
$var wire 1 4# Add16~14_combout $end
$upscope $end
$upscope $end
$enddefinitions $end
#0
$dumpvars
b0 !
b0 "
b0 #
b0 $
b0 %
b0 &
b0 '
b0 (
b0 )
b0 *
b0 +
b0 ,
x4
x3
x2
x1
x0
x/
x.
x-
x5
06
17
x8
19
1:
1;
x<
x=
x>
x?
x@
xA
xB
xC
0D
0E
0F
0G
0H
0I
0J
0K
0L
0M
xN
xO
xP
xQ
xR
xS
xT
xU
xV
0W
0X
0Y
0Z
0[
0\
0]
0^
0_
0`
xa
xb
xc
xd
xe
xf
xg
xh
xi
xj
0k
0l
xm
0n
0o
0p
0q
0r
0s
0t
0u
xv
xw
xx
xy
xz
x{
x|
x}
0~
0!!
0"!
0#!
0$!
0%!
0&!
0'!
0(!
0)!
x*!
x+!
x,!
x-!
x.!
x/!
x0!
x1!
x2!
x3!
x4!
05!
06!
x7!
08!
09!
0:!
0;!
0<!
0=!
0>!
0?!
x@!
xA!
xB!
xC!
xD!
xE!
xF!
xG!
0H!
0I!
0J!
0K!
0L!
0M!
0N!
0O!
0P!
0Q!
xR!
xS!
xT!
xU!
xV!
xW!
xX!
xY!
xZ!
x[!
x\!
x]!
x^!
x_!
x`!
xa!
xb!
xc!
xd!
xe!
xf!
xg!
xh!
xi!
xj!
xk!
xl!
xm!
xn!
xo!
xp!
xq!
xr!
xs!
xt!
xu!
xv!
xw!
xx!
xy!
xz!
x{!
x|!
x}!
x~!
x!"
x""
x#"
x$"
x%"
x&"
x'"
x("
x)"
x*"
x+"
x,"
x-"
x."
x/"
x0"
x1"
x2"
x3"
x4"
x5"
x6"
x7"
x8"
x9"
x:"
x;"
x<"
x="
x>"
x?"
x@"
xA"
xB"
xC"
xD"
xE"
xF"
xG"
xH"
xI"
xJ"
xK"
xL"
xM"
xN"
xO"
xP"
xQ"
xR"
xS"
xT"
xU"
xV"
xW"
xX"
xY"
xZ"
x["
x\"
x]"
x^"
x_"
x`"
xa"
xb"
xc"
xd"
xe"
xf"
xg"
xh"
xi"
xj"
xk"
xl"
xm"
xn"
xo"
xp"
xq"
xr"
xs"
xt"
xu"
xv"
xw"
xx"
xy"
xz"
x{"
x|"
x}"
x~"
x!#
x"#
x##
x$#
x%#
x&#
x'#
x(#
x)#
x*#
x+#
x,#
x-#
x.#
x/#
x0#
x1#
x2#
x3#
x4#
$end
#3848
1*!
#3891
1R!
#3914
0+!
#3953
00!
#3957
0S!
#4005
0X!
#4021
07!
#4023
1T!
#4064
0g
#4072
1a
#4089
0U!
#4091
1@!
#4138
0b
#4155
1V!
#4157
0A!
#4197
0m
#4204
1c
#4211
1v
#4270
0d
#4277
0w
#4283
0`!
#4336
1e
#4343
1x
#4349
0y!
#4403
0r!
#4409
0y
#4424
1,!
#4469
00"
#4475
1z
#4490
0-!
#4535
07"
#4556
1.!
#4584
0e!
#4601
0V"
#4603
0o!
#4638
0T
#4650
0&"
#4667
0W!
#4715
1N
#4716
0J"
#4723
0]!
#4781
0O
#4782
0c"
#4789
0|!
#4847
1P
#4848
0f
#4854
0-"
#4855
0B"
#4913
0Q
#4921
0^"
#4923
1B!
#4936
0?"
#4979
1R
#4987
0{
#4989
0C!
#5002
0["
#5055
1D!
#5068
0/!
#5227
0h!
#5293
0#"
#5359
0G"
#5385
0s!
#5387
08"
#5388
0o"
#5425
0f"
0|
#5435
0:"
#5443
0Y!
#5491
0S
#5501
0S"
#5516
11"
#5517
1W"
#5567
0E!
#5568
0u"
0f!
#5569
0K"
#5621
0h
#5698
0{"
1'"
#5699
1d"
#5700
0^!
#5701
0C"
#5788
0}"
0a!
#5789
0@"
#5837
1_"
#5838
1}!
#5841
01!
#5897
0t!
#5899
09"
#5900
0p"
#5918
1z!
#5919
1\"
#5996
0F!
#6028
02"
#6029
0X"
#6070
0U
#6080
0g!
0v"
#6081
0L"
#6143
0Z!
#6210
0H"
0("
0|"
#6211
0w"
0e"
#6212
0_!
#6213
0D"
#6215
0i!
#6275
0p!
#6278
0;"
#6298
0q"
#6300
0b!
0~"
#6301
0A"
#6310
0}
#6341
1g"
#6344
1$"
#6349
0`"
#6350
0~!
#6409
1T"
#6416
1."
#6430
0{!
#6431
0]"
#6466
0i
#6686
02!
#6722
0I"
#6723
0x"
#6727
0j!
#6772
0V
#6787
0q!
#6790
0<"
#6810
0r"
#6853
0h"
#6856
0%"
#6921
0U"
#6928
0/"
#7467
0u!
#7533
13"
#7568
0G!
#7599
0="
#7665
1Y"
#7731
0s"
#7782
0c!
#7797
1-#
#7917
0k!
#7931
1)#
#7939
1'#
#7940
1)"
#7959
0!#
#7980
1i"
#7981
1!"
#7989
0y"
#8008
1a"
#8028
03!
#8054
0E"
#8119
0M"
#8206
0>"
#8207
0v!
#8294
0d!
#8309
0.#
#8350
04"
#8404
0Z"
#8405
0j
#8429
0l!
#8443
0*#
#8451
0(#
#8452
0*"
#8471
0"#
#8492
0j"
#8493
0""
#8501
0z"
#8520
0b"
#8566
0F"
0t"
#8631
0N"
#8860
0m!
#9101
0[!
#9232
1+"
#9274
01#
#9331
0O"
#9372
0n!
#9409
1+#
#9527
0##
#9564
1k"
#9735
04!
#9744
0,"
#9747
0w!
#9786
02#
#9813
15"
#9843
0P"
#9879
0Q"
#9921
0,#
#9945
1m"
#10011
0%#
#10039
0$#
#10076
0l"
#10077
1/#
#10143
03#
#11368
04#
#11516
0x!
#11870
06"
#11887
0\!
#12026
00#
#12052
0R"
#12218
0n"
#12255
0&#
#14338
0C
0-
#14974
0=
03
#15147
0>
02
#15182
0@
00
#15244
0A
0/
#15504
0B
0.
#15572
0?
01
#16664
0<
04
#80000
b1 !
b10 "
b11 "
b10000 #
b11000 #
b1000 $
b1010 $
b1011 $
b10000 %
b10100 %
b1000 &
b1100 &
b1110 &
b1111 &
b1 '
b10 (
b11 (
b10000 )
b11000 )
b1000 *
b1010 *
b1011 *
b10000 +
b10100 +
b1000 ,
b1100 ,
b1110 ,
b1111 ,
05
#80786
1`
1"!
1'!
1(!
1;!
1?!
16!
1&!
1>!
#80789
1p
1J
1M
1q
#80796
1=!
1#!
1)!
1:!
1<!
15!
#80799
1n
1I!
#80806
1_
1H!
#80809
1L!
#80816
1K
1M!
#80819
1L
1o
#82839
1h!
#82937
1O
#83003
0P
#83069
1Q
#83135
0R
#83471
1j!
#83473
1#"
#83539
1G"
#83605
1f"
#83671
1S
#84017
1{
#84050
1W!
#84199
1U
#84239
0O
#84267
0z
#84301
0h!
#84305
1P
#84318
1^"
#84356
1V
#84359
0j!
#84371
0Q
#84423
1|
#84437
1R
#84558
1T
#84593
0W!
#84625
1l!
#84690
1D"
#84694
1_!
#84704
1}
#84724
19"
#84725
1t!
#84729
1Z!
#84738
1~!
#84751
0#"
1Y!
#84757
1-"
#84761
1X"
#84763
12"
#84768
1:"
#84817
0G"
#84865
0V
#84883
0f"
#84903
0U
#84949
1i!
0S
#85015
0$"
#85137
0^"
#85168
0T
#85211
1z
#85262
0:"
#85304
0}
#85306
1n!
#85311
0-"
#85344
0t!
#85345
09"
#85369
0Y!
#85378
1^!
#85382
02"
#85383
0X"
#85400
1<"
#85427
1/"
#85444
0}!
#85506
0l!
#85510
1C"
#85552
0i!
#85576
0_"
#85642
1{"
#85723
0{
#85729
1%"
#85802
1$"
#85890
0_!
#85945
0<"
#85956
0~!
#86022
0D"
#86030
0/"
#86069
0Z!
#86111
1[!
#86161
0|
#86178
1|"
#86224
0n!
#86314
0%"
#86434
0{"
#86436
0^!
#86437
0C"
#86461
1F"
#86466
1}
#86503
1`"
#86506
1~!
#86573
1_"
#86574
1}!
#86752
1\!
#86946
0|"
#87046
0}
#87085
0`"
#87086
0~!
#87304
1P"
#87446
0[!
#87751
0F"
#88145
0\!
#88627
0P"
#160000
b1001 !
b1101 !
b1111 !
b1011 "
b1111 "
b11100 #
b11110 #
b11111 #
b11011 $
b11111 &
b10001 '
b10011 (
b1111 *
b11100 +
b11110 +
b11111 +
b1111 #
b10011 $
b10001 $
b10000 $
b10000 %
b10111 &
b10011 &
b10001 &
b10000 &
b10000 '
b10001 (
b10000 (
b10000 )
b1111 +
15
#160786
18!
#160789
1I
1k
#160796
1\
#160799
1r
1t
#160806
1Y
1F
1!!
#160809
1^
1E
1P!
#160816
1W
1%!
#160819
1K!
1N!
#160893
0"!
0'!
0(!
0;!
0?!
06!
#160894
0J
0M
0q
#160903
0=!
#160904
0n
#160913
0_
0H!
#160914
0L!
#162344
1B"
#162744
1#"
#162976
1h!
#163148
1D"
#163425
1%"
#163608
1j!
#163978
1]!
#164010
1|!
#164244
1&"
#164269
1S
#164295
1G"
#164306
0R!
#164344
1X!
#164346
17"
1/!
#164417
1S!
#164453
1U!
#164491
1S"
#164502
1E!
#164516
1e!
#164519
0V!
#164533
0R
#164543
1J"
#164556
1*"
#164584
1f"
#164626
1["
#164643
0T!
#164673
1m
#164679
1~!
#164707
1Y!
#164762
1l!
#164782
1_!
#164786
0e
#164790
0*!
#164797
1U
#164819
10!
#164824
1?"
#164830
1c"
#164861
0@!
#164891
17!
#164893
1g
#164902
1F!
#164903
0,!
#164910
1-!
#164919
1F"
#164925
1("
#164954
1y!
1V
#164957
0j!
#164993
0%"
#165020
1b!
#165021
1A"
#165027
12!
#165041
1V!
#165045
0S
#165057
1{!
#165065
0B!
#165095
1-"
#165100
1{
#165131
1C!
#165148
1g!
#165152
19"
#165155
07"
#165171
1q!
#165173
1<"
#165184
1G!
#165214
1,"
#165221
1/"
#165251
1+!
#165254
1h
#165331
1|
#165348
1Z!
#165349
1L"
#165357
1A!
#165415
0?"
#165422
0["
#165443
1n!
#165444
0z
#165476
1^"
#165490
0|
#165506
1T
#165511
1e"
#165555
0F!
#165577
1W!
#165624
0U
#165637
0{!
#165643
0S"
#165647
0A"
#165762
1P"
#165763
0y!
#165773
0/"
#165787
1}
#165788
1I"
#165790
0D"
#165791
1j!
#165794
0_!
#165823
0~!
#165825
1%"
#165826
1h"
#165867
1U
#165869
0-"
#165956
0{
#166063
1i
#166104
0l!
#166115
0*"
#166137
1]"
#166142
1j
#166170
13!
#166195
1d!
#166230
1A"
#166252
1t!
#166283
0Z!
#166285
0Y!
#166288
1X"
#166290
12"
#166357
1s!
#166410
1|
#166423
01"
#166480
1{!
#166489
18"
#166501
1U"
#166550
0Y"
#166555
0W"
#166580
1/"
#166614
1v!
#166621
1o"
#166689
1D"
#166690
1_!
#166706
1[!
#166722
0}
#166736
1`"
#166739
1~!
#166794
0,"
#166869
0t!
#166876
0)"
#166932
0s!
#166935
02"
#166962
1Z!
#166998
11"
#167001
09"
#167028
14!
#167063
1M"
#167064
08"
#167066
0i"
#167067
0X"
#167086
1Z"
#167130
1W"
#167157
1p"
#167196
0o"
#167228
0a"
#167264
1}
#167294
1!#
#167297
0F"
#167331
1y"
#167347
1\!
#167412
1*"
#167468
1t!
#167491
05"
#167493
04!
#167534
12"
#167567
1m!
#167591
1""
#167599
1N"
#167600
19"
#167602
1j"
#167633
0+"
#167666
1X"
#167708
0p"
#167830
1"#
#167867
1z"
#167911
1n"
#167938
1R"
#168001
0Z"
#168016
14"
#168027
16"
#168079
0n!
#168082
0j
#168095
1s"
#168161
1O"
#168166
1k!
#168227
0k"
#168293
1##
#168357
0!"
#168367
0[!
#168414
1b"
#168426
0d!
#168451
1u!
#168471
1,"
#168614
0+#
#168631
1t"
#168640
1E"
#168660
06"
#168673
0P"
#168702
1l!
#168765
1Q"
#168780
03"
#168829
1$#
#168831
0m"
#168971
1="
#169015
03!
#169066
0\!
1Z"
#169089
1c!
#169150
1,#
#169176
1F"
#169277
0R"
#169301
1&#
#169356
0m!
#169385
14!
#169422
1+"
#169471
1l"
#169507
1>"
#169625
1d!
#169878
0n"
#169892
1n!
#169900
04!
#169934
0,"
#169972
1%#
#170019
1P"
#170038
0/#
#170178
1R"
#170215
1x!
#170284
15"
#170350
0Q"
#170408
0+"
#170477
0n!
#170484
0&#
#170574
10#
#170820
16"
#170862
0R"
#170944
1,"
#171029
1&#
#171228
00#
#171322
13#
#171616
1n"
#171858
14#
#172353
1A
1/
#173038
06"
#173132
1Q"
#173668
1R"
#173717
1=
13
#174655
1@
10
#174901
1C
1-
#177309
1?
11
#240000
b10010 %
b10011 %
b10100 '
b11000 (
b11100 (
b10100 )
b11111 *
b111 #
b11 %
b100 )
b10111 *
b10101 *
b111 ,
b111 !
b11 !
b11 #
b10 #
b0 $
b0 &
b100 '
b1101 +
b1100 +
b10010 #
b10 $
b11 $
b10 &
b101 '
b11110 (
b11111 (
b11100 +
05
#240786
1'!
1(!
1?!
#240789
1J
1M
#240796
1[
1~
#240799
1s
1n
#240806
1_
1H!
#240809
1O!
#240816
1Q!
1H
#240819
1G
#240893
0&!
08!
#240894
0p
0k
#240903
0#!
0:!
0\
#240904
0I!
0r
#240913
0Y
0!!
#240914
0P!
#240923
0W
#240924
0o
0N!
#242383
0B"
#242863
0h!
#243210
0D"
#243547
0j!
#244267
0.!
#244311
1["
#244336
0#"
#244339
0x
#244405
1y
#244485
00!
#244524
0V!
#244555
0G"
#244559
1*!
#244571
0c
#244585
0g
#244625
0+!
#244634
1?"
#244637
1d
#244638
0S!
#244656
1R!
#244679
0/!
#244694
0l!
#244827
0D!
#244859
1o!
1S"
#244870
11!
#244875
1B"
#244939
0F"
#244954
0h
#244994
0]"
#245006
0["
#245036
0W!
#245053
0%"
#245091
0m
#245094
1`!
#245102
1:"
#245137
0^"
#245147
1f
#245161
1y!
#245168
0T
#245174
10"
#245192
1r!
#245211
1z
#245384
0I"
#245410
1n!
#245452
01!
#245478
1+"
#245537
0U
#245667
0q!
#245679
1D"
#245711
0U"
#245743
0<"
#245747
1{
#245788
09"
#245792
0|
#245805
1Y!
#245810
0Z!
#245815
0P"
#245826
0X"
#245830
0g!
#245831
0L"
#245846
1h
#245856
0`"
#245866
0("
#245868
0e"
#245990
0,"
#246061
0b"
#246153
1|
#246175
0*"
#246239
0V
#246297
02!
#246437
0D"
#246441
0_!
#246446
1Z!
#246457
0}
#246470
0~!
1`"
#246541
1^!
#246581
0N"
#246678
0i
#246762
1f!
#246822
0O"
#246868
1,"
#246888
1k"
#246954
0##
#247077
1_!
#247087
0v!
#247158
0s"
#247232
1Y"
#247298
1g!
#247384
0k!
#247393
0c!
#247413
1j
#247423
13!
#247466
0$#
#247544
0j"
#247563
1N"
#247623
1)"
#247631
1i"
#247670
0t"
#247697
0y"
#247744
0Z"
#247775
0M"
#247905
0d!
#248024
0R"
#248167
1j"
#248175
03!
#248206
0""
#248209
0z"
#248223
0l"
#248281
14!
#248287
0N"
#248389
0&#
#248418
1P"
#248575
0n"
#248617
0j
#248782
0n!
#248824
1l"
#248920
1$#
#248989
1+#
#249077
1l!
#249080
0,"
#249154
0P"
#249501
0,#
#249758
1n!
#249947
04!
#251170
0Q"
#251219
16"
#251236
1m"
#251302
0%#
#251368
1/#
#251378
0A
0/
#251539
0@
00
#251544
0?
01
#251570
03#
#251706
1R"
#251772
1n"
#251838
1&#
#252082
04#
#254586
1>
12
#254811
1@
10
#254890
1A
1/
#255052
0C
0-
#255347
1?
11
#320000
b111 $
b1011 %
b101 )
b10 !
b1101 "
b1100 "
b10100 *
b11000 +
b110 ,
b100 "
b0 "
b1111 (
b10000 *
b1111 $
b1111 %
b110 &
b1101 )
b1 '
b111 (
b1001 )
b0 *
b11010 #
b11111 %
b11001 )
b1010 !
b1110 !
b11011 #
b10110 &
b10001 '
b1110 $
b10100 &
b101 (
15
#320786
1"!
1$!
18!
#320789
1q
1p
1k
#320796
1\
1=!
#320799
1I!
1l
#320806
1Y
#320809
1L!
#320816
1W
#320819
1J!
1o
#320893
0(!
0`
0?!
#320894
0I
0J
#320903
0~
0)!
05!
0[
#320904
0s
#320913
0F
#320914
0E
#320923
0K
0%!
0M!
#320924
0L
0G
#322841
0P
#322871
1#"
#322907
1Q
#322976
1h!
#323377
1G"
#323419
0f"
#323552
1%"
#323608
1j!
#324001
0{
#324050
1W!
#324137
0h"
#324174
1I"
#324267
0z
#324318
1^"
#324332
1V"
#324345
00"
#324351
1c
#324395
0|!
#324419
1T!
#324424
0-!
#324439
0|
#324470
1x
#324485
0U!
0?"
#324490
1.!
#324499
0d
#324515
0S"
#324519
0E!
#324536
0y
#324551
1V!
#324589
1D!
#324602
1z
#324609
1S
#324660
0h!
#324683
1*"
#324693
0)"
#324714
0^!
#324724
19"
#324734
0t!
1D"
#324744
1}
#324756
0Z!
#324757
1-"
#324758
0Y!
#324759
1M"
#324764
0l!
#324830
1s!
#324845
0N
#324847
0f
#324874
1T
#324904
0a
#324911
1O
#324923
1f"
#324925
07!
#324934
1g
#324937
10"
#324964
1F!
#324966
1,!
#324982
0B"
#324994
1@!
#324997
0V"
#325048
0^"
#325063
0W!
#325125
1E!
#325205
0*"
#325244
1<"
#325251
1q!
#325280
0G!
#325294
1V
#325295
0I"
#325305
0j"
#325310
0i"
#325317
0A"
#325324
0}
#325333
0%"
#325341
1,"
#325366
1t!
#325381
1h!
#325405
0s!
#325416
0e!
#325423
0#"
#325482
0n!
#325502
1?"
#325567
0'"
0f!
#325591
1L"
#325596
1i
#325628
1e"
#325633
1K"
1'"
#325699
0d"
0K"
#325765
1u"
1d"
#325767
0`"
#325807
1G!
#325809
0D"
#325811
0q!
#325813
0<"
#325815
09"
#325831
0u"
#325832
1Y!
#325846
1j"
0/"
1U"
#325884
0,"
#325984
0l"
#326030
0j!
#326063
0Y"
