4/pwm/simulation/qsim/PWM.msim.vcd
$comment
	File created using the following command:
		vcd file PWM.msim.vcd -direction
$end
$date
	Mon May 14 11:21:46 2018
$end
$version
	ModelSim Version 10.1d
$end
$timescale
	1ps
$end
$scope module pwm_demo_sc_vhd_vec_tst $end
$var wire 1 ! clk_pwm_out $end
$var wire 1 " clk_sys $end
$var wire 1 # count [2] $end
$var wire 1 $ count [1] $end
$var wire 1 % count [0] $end
$var wire 1 & duty [2] $end
$var wire 1 ' duty [1] $end
$var wire 1 ( duty [0] $end
$var wire 1 ) pwm $end
$scope module i1 $end
$var wire 1 * gnd $end
$var wire 1 + vcc $end
$var wire 1 , unknown $end
$var wire 1 - devoe $end
$var wire 1 . devclrn $end
$var wire 1 / devpor $end
$var wire 1 0 ww_devoe $end
$var wire 1 1 ww_devclrn $end
$var wire 1 2 ww_devpor $end
$var wire 1 3 ww_duty [2] $end
$var wire 1 4 ww_duty [1] $end
$var wire 1 5 ww_duty [0] $end
$var wire 1 6 ww_clk_sys $end
$var wire 1 7 ww_clk_pwm_out $end
$var wire 1 8 ww_pwm $end
$var wire 1 9 ww_count [2] $end
$var wire 1 : ww_count [1] $end
$var wire 1 ; ww_count [0] $end
$var wire 1 < \rtl~0clkctrl_INCLK_bus\ [3] $end
$var wire 1 = \rtl~0clkctrl_INCLK_bus\ [2] $end
$var wire 1 > \rtl~0clkctrl_INCLK_bus\ [1] $end
$var wire 1 ? \rtl~0clkctrl_INCLK_bus\ [0] $end
$var wire 1 @ \clk_sys~inputclkctrl_INCLK_bus\ [3] $end
$var wire 1 A \clk_sys~inputclkctrl_INCLK_bus\ [2] $end
$var wire 1 B \clk_sys~inputclkctrl_INCLK_bus\ [1] $end
$var wire 1 C \clk_sys~inputclkctrl_INCLK_bus\ [0] $end
$var wire 1 D \clk_pwm_out~output_o\ $end
$var wire 1 E \pwm~output_o\ $end
$var wire 1 F \count[0]~output_o\ $end
$var wire 1 G \count[1]~output_o\ $end
$var wire 1 H \count[2]~output_o\ $end
$var wire 1 I \clk_sys~input_o\ $end
$var wire 1 J \clk_sys~inputclkctrl_outclk\ $end
$var wire 1 K \sc_counter~2_combout\ $end
$var wire 1 L \sc_counter[0]~feeder_combout\ $end
$var wire 1 M \sc_counter~1_combout\ $end
$var wire 1 N \sc_counter~0_combout\ $end
$var wire 1 O \rtl~0_combout\ $end
$var wire 1 P \rtl~0clkctrl_outclk\ $end
$var wire 1 Q \pwm_counter~1_combout\ $end
$var wire 1 R \pwm_counter~2_combout\ $end
$var wire 1 S \pwm_counter~0_combout\ $end
$var wire 1 T \duty[2]~input_o\ $end
$var wire 1 U \duty[0]~input_o\ $end
$var wire 1 V \duty[1]~input_o\ $end
$var wire 1 W \LessThan2~0_combout\ $end
$var wire 1 X \LessThan2~1_combout\ $end
$var wire 1 Y pwm_counter [2] $end
$var wire 1 Z pwm_counter [1] $end
$var wire 1 [ pwm_counter [0] $end
$var wire 1 \ sc_counter [2] $end
$var wire 1 ] sc_counter [1] $end
$var wire 1 ^ sc_counter [0] $end
$upscope $end
$upscope $end
$enddefinitions $end
#0
$dumpvars
0!
0"
0)
0*
1+
x,
1-
1.
1/
10
11
12
06
07
08
0D
0E
0F
0G
0H
xI
xJ
xK
xL
xM
xN
xO
xP
xQ
xR
xS
xT
xU
xV
xW
xX
0&
1'
1(
03
14
15
09
0:
0;
0Y
0Z
0[
0\
0]
0^
1@
1A
1B
xC
1<
1=
1>
x?
0#
0$
0%
$end
#425
0M
#429
0O
0?
#452
0Q
0S
#462
1R
#569
xP
#596
1V
1U
#714
1K
#761
0I
0T
0C
#919
0J
#998
0P
#1348
1W
#1652
1X
#1815
1L
#1963
0N
#3223
xD
x7
x!
#3628
0D
07
0!
#4141
xE
x8
x)
#5790
1E
18
1)
#10000
1"
16
#10596
1I
1C
#10776
1J
#12272
1^
#12625
0K
#12634
1N
#13734
0L
#20000
0"
06
#20761
0I
0C
#20919
0J
#30000
1"
16
#30596
1I
1C
#30776
1J
#32272
1]
0^
#32700
0N
#32711
1K
#33812
1L
#34173
1N
#40000
0"
06
#40761
0I
0C
#40919
0J
#50000
1"
16
#50596
1I
1C
#50776
1J
#52272
1^
#52624
0N
#52625
0K
#52634
1M
#53734
0L
#60000
0"
06
#60761
0I
0C
#60919
0J
#70000
1"
16
#70596
1I
1C
#70776
1J
#71643
1\
#72006
1O
1?
#72012
0M
#72272
0]
0^
#72564
1P
#72826
0O
0?
#73395
0P
#74058
1[
#74236
1K
#74427
0R
#74444
1Q
#74841
1M
#75229
1D
17
1!
#75337
1L
#76025
0D
07
0!
#77272
1F
1;
1%
#80000
0"
06
#80761
0I
0C
#80919
0J
#90000
1"
16
#90596
1I
1C
#90776
1J
#92272
1^
#92625
0K
#92634
1N
#93734
0L
#100000
0"
06
#100761
0I
0C
#100919
0J
#110000
1"
16
#110596
1I
1C
#110776
1J
#112272
1]
0^
#112700
0N
#112711
1K
#112749
1O
1?
#113307
1P
#113812
1L
#114172
0K
#114748
0M
#114801
0[
1Z
#115154
1R
#115170
0Q
#115185
1S
#115263
1Q
#115281
0L
#115420
0W
#115480
0S
#115505
1W
#115740
0X
#115809
1X
#115972
1D
17
1!
#118052
0F
0;
0%
#118104
1G
1:
1$
#120000
0"
06
#120761
0I
0C
#120919
0J
#130000
1"
16
#130596
1I
1C
#130776
1J
#131643
0\
#132072
0O
0?
#132272
0]
#132356
1N
#132357
1K
#132641
0P
#133458
1L
#134235
0N
#135271
0D
07
0!
#140000
0"
06
#140761
0I
0C
#140919
0J
#150000
1"
16
#150596
1I
1C
#150776
1J
#152272
1^
#152625
0K
#152634
1N
#153734
0L
#160000
0"
06
#160761
0I
0C
#160919
0J
#170000
1"
16
#170596
1I
1C
#170776
1J
#172272
1]
0^
#172700
0N
#172711
1K
#173812
1L
#174173
1N
#180000
0"
06
#180761
0I
0C
#180919
0J
#190000
1"
16
#190596
1I
1C
#190776
1J
#192272
1^
#192624
0N
#192625
0K
#192634
1M
#193734
0L
#200000
0"
06
#200761
0I
0C
#200919
0J
#210000
1"
16
#210596
1I
1C
#210776
1J
#211643
1\
#212006
1O
1?
#212012
0M
#212272
0]
0^
#212564
1P
#212826
0O
0?
#213395
0P
#214058
1[
#214236
1K
#214427
0R
#214434
0Q
#214642
1S
#214685
0W
#214841
1M
#215005
0X
#215229
1D
17
1!
#215337
1L
#216025
0D
07
0!
#217272
1F
1;
1%
#219214
0E
08
0)
#220000
0"
06
#220761
0I
0C
#220919
0J
#230000
1"
16
#230596
1I
1C
#230776
1J
#232272
1^
#232625
0K
#232634
1N
#233734
0L
#240000
0"
06
#240761
0I
0C
#240919
0J
#250000
1"
16
#250596
1I
1C
#250776
1J
#252272
1]
0^
#252700
0N
#252711
1K
#252749
1O
1?
#253307
1P
#253812
1L
#254172
0K
#254748
0M
#254801
1Y
0[
0Z
#255154
1Q
1R
#255170
0S
#255176
0R
#255253
0Q
#255263
1S
#255281
0L
#255505
1W
#255506
1R
#255972
1D
17
1!
#257985
1H
19
1#
#258052
0F
0;
0%
#258131
0G
0:
0$
#260000
0"
06
#260761
0I
0C
#260919
0J
#270000
1"
16
#270596
1I
1C
#270776
1J
#271643
0\
#272072
0O
0?
#272272
0]
#272356
1N
#272357
1K
#272641
0P
#273458
1L
#274235
0N
#275271
0D
07
0!
#280000
0"
06
#280761
0I
0C
#280919
0J
#290000
1"
16
#290596
1I
1C
#290776
1J
#292272
1^
#292625
0K
#292634
1N
#293734
0L
#300000
0"
06
#300761
0I
0C
#300919
0J
#310000
1"
16
#310596
1I
1C
#310776
1J
#312272
1]
0^
#312700
0N
#312711
1K
#313812
1L
#314173
1N
#320000
0"
06
#320761
0I
0C
#320919
0J
#330000
1"
16
#330596
1I
1C
#330776
1J
#332272
1^
#332624
0N
#332625
0K
#332634
1M
#333734
0L
#340000
0"
06
#340761
0I
0C
#340919
0J
#350000
1"
16
#350596
1I
1C
#350776
1J
#351643
1\
#352006
1O
1?
#352012
0M
#352272
0]
0^
#352564
1P
#352826
0O
0?
#353395
0P
#354058
1[
#354236
1K
#354427
0R
#354444
1Q
#354841
1M
#355229
1D
17
1!
#355337
1L
#356025
0D
07
0!
#357272
1F
1;
1%
#360000
0"
06
#360761
0I
0C
#360919
0J
#370000
1"
16
#370596
1I
1C
#370776
1J
#372272
1^
#372625
0K
#372634
1N
#373734
0L
#380000
0"
06
#380761
0I
0C
#380919
0J
#390000
1"
16
#390596
1I
1C
#390776
1J
#392272
1]
0^
#392700
0N
#392711
1K
#392749
1O
1?
#393307
1P
#393812
1L
#394172
0K
#394748
0M
#394801
0[
1Z
#395154
1R
#395170
0Q
#395175
0S
#395281
0L
#395405
0R
#395420
0W
#395505
1W
#395972
1D
17
1!
#398052
0F
0;
0%
#398104
1G
1:
1$
#400000
0"
06
#400761
0I
0C
#400919
0J
#410000
1"
16
#410596
1I
1C
#410776
1J
#411643
0\
#412072
0O
0?
#412272
0]
#412356
1N
#412357
1K
#412641
0P
#413458
1L
#414235
0N
#415271
0D
07
0!
#420000
0"
06
#420761
0I
0C
#420919
0J
#430000
1"
16
#430596
1I
1C
#430776
1J
#432272
1^
#432625
0K
#432634
1N
#433734
0L
#440000
0"
06
#440761
0I
0C
#440919
0J
#450000
1"
16
#450596
1I
1C
#450776
1J
#452272
1]
0^
#452700
0N
#452711
1K
#453812
1L
#454173
1N
#460000
0"
06
#460761
0I
0C
#460919
0J
#470000
1"
16
#470596
1I
1C
#470776
1J
#472272
1^
#472624
0N
#472625
0K
#472634
1M
#473734
0L
#480000
0"
06
#480761
0I
0C
#480919
0J
#490000
1"
16
#490596
1I
1C
#490776
1J
#491643
1\
#492006
1O
1?
#492012
0M
#492272
0]
0^
#492564
1P
#492826
0O
0?
#493395
0P
#494058
0Y
0Z
#494236
1K
#494520
1R
#494789
1X
#494841
1M
#495229
1D
17
1!
#495337
1L
#496025
0D
07
0!
#497266
0H
09
0#
#497388
0G
0:
0$
#498927
1E
18
1)
#500000
0"
06
#500761
0I
0C
#500919
0J
#510000
1"
16
#510596
1I
1C
#510776
1J
#512272
1^
#512625
0K
#512634
1N
#513734
0L
#520000
0"
06
#520761
0I
0C
#520919
0J
#530000
1"
16
#530596
1I
1C
#530776
1J
#532272
1]
0^
#532700
0N
#532711
1K
#532749
1O
1?
#533307
1P
#533812
1L
#534172
0K
#534748
0M
#534801
1[
#535170
0R
#535187
1Q
#535281
0L
#535972
1D
17
1!
#538015
1F
1;
1%
#540000
0"
06
#540761
0I
0C
#540919
0J
#550000
1"
16
#550596
1I
1C
#550776
1J
#551643
0\
#552072
0O
0?
#552272
0]
#552356
1N
#552357
1K
#552641
0P
#553458
1L
#554235
0N
#555271
0D
07
0!
#560000
0"
06
#560761
0I
0C
#560919
0J
#570000
1"
16
#570596
1I
1C
#570776
1J
#572272
1^
#572625
0K
#572634
1N
#573734
0L
#580000
0"
06
#580761
0I
0C
#580919
0J
#590000
1"
16
#590596
1I
1C
#590776
1J
#592272
1]
0^
#592700
0N
#592711
1K
#593812
1L
#594173
1N
#600000
0"
06
#600761
0I
0C
#600919
0J
#610000
1"
16
#610596
1I
1C
#610776
1J
#612272
1^
#612624
0N
#612625
0K
#612634
1M
#613734
0L
#620000
0"
06
#620761
0I
0C
#620919
0J
#630000
1"
16
#630596
1I
1C
#630776
1J
#631643
1\
#632006
1O
1?
#632012
0M
#632272
0]
0^
#632564
1P
#632826
0O
0?
#633395
0P
#634058
0[
1Z
#634236
1K
#634411
1R
#634427
0Q
#634442
1S
#634520
1Q
#634677
0W
#634737
0S
#634762
1W
#634841
1M
#634997
0X
#635066
1X
#635229
1D
17
1!
#635337
1L
#636025
0D
07
0!
#637309
0F
0;
0%
#637361
1G
1:
1$
#640000
0"
06
#640761
0I
0C
#640919
0J
#650000
1"
16
#650596
1I
1C
#650776
1J
#652272
1^
#652625
0K
#652634
1N
#653734
0L
#660000
0"
06
#660761
0I
0C
#660919
0J
#670000
1"
16
#670596
1I
1C
#670776
1J
#672272
1]
0^
#672700
0N
#672711
1K
#672749
1O
1?
#673307
1P
#673812
1L
#674172
0K
#674748
0M
#674801
1[
#675170
0R
#675177
0Q
#675281
0L
#675385
1S
#675428
0W
#675748
0X
#675972
1D
17
1!
#678015
1F
1;
1%
#679957
0E
08
0)
#680000
0"
06
#680761
0I
0C
#680919
0J
#690000
1"
16
#690596
1I
1C
#690776
1J
#691643
0\
#692072
0O
0?
#692272
0]
#692356
1N
#692357
1K
#692641
0P
#693458
1L
#694235
0N
#695271
0D
07
0!
#700000
0"
06
#700761
0I
0C
#700919
0J
#710000
1"
16
#710596
1I
1C
#710776
1J
#712272
1^
#712625
0K
#712634
1N
#713734
0L
#720000
0"
06
#720761
0I
0C
#720919
0J
#730000
1"
16
#730596
1I
1C
#730776
1J
#732272
1]
0^
#732700
0N
#732711
1K
#733812
1L
#734173
1N
#740000
0"
06
#740761
0I
0C
#740919
0J
#750000
1"
16
#750596
1I
1C
#750776
1J
#752272
1^
#752624
0N
#752625
0K
#752634
1M
#753734
0L
#760000
0"
06
#760761
0I
0C
#760919
0J
#770000
1"
16
#770596
1I
1C
#770776
1J
#771643
1\
#772006
1O
1?
#772012
0M
#772272
0]
0^
#772564
1P
#772826
0O
0?
#773395
0P
#774058
1Y
0[
0Z
#774236
1K
#774411
1Q
1R
#774427
0S
#774433
0R
#774510
0Q
#774520
1S
#774762
1W
#774763
1R
#774841
1M
#775229
1D
17
1!
#775337
1L
#776025
0D
07
0!
#777242
1H
19
1#
#777309
0F
0;
0%
#777388
0G
0:
0$
#780000
0"
06
#780761
0I
0C
#780919
0J
#790000
1"
16
#790596
1I
1C
#790776
1J
#792272
1^
#792625
0K
#792634
1N
#793734
0L
#800000
0"
06
#800761
0I
0C
#800919
0J
#810000
1"
16
#810596
1I
1C
#810776
1J
#812272
1]
0^
#812700
0N
#812711
1K
#812749
1O
1?
#813307
1P
#813812
1L
#814172
0K
#814748
0M
#814801
1[
#815170
0R
#815187
1Q
#815281
0L
#815972
1D
17
1!
#818015
1F
1;
1%
#820000
0"
06
#820761
0I
0C
#820919
0J
#830000
1"
16
#830596
1I
1C
#830776
1J
#831643
0\
#832072
0O
0?
#832272
0]
#832356
1N
#832357
1K
#832641
0P
#833458
1L
#834235
0N
#835271
0D
07
0!
#840000
0"
06
#840761
0I
0C
#840919
0J
#850000
1"
16
#850596
1I
1C
#850776
1J
#852272
1^
#852625
0K
#852634
1N
#853734
0L
#860000
0"
06
#860761
0I
0C
#860919
0J
#870000
1"
16
#870596
1I
1C
#870776
1J
#872272
1]
0^
#872700
0N
#872711
1K
#873812
1L
#874173
1N
#880000
0"
06
#880761
0I
0C
#880919
0J
#890000
1"
16
#890596
1I
1C
#890776
1J
#892272
1^
#892624
0N
#892625
0K
#892634
1M
#893734
0L
#900000
0"
06
#900761
0I
0C
#900919
0J
#910000
1"
16
#910596
1I
1C
#910776
1J
#911643
1\
#912006
1O
1?
#912012
0M
#912272
0]
0^
#912564
1P
#912826
0O
0?
#913395
0P
#914058
0[
1Z
#914236
1K
#914411
1R
#914427
0Q
#914432
0S
#914662
0R
#914677
0W
#914762
1W
#914841
1M
#915229
1D
17
1!
#915337
1L
#916025
0D
07
0!
#917309
0F
0;
0%
#917361
1G
1:
1$
#920000
0"
06
#920761
0I
0C
#920919
0J
#930000
1"
16
#930596
1I
1C
#930776
1J
#932272
1^
#932625
0K
#932634
1N
#933734
0L
#940000
0"
06
#940761
0I
0C
#940919
0J
#950000
1"
16
#950596
1I
1C
#950776
1J
#952272
1]
0^
#952700
0N
#952711
1K
#952749
1O
1?
#953307
1P
#953812
1L
#954172
0K
#954748
0M
#954801
0Y
0Z
#955263
1R
#955281
0L
#955532
1X
#955972
1D
17
1!
#958009
0H
09
0#
#958131
0G
0:
0$
#959670
1E
18
1)
#960000
0"
06
#960761
0I
0C
#960919
0J
#970000
1"
16
#970596
1I
1C
#970776
1J
#971643
0\
#972072
0O
0?
#972272
0]
#972356
1N
#972357
1K
#972641
0P
#973458
1L
#974235
0N
#975271
0D
07
0!
#980000
0"
06
#980761
0I
0C
#980919
0J
#990000
1"
16
#990596
1I
1C
#990776
1J
#992272
1^
#992625
0K
#992634
1N
#993734
0L
