2/bit_counter/simulation/qsim/bit_counter.msim.vcd
$comment
	File created using the following command:
		vcd file bit_counter.msim.vcd -direction
$end
$date
	Tue Apr 24 19:20:11 2018
$end
$version
	ModelSim Version 10.1d
$end
$timescale
	1ps
$end
$scope module bit_counter_vlg_vec_tst $end
$var reg 8 ! x [7:0] $end
$var wire 1 " ssd [6] $end
$var wire 1 # ssd [5] $end
$var wire 1 $ ssd [4] $end
$var wire 1 % ssd [3] $end
$var wire 1 & ssd [2] $end
$var wire 1 ' ssd [1] $end
$var wire 1 ( ssd [0] $end
$var wire 1 ) y [3] $end
$var wire 1 * y [2] $end
$var wire 1 + y [1] $end
$var wire 1 , y [0] $end
$var wire 1 - sampler $end
$scope module i1 $end
$var wire 1 . gnd $end
$var wire 1 / vcc $end
$var wire 1 0 unknown $end
$var tri1 1 1 devclrn $end
$var tri1 1 2 devpor $end
$var tri1 1 3 devoe $end
$var wire 1 4 y[0]~output_o $end
$var wire 1 5 y[1]~output_o $end
$var wire 1 6 y[2]~output_o $end
$var wire 1 7 y[3]~output_o $end
$var wire 1 8 ssd[0]~output_o $end
$var wire 1 9 ssd[1]~output_o $end
$var wire 1 : ssd[2]~output_o $end
$var wire 1 ; ssd[3]~output_o $end
$var wire 1 < ssd[4]~output_o $end
$var wire 1 = ssd[5]~output_o $end
$var wire 1 > ssd[6]~output_o $end
$var wire 1 ? x[6]~input_o $end
$var wire 1 @ x[7]~input_o $end
$var wire 1 A x[4]~input_o $end
$var wire 1 B x[5]~input_o $end
$var wire 1 C leading_ones_counts[4][2]~0_combout $end
$var wire 1 D x[3]~input_o $end
$var wire 1 E leading_ones_counts[4][0]~1_combout $end
$var wire 1 F x[2]~input_o $end
$var wire 1 G leading_ones[5]~2_combout $end
$var wire 1 H leading_ones_counts[5][0]~2_combout $end
$var wire 1 I x[1]~input_o $end
$var wire 1 J Add5~0_combout $end
$var wire 1 K x[0]~input_o $end
$var wire 1 L Add6~0_combout $end
$var wire 1 M leading_ones_counts[5][1]~3_combout $end
$var wire 1 N leading_ones_counts[5][1]~4_combout $end
$var wire 1 O Add5~1 $end
$var wire 1 P Add5~2_combout $end
$var wire 1 Q Add6~1 $end
$var wire 1 R Add6~2_combout $end
$var wire 1 S Add5~3 $end
$var wire 1 T Add5~4_combout $end
$var wire 1 U Add6~3 $end
$var wire 1 V Add6~4_combout $end
$var wire 1 W Add5~5 $end
$var wire 1 X Add5~6_combout $end
$var wire 1 Y Add6~5 $end
$var wire 1 Z Add6~6_combout $end
$var wire 1 [ Add6~7 $end
$var wire 1 \ Add6~8_combout $end
$var wire 1 ] Equal0~0_combout $end
$var wire 1 ^ WideOr5~combout $end
$var wire 1 _ Equal0~1_combout $end
$var wire 1 ` Equal2~0_combout $end
$var wire 1 a WideOr4~0_combout $end
$var wire 1 b WideNor0~0_combout $end
$var wire 1 c WideOr4~combout $end
$var wire 1 d WideOr3~2_combout $end
$var wire 1 e WideOr3~combout $end
$var wire 1 f WideOr2~combout $end
$var wire 1 g WideOr1~0_combout $end
$var wire 1 h WideOr1~combout $end
$var wire 1 i WideOr0~0_combout $end
$var wire 1 j WideOr0~combout $end
$var wire 1 k leading_ones [7] $end
$var wire 1 l leading_ones [6] $end
$var wire 1 m leading_ones [5] $end
$var wire 1 n leading_ones [4] $end
$var wire 1 o leading_ones [3] $end
$var wire 1 p leading_ones [2] $end
$var wire 1 q leading_ones [1] $end
$var wire 1 r leading_ones [0] $end
$upscope $end
$upscope $end
$enddefinitions $end
#0
$dumpvars
b1110011 !
x(
x'
x&
x%
x$
x#
x"
x,
x+
x*
x)
x-
0.
1/
x0
11
12
13
x4
x5
x6
x7
x8
x9
x:
x;
x<
x=
x>
1?
0@
1A
1B
xC
0D
xE
0F
xG
xH
1I
xJ
1K
xL
xM
xN
xO
xP
xQ
xR
xS
xT
xU
xV
xW
xX
xY
xZ
x[
x\
x]
x^
x_
x`
xa
xb
xc
xd
xe
xf
xg
xh
xi
xj
zr
zq
zp
zo
zn
zm
xl
xk
$end
#3412
0l
#3414
0G
#3416
0M
#3792
0H
#3793
0C
#3794
0k
#3828
0N
#3964
0E
#4203
0O
#4487
0W
#4498
0J
#4612
1S
#4715
0P
#4999
0X
#5124
0T
#6038
0Q
#6104
1U
#6170
0Y
#6236
1[
#6631
0R
#6748
0\
#7092
0L
#7104
0`
#7862
0g
#7896
0a
#7933
0Z
#7974
0V
#8383
1]
#8599
0f
#8603
0i
#8610
1d
#8668
1b
#8709
1_
#8969
1e
#9073
1^
#10345
05
0+
#10975
0c
#11045
04
0,
#11254
0j
#11309
0h
#11356
1<
1$
#12000
06
0*
#12617
1;
1%
#13066
07
0)
#13396
1:
1&
#13926
08
0(
#14519
1>
1"
#15602
1=
1#
#16101
19
1'
#60000
b11110011 !
b10110011 !
b10100011 !
b10100001 !
b10100000 !
0-
#60829
1@
#60894
0I
0K
#60904
0?
#60924
0A
#64534
1E
#64539
1M
#65025
1H
#65662
1J
#68303
1L
#68727
0_
#69020
1a
#69039
1f
#69044
1i
#69065
0d
#69433
0e
#71663
1c
#71704
1j
#72356
14
1,
#73120
0;
0%
#73792
0:
0&
#75058
0>
0"
#76702
09
0'
#120000
b10101000 !
b10101100 !
b11101100 !
b11111100 !
b11111101 !
1-
#120789
1K
#120799
1?
#120809
1D
1F
#120819
1A
#124054
1G
#124573
1N
#124671
1C
#125235
1P
#125369
1T
#125492
0H
#126198
0J
#127092
1R
#127517
0f
#127520
0^
#127521
0i
#128297
1V
#128792
0L
#128869
1^
#128870
1f
#129284
1_
#129533
0^
#129557
1g
#129596
0a
#129601
0f
#129615
1d
#129974
1e
#130172
0j
#130884
15
1+
#131684
1h
#132186
0c
#132393
16
1*
#132455
18
1(
#132745
04
0,
#133437
1>
1"
#133619
1;
1%
#134401
1:
1&
#136101
0=
0#
#137312
19
1'
#180000
b11111111 !
0-
#180789
1I
#181801
1l
#181804
1k
#182607
1J
#184078
1L
#184502
0_
#184744
1^
#184785
0g
#184795
1a
#184814
1f
#184840
0d
#185208
0e
#185275
0L
#185349
1Q
#185415
0U
#185481
1Y
#185767
1_
#185861
0R
#185927
0V
#186016
0^
#186017
1Z
#186040
1g
#186079
0a
#186084
0f
#186098
1d
#186331
0g
#186410
0]
#186457
1e
#186560
1^
#186747
0_
#187173
0^
#188475
0h
#189575
05
0+
#189953
06
0*
#191135
17
1)
#192768
1=
1#
#240000
b11111011 !
b11101011 !
1-
#240914
0F
#240924
0A
#244326
0l
#244328
0G
#244532
0C
#244708
0k
#244722
1H
#245279
0T
#246952
0Q
#246982
1L
#247018
1U
#247084
0Y
#247488
1R
#247554
1V
#247596
0Z
#247744
0d
#247911
0b
#247933
1d
#248046
1]
#248129
0V
#248331
1b
#248342
0d
#248710
0e
#248717
1a
#251035
14
1,
#251280
15
1+
#251360
1c
#252729
07
0)
#253069
0:
0&
#256399
09
0'
#300000
b11001011 !
b1001011 !
b1000011 !
b11 !
b10 !
b0 !
0-
#300894
0I
0K
#300904
0?
#300914
0D
#300923
0B
#300934
0@
#304618
0E
#304761
0H
#304762
0N
#305109
1E
#305467
0J
#305471
0P
#307387
0R
#307871
1f
#307875
1^
#307876
1i
#308061
0L
#308553
1_
#308865
0a
#308870
0f
#308877
0i
#308884
1d
#309243
1e
#311101
05
0+
#311455
0c
#312014
04
0,
#312728
08
0(
#313670
1:
1&
#316581
19
1'
#360000
b10000 !
b110000 !
b10110000 !
b11110000 !
1-
#360799
1?
#360816
1B
#360819
1A
#360829
1@
#364232
0M
#364407
1H
#364671
1C
#364763
0E
#365044
1J
#365280
0H
#365369
1T
#365986
0J
#368297
1V
#368865
0^
#368867
0d
#368870
1f
#368873
1i
#369235
0e
#371533
1j
#372393
16
1*
#372951
0;
0%
#373594
0:
0&
#373800
18
1(
#374887
0>
0"
#420000
b11010000 !
0-
#420923
0B
#424615
0C
#424631
1M
#425254
1N
#425362
0T
#425916
1P
#427773
1R
#428198
0f
#428202
0i
#428212
0V
#428216
1g
#428218
1d
#428577
1e
#428837
0g
#428843
1`
#430853
0j
#431565
15
1+
#431574
1c
#432216
1;
1%
#432238
06
0*
#433004
1:
1&
#433219
0<
0$
#434118
1>
1"
#436613
09
0'
#480000
b11010100 !
b11010110 !
b11110110 !
1-
#480789
1I
#480809
1F
#480816
1B
#484232
0M
#484248
1C
#484914
0N
#484946
1T
#485623
0P
#487539
0R
#487874
1V
#488012
0`
#488027
1^
#488442
0^
#488444
0d
#488447
1f
#488450
1i
#488812
0e
#490687
0c
#491110
1j
#491253
05
0+
#491970
16
1*
#492264
1<
1$
#492528
0;
0%
#493171
0:
0&
#494464
0>
0"
#495813
19
1'
#540000
b11111110 !
b11111111 !
b11111011 !
0-
#540789
1K
#540809
1D
#540914
0F
#544297
1E
#544788
1H
#545425
1J
#548066
1L
#548490
0_
#548768
1g
#548813
0f
#548818
0i
#550895
1h
#551469
0j
#552119
14
1,
#552831
1;
1%
#554734
1>
1"
#555312
0=
0#
#600000
b11111010 !
b11111110 !
1-
#600809
1F
#600894
0K
#603944
1l
1M
#603949
1G
#604301
0H
#604567
1N
#605229
1P
#607086
1R
#607513
0g
#607527
1f
#607529
1a
#607530
1^
#609657
0h
#610172
1c
#610878
15
1+
#611608
0;
0%
#612383
08
0(
#613950
1=
1#
#615211
09
0'
#660000
b11111100 !
0-
#660894
0I
#661919
0l
#662763
0J
#665357
0L
#665849
1_
#666098
0^
#666122
1g
#666161
0a
#666166
0f
#666180
1d
#666539
1e
#668249
1h
#668751
0c
#669310
04
0,
#670184
1;
1%
#670966
1:
1&
#671033
18
1(
#672666
0=
0#
#673877
19
1'
#720000
b11101100 !
b11001100 !
b11000100 !
b11000101 !
b11000001 !
1-
#720789
1K
#720914
0D
0F
#720923
0B
#720924
0A
#724328
0G
#724532
0C
#724618
0E
#724722
1H
#725135
0H
#725279
0T
#725359
1J
#725841
0J
#728129
0V
#728754
0g
#728760
1`
#730898
0h
#731491
1c
#732155
06
0*
#733136
0<
0$
#735191
1=
1#
#736530
09
0'
#780000
b11010001 !
b11110001 !
b11111001 !
0-
#780809
1D
#780816
1B
#780819
1A
#784232
0M
#784248
1C
#784251
1E
#784742
1H
#784914
0N
#784946
1T
#785379
1J
#785623
0P
#787539
0R
#787874
1V
#788012
0`
#788020
1L
#788027
1^
#788442
0^
#788444
0d
0_
#788722
1g
#788812
0e
#790687
0c
#790849
1h
#791253
05
0+
#791970
16
1*
#792073
14
1,
#792264
1<
1$
#793171
0:
0&
#795266
0=
0#
#795813
19
1'
#840000
b11111000 !
b11111100 !
b11101100 !
1-
#840809
1F
#840894
0K
#840924
0A
#843944
1M
#843949
1G
#844301
0H
#844532
0C
#844567
1N
#845007
0J
#845229
1P
#845279
0T
#845357
1H
#845994
1J
#847086
1R
#847513
0g
#847527
1f
#847529
1a
#847530
1^
#848129
0V
#848754
0f
#848758
0^
#849657
0h
#850172
1c
#850878
15
1+
#852155
06
0*
#853950
1=
1#
#855211
09
0'
#900000
b11101110 !
b11100110 !
b11100111 !
b11110111 !
0-
#900789
1I
1K
#900819
1A
#900914
0D
#904188
1C
#904383
0G
#904646
0M
#904651
0E
#904886
1T
#905168
0H
#905328
0N
#905874
0J
#906037
0P
#907814
1V
#907953
0R
#908424
0a
#908439
1g
#908468
0L
#908960
1_
#909238
0g
#909266
1f
#909273
1i
#911014
0c
#911667
05
0+
#911910
16
1*
#911933
1j
#912421
04
0,
#913347
0;
0%
#915287
0>
0"
#916140
19
1'
#960000
b11010111 !
b11000111 !
1-
#960923
0B
#960924
0A
#964532
0C
#964539
1M
#965162
1N
#965279
0T
#965824
1P
#967681
1R
#968106
0f
#968110
0i
#968124
1g
#968126
1d
#968129
0V
#968485
1e
#968754
0g
#968760
1`
#970761
0j
#971473
15
1+
#971491
1c
#972124
1;
1%
#972155
06
0*
#972912
1:
1&
#973136
0<
0$
#974026
1>
1"
#976530
09
0'
