designday/proto/kitchen_ctr/simulation/qsim/kitchen_ctr.msim.vcd
$comment
	File created using the following command:
		vcd file kitchen_ctr.msim.vcd -direction
$end
$date
	Mon May 14 18:16:48 2018
$end
$version
	ModelSim Version 10.1d
$end
$timescale
	1ps
$end
$scope module kitchen_ctr_vlg_vec_tst $end
$var reg 1 ! btn_press $end
$var reg 1 " clk $end
$var reg 1 # down_en $end
$var reg 1 $ rst $end
$var wire 1 % led_out $end
$var wire 1 & q [5] $end
$var wire 1 ' q [4] $end
$var wire 1 ( q [3] $end
$var wire 1 ) q [2] $end
$var wire 1 * q [1] $end
$var wire 1 + q [0] $end
$var wire 1 , sampler $end
$scope module i1 $end
$var wire 1 - gnd $end
$var wire 1 . vcc $end
$var wire 1 / unknown $end
$var tri1 1 0 devclrn $end
$var tri1 1 1 devpor $end
$var tri1 1 2 devoe $end
$var wire 1 3 led_out~output_o $end
$var wire 1 4 q[0]~output_o $end
$var wire 1 5 q[1]~output_o $end
$var wire 1 6 q[2]~output_o $end
$var wire 1 7 q[3]~output_o $end
$var wire 1 8 q[4]~output_o $end
$var wire 1 9 q[5]~output_o $end
$var wire 1 : clk~input_o $end
$var wire 1 ; down_en~input_o $end
$var wire 1 < btn_press~input_o $end
$var wire 1 = clock~combout $end
$var wire 1 > clock~clkctrl_outclk $end
$var wire 1 ? rst~input_o $end
$var wire 1 @ count[5]~45_combout $end
$var wire 1 A count[2]~1_combout $end
$var wire 1 B Add0~0_combout $end
$var wire 1 C counted_to_zero~8_combout $end
$var wire 1 D count[0]~14_combout $end
$var wire 1 E count[1]~16_combout $end
$var wire 1 F Add0~1 $end
$var wire 1 G Add0~2_combout $end
$var wire 1 H count[1]~17_combout $end
$var wire 1 I Add0~3 $end
$var wire 1 J Add0~4_combout $end
$var wire 1 K count[2]~44_combout $end
$var wire 1 L count[2]~3_combout $end
$var wire 1 M count[2]~0_combout $end
$var wire 1 N count[2]~_emulated_q $end
$var wire 1 O count[2]~2_combout $end
$var wire 1 P Add0~5 $end
$var wire 1 Q Add0~6_combout $end
$var wire 1 R count[3]~46_combout $end
$var wire 1 S count[3]~5_combout $end
$var wire 1 T count[3]~_emulated_q $end
$var wire 1 U count[3]~4_combout $end
$var wire 1 V LessThan1~0_combout $end
$var wire 1 W Add0~7 $end
$var wire 1 X Add0~8_combout $end
$var wire 1 Y count[4]~47_combout $end
$var wire 1 Z count[4]~7_combout $end
$var wire 1 [ count[4]~_emulated_q $end
$var wire 1 \ count[4]~6_combout $end
$var wire 1 ] LessThan1~1_combout $end
$var wire 1 ^ process_0~0_combout $end
$var wire 1 _ Add0~9 $end
$var wire 1 ` Add0~10_combout $end
$var wire 1 a count[5]~48_combout $end
$var wire 1 b count[5]~9_combout $end
$var wire 1 c count[5]~_emulated_q $end
$var wire 1 d count[5]~8_combout $end
$var wire 1 e counted_to_zero~9_combout $end
$var wire 1 f Add0~11 $end
$var wire 1 g Add0~12_combout $end
$var wire 1 h count[6]~27_combout $end
$var wire 1 i Add0~13 $end
$var wire 1 j Add0~14_combout $end
$var wire 1 k count[7]~38_combout $end
$var wire 1 l Add0~15 $end
$var wire 1 m Add0~16_combout $end
$var wire 1 n count[8]~37_combout $end
$var wire 1 o Add0~17 $end
$var wire 1 p Add0~18_combout $end
$var wire 1 q count[9]~36_combout $end
$var wire 1 r Add0~19 $end
$var wire 1 s Add0~20_combout $end
$var wire 1 t count[10]~35_combout $end
$var wire 1 u Add0~21 $end
$var wire 1 v Add0~22_combout $end
$var wire 1 w count[11]~34_combout $end
$var wire 1 x Add0~23 $end
$var wire 1 y Add0~24_combout $end
$var wire 1 z count[12]~33_combout $end
$var wire 1 { Add0~25 $end
$var wire 1 | Add0~26_combout $end
$var wire 1 } count[13]~32_combout $end
$var wire 1 ~ Add0~27 $end
$var wire 1 !! Add0~28_combout $end
$var wire 1 "! count[14]~31_combout $end
$var wire 1 #! Add0~29 $end
$var wire 1 $! Add0~30_combout $end
$var wire 1 %! count[15]~26_combout $end
$var wire 1 &! Add0~31 $end
$var wire 1 '! Add0~32_combout $end
$var wire 1 (! count[16]~25_combout $end
$var wire 1 )! Add0~33 $end
$var wire 1 *! Add0~34_combout $end
$var wire 1 +! count[17]~24_combout $end
$var wire 1 ,! Add0~35 $end
$var wire 1 -! Add0~36_combout $end
$var wire 1 .! count[18]~23_combout $end
$var wire 1 /! Add0~37 $end
$var wire 1 0! Add0~38_combout $end
$var wire 1 1! count[19]~43_combout $end
$var wire 1 2! Add0~39 $end
$var wire 1 3! Add0~40_combout $end
$var wire 1 4! count[20]~42_combout $end
$var wire 1 5! Add0~41 $end
$var wire 1 6! Add0~42_combout $end
$var wire 1 7! count[21]~30_combout $end
$var wire 1 8! Add0~43 $end
$var wire 1 9! Add0~44_combout $end
$var wire 1 :! count[22]~41_combout $end
$var wire 1 ;! Add0~45 $end
$var wire 1 <! Add0~46_combout $end
$var wire 1 =! count[23]~22_combout $end
$var wire 1 >! Add0~47 $end
$var wire 1 ?! Add0~48_combout $end
$var wire 1 @! count[24]~21_combout $end
$var wire 1 A! Add0~49 $end
$var wire 1 B! Add0~50_combout $end
$var wire 1 C! count[25]~20_combout $end
$var wire 1 D! Add0~51 $end
$var wire 1 E! Add0~52_combout $end
$var wire 1 F! count[26]~19_combout $end
$var wire 1 G! counted_to_zero~0_combout $end
$var wire 1 H! Add0~53 $end
$var wire 1 I! Add0~54_combout $end
$var wire 1 J! count[27]~40_combout $end
$var wire 1 K! Add0~55 $end
$var wire 1 L! Add0~56_combout $end
$var wire 1 M! count[28]~29_combout $end
$var wire 1 N! Add0~57 $end
$var wire 1 O! Add0~58_combout $end
$var wire 1 P! count[29]~28_combout $end
$var wire 1 Q! counted_to_zero~2_combout $end
$var wire 1 R! counted_to_zero~1_combout $end
$var wire 1 S! Add0~59 $end
$var wire 1 T! Add0~60_combout $end
$var wire 1 U! count[30]~39_combout $end
$var wire 1 V! counted_to_zero~3_combout $end
$var wire 1 W! counted_to_zero~5_combout $end
$var wire 1 X! counted_to_zero~4_combout $end
$var wire 1 Y! counted_to_zero~6_combout $end
$var wire 1 Z! counted_to_zero~7_combout $end
$var wire 1 [! counted_to_zero~10_combout $end
$var wire 1 \! counted_to_zero~q $end
$var wire 1 ]! count [30] $end
$var wire 1 ^! count [29] $end
$var wire 1 _! count [28] $end
$var wire 1 `! count [27] $end
$var wire 1 a! count [26] $end
$var wire 1 b! count [25] $end
$var wire 1 c! count [24] $end
$var wire 1 d! count [23] $end
$var wire 1 e! count [22] $end
$var wire 1 f! count [21] $end
$var wire 1 g! count [20] $end
$var wire 1 h! count [19] $end
$var wire 1 i! count [18] $end
$var wire 1 j! count [17] $end
$var wire 1 k! count [16] $end
$var wire 1 l! count [15] $end
$var wire 1 m! count [14] $end
$var wire 1 n! count [13] $end
$var wire 1 o! count [12] $end
$var wire 1 p! count [11] $end
$var wire 1 q! count [10] $end
$var wire 1 r! count [9] $end
$var wire 1 s! count [8] $end
$var wire 1 t! count [7] $end
$var wire 1 u! count [6] $end
$var wire 1 v! count [5] $end
$var wire 1 w! count [4] $end
$var wire 1 x! count [3] $end
$var wire 1 y! count [2] $end
$var wire 1 z! count [1] $end
$var wire 1 {! count [0] $end
$upscope $end
$upscope $end
$enddefinitions $end
#0
$dumpvars
0!
0"
0#
1$
x%
x+
x*
x)
x(
x'
x&
x,
0-
1.
x/
10
11
12
x3
x4
x5
x6
x7
x8
x9
0:
0;
0<
x=
x>
1?
x@
xA
xB
xC
xD
xE
xF
xG
xH
xI
xJ
xK
xL
xM
0N
xO
xP
xQ
xR
xS
0T
xU
xV
xW
xX
xY
xZ
0[
x\
x]
x^
x_
x`
xa
xb
0c
xd
xe
xf
xg
xh
xi
xj
xk
xl
xm
xn
xo
xp
xq
xr
xs
xt
xu
xv
xw
xx
xy
xz
x{
x|
x}
x~
x!!
x"!
x#!
x$!
x%!
x&!
x'!
x(!
x)!
x*!
x+!
x,!
x-!
x.!
x/!
x0!
x1!
x2!
x3!
x4!
x5!
x6!
x7!
x8!
x9!
x:!
x;!
x<!
x=!
x>!
x?!
x@!
xA!
xB!
xC!
xD!
xE!
xF!
xG!
xH!
xI!
xJ!
xK!
xL!
xM!
xN!
xO!
xP!
xQ!
xR!
xS!
xT!
xU!
xV!
xW!
xX!
xY!
xZ!
x[!
0\!
0{!
0z!
zy!
zx!
zw!
zv!
0u!
0t!
0s!
0r!
0q!
0p!
0o!
0n!
0m!
0l!
0k!
0j!
0i!
0h!
0g!
0f!
0e!
0d!
0c!
0b!
0a!
0`!
0_!
0^!
0]!
$end
#563
1G!
#568
1V!
#569
1R!
#572
0V
#700
1X!
1W!
1Q!
#1003
1Y!
#1264
0F
#1301
1B
#1322
1I
#1459
1Z!
#1775
0^
#2712
03
0%
#2983
04
0+
#3366
0=
#3428
0C
#3578
1E
#3664
0/!
#3670
05!
0u
#3671
0N!
#3672
0A!
0;!
#3676
0P
#3682
1@
#3695
0)!
#3697
0H!
#3734
1W
#3788
12!
#3792
0_
#3797
1K!
1>!
1x
1r
#3802
1l
#3823
1&!
#3825
1,!
#3826
18!
#3831
1S!
1D!
#3850
1f
#3867
0{
0i
#3868
0o
#3869
0#!
#3921
0G
#3931
05
0*
#3950
1D
#3989
1~
#4101
00!
#4107
0v
06!
#4108
0O!
#4109
0<!
0B!
#4120
1M
#4132
0*!
#4134
0I!
#4206
0[!
#4225
03!
#4234
0s
0y
0?!
0L!
#4239
0m
#4260
0'!
#4262
0-!
#4263
09!
#4268
0E!
0T!
#4287
0g
#4304
0j
0|
#4305
0p
#4306
0$!
#4426
0!!
#4455
0A
#4466
0\
#4541
01!
#4604
0J!
#4688
04!
#4708
0U!
#4710
0:!
#4730
0=!
#4754
0P!
#4788
0>
#4860
0C!
#4871
0M!
0@!
#4876
07!
#4877
0.!
#4890
0+!
#4891
0F!
#4925
0z
#4931
0w
#4934
0%!
#4961
0H
#5002
0(!
#5073
0X
#5142
0"!
#5158
0q
#5161
0t
#5251
0]
#5300
0h
#5321
0}
#5324
0d
#5326
0O
#5329
0U
#5346
0k
#5536
0Y
#5647
0n
#5968
1e
#5982
0Z
#6073
0J
#6153
0Q
#6158
0`
#6625
0a
#6802
0K
#6884
0R
#6913
08
0'
#6942
0b
#7205
0S
#7248
0L
#7796
07
0(
#7827
09
0&
#7987
06
0)
#20000
1!
1"
0,
#20686
1:
1<
#21635
1=
#23008
1>
#40000
0$
0!
0"
1,
#40850
0:
0<
0?
#41781
0=
#43203
0>
#44770
0E
#44855
0@
#45324
0M
#60000
1!
1"
0,
#60686
1:
1<
#61635
1=
#63008
1>
#64855
1{!
#66120
0B
#66197
1F
#66652
1G
#67302
0D
#67693
1H
#67841
14
1+
#80000
0!
0"
1,
#80850
0:
0<
#81781
0=
#83203
0>
#100000
1!
1"
0,
#100686
1:
1<
#101635
1=
#103008
1>
#104855
0{!
1z!
#105994
0I
#106056
0G
#106119
0F
#106156
1B
#106177
1I
#106574
1G
#107322
1D
#107838
04
0+
#108682
15
1*
#120000
0!
0"
1,
#120850
0:
0<
#121781
0=
#123203
0>
#140000
1!
1"
0,
#140686
1:
1<
#141635
1=
#143008
1>
#144855
1{!
#146120
0B
#146197
1F
#146255
0I
#146634
0G
#146710
1J
#147302
0D
#147402
1K
#147674
0H
#147817
1L
#147841
14
1+
#160000
0!
0"
1,
#160850
0:
0<
#161781
0=
#163203
0>
#180000
1!
1"
0,
#180686
1:
1<
#181635
1=
#183008
1>
#184852
1N
#184855
0{!
0z!
#185200
1O
#185912
0J
#185999
1P
#186113
1G
#186119
0F
#186156
1B
#186178
1I
#186236
0P
#186556
0G
#186633
1J
#186641
0K
#187087
0L
#187322
1D
#187325
1K
#187740
1L
#187838
04
0+
#187893
16
1)
#188786
05
0*
#200000
0!
0"
1,
#200850
0:
0<
#201781
0=
#203203
0>
#220000
1!
1"
0,
#220686
1:
1<
#221635
1=
#223008
1>
#224855
1{!
#226120
0B
#226197
1F
#226652
1G
#227302
0D
#227693
1H
#227841
14
1+
#240000
0!
0"
1,
#240850
0:
0<
#241781
0=
#243203
0>
#260000
1!
1"
0,
#260686
1:
1<
#261635
1=
#263008
1>
#264855
0{!
1z!
#265994
0I
#266052
1P
#266056
0G
#266119
0F
#266156
1B
#266177
1I
#266235
0P
#266574
1G
#267322
1D
#267838
04
0+
#268682
15
1*
#280000
0!
0"
1,
#280850
0:
0<
#281781
0=
#283203
0>
#300000
1!
1"
0,
#300686
1:
1<
#301635
1=
#303008
1>
#304855
1{!
#306120
0B
#306197
1F
#306255
0I
#306313
1P
#306634
0G
#306692
0J
#306768
1Q
#307302
0D
#307421
0K
#307454
1R
#307674
0H
#307759
1S
#307841
14
1+
#307867
0L
#320000
0!
0"
1,
#320850
0:
0<
#321781
0=
#323203
0>
#340000
1!
1"
0,
#340686
1:
1<
#341635
1=
#343008
1>
#344852
0N
1T
#344855
0{!
0z!
#345198
1U
#345259
0O
#345808
0e
#345935
0W
#345972
0P
#346011
1J
#346030
1W
#346113
1G
#346119
0F
#346156
1B
#346178
1I
#346556
0G
#346615
0J
#346703
1K
#347118
1L
#347322
1D
#347344
0K
#347691
17
1(
#347790
0L
#347838
04
0+
#347920
06
0)
#348786
05
0*
#360000
0!
0"
1,
#360850
0:
0<
#361781
0=
#363203
0>
#380000
1!
1"
0,
#380686
1:
1<
#381635
1=
#383008
1>
#384855
1{!
#386120
0B
#386197
1F
#386652
1G
#387302
0D
#387693
1H
#387841
14
1+
#400000
0!
0"
1,
#400850
0:
0<
#401781
0=
#403203
0>
#420000
1!
1"
0,
#420686
1:
1<
#421635
1=
#423008
1>
#424855
0{!
1z!
#425994
0I
#426056
0G
#426119
0F
#426156
1B
#426177
1I
#426574
1G
#427322
1D
#427838
04
0+
#428682
15
1*
#440000
0!
0"
1,
#440850
0:
0<
#441781
0=
#443203
0>
#460000
1!
1"
0,
#460686
1:
1<
#461635
1=
#463008
1>
#464855
1{!
#466120
0B
#466197
1F
#466255
0I
#466634
0G
#466710
1J
#467302
0D
#467402
1K
#467674
0H
#467817
1L
#467841
14
1+
#480000
0!
0"
1,
#480850
0:
0<
#481781
0=
#483203
0>
#500000
1!
1"
0,
#500686
1:
1<
#501635
1=
#503008
1>
#504852
1N
#504855
0{!
0z!
#505200
1O
#505912
0J
#505999
1P
#506057
0W
#506113
1G
#506119
0F
#506156
1B
#506178
1I
#506236
0P
#506294
1W
#506556
0G
#506633
1J
#506641
0K
#507087
0L
#507322
1D
#507325
1K
#507740
1L
#507838
04
0+
#507893
16
1)
#508786
05
0*
#520000
0!
0"
1,
#520850
0:
0<
#521781
0=
#523203
0>
#540000
1!
1"
0,
#540686
1:
1<
#541635
1=
#543008
1>
#544855
1{!
#545457
1V
#546120
0B
#546197
1F
#546652
1G
#547302
0D
#547693
1H
#547841
14
1+
#560000
0!
0"
1,
#560850
0:
0<
#561781
0=
#563203
0>
#580000
1!
1"
0,
#580686
1:
1<
#581635
1=
#583008
1>
#584855
0{!
1z!
#585994
0I
#586052
1P
#586056
0G
#586110
0W
#586119
0F
#586156
1B
#586177
1I
#586235
0P
#586293
1W
#586574
1G
#587322
1D
#587838
04
0+
#588682
15
1*
#600000
0!
0"
1,
#600850
0:
0<
#601781
0=
#603203
0>
#620000
1!
1"
0,
#620686
1:
1<
#621635
1=
#623008
1>
#624855
1{!
#626120
0B
#626197
1F
#626255
0I
#626313
1P
#626371
0W
#626634
0G
#626692
0J
#626750
0Q
#626826
1X
#627284
1Y
#627302
0D
#627421
0K
#627481
0R
#627674
0H
#627699
1Z
#627802
0S
#627841
14
1+
#627867
0L
#640000
0!
0"
1,
#640850
0:
0<
#641781
0=
#643203
0>
#660000
1!
1"
0,
#660686
1:
1<
#661635
1=
#663008
1>
#664852
0N
0T
1[
#664855
0{!
0z!
#665257
0U
#665259
0O
#665343
1\
#665427
0V
#665911
0X
#665972
0P
#666008
1_
#666011
1J
#666113
1G
#666119
0F
#666141
1W
#666156
1B
#666178
1I
#666199
0_
#666374
0Y
#666556
0G
#666596
1X
#666615
0J
#666703
1K
#666820
0Z
#667054
1Y
#667118
1L
#667322
1D
#667344
0K
#667469
1Z
#667724
07
0(
#667790
0L
#667813
18
1'
#667838
04
0+
#667920
06
0)
#668786
05
0*
#680000
0!
0"
1,
#680850
0:
0<
#681781
0=
#683203
0>
#700000
1!
1"
0,
#700686
1:
1<
#701635
1=
#703008
1>
#704855
1{!
#706120
0B
#706197
1F
#706652
1G
#707302
0D
#707693
1H
#707841
14
1+
#720000
0!
0"
1,
#720850
0:
0<
#721781
0=
#723203
0>
#740000
1!
1"
0,
#740686
1:
1<
#741635
1=
#743008
1>
#744855
0{!
1z!
#745994
0I
#746056
0G
#746119
0F
#746156
1B
#746177
1I
#746574
1G
#747322
1D
#747838
04
0+
#748682
15
1*
#760000
0!
0"
1,
#760850
0:
0<
#761781
0=
#763203
0>
#780000
1!
1"
0,
#780686
1:
1<
#781635
1=
#783008
1>
#784855
1{!
#786120
0B
#786197
1F
#786255
0I
#786634
0G
#786710
1J
#787302
0D
#787402
1K
#787674
0H
#787817
1L
#787841
14
1+
#800000
0!
0"
1,
#800850
0:
0<
#801781
0=
#803203
0>
#820000
1!
1"
0,
#820686
1:
1<
#821635
1=
#823008
1>
#824852
1N
#824855
0{!
0z!
#825200
1O
#825912
0J
#825999
1P
#826113
1G
#826119
0F
#826156
1B
#826178
1I
#826236
0P
#826556
0G
#826633
1J
#826641
0K
#827087
0L
#827322
1D
#827325
1K
#827740
1L
#827838
04
0+
#827893
16
1)
#828786
05
0*
#840000
0!
0"
1,
#840850
0:
0<
#841781
0=
#843203
0>
#860000
1!
1"
0,
#860686
1:
1<
#861635
1=
#863008
1>
#864855
1{!
#866120
0B
#866197
1F
#866652
1G
#867302
0D
#867693
1H
#867841
14
1+
#880000
0!
0"
1,
#880850
0:
0<
#881781
0=
#883203
0>
#900000
1!
1"
0,
#900686
1:
1<
#901635
1=
#903008
1>
#904855
0{!
1z!
#905994
0I
#906052
1P
#906056
0G
#906119
0F
#906156
1B
#906177
1I
#906235
0P
#906574
1G
#907322
1D
#907838
04
0+
#908682
15
1*
#920000
0!
0"
1,
#920850
0:
0<
#921781
0=
#923203
0>
#940000
1!
1"
0,
#940686
1:
1<
#941635
1=
#943008
1>
#944855
1{!
#946120
0B
#946197
1F
#946255
0I
#946313
1P
#946634
0G
#946692
0J
#946768
1Q
#947302
0D
#947421
0K
#947454
1R
#947674
0H
#947759
1S
#947841
14
1+
#947867
0L
#960000
0!
0"
1,
#960850
0:
0<
#961781
0=
#963203
0>
#980000
1!
1"
0,
#980686
1:
1<
#981635
1=
#983008
1>
#984852
0N
1T
#984855
0{!
0z!
#985198
1U
#985259
0O
#985935
0W
#985972
0P
#985993
1_
#986011
1J
#986030
1W
#986088
0_
#986113
1G
#986119
0F
#986156
1B
#986178
1I
#986556
0G
#986615
0J
#986703
1K
#987118
1L
#987322
1D
#987344
0K
#987691
17
1(
#987790
0L
#987838
04
0+
#987920
06
0)
#988786
05
0*
#1000000
0!
0"
1,
#1000850
0:
0<
#1001781
0=
#1003203
0>
#1020000
1!
1"
0,
#1020686
1:
1<
#1021635
1=
#1023008
1>
#1024855
1{!
#1026120
0B
#1026197
1F
#1026652
1G
#1027302
0D
#1027693
1H
#1027841
14
1+
#1040000
0!
0"
1,
#1040850
0:
0<
#1041781
0=
#1043203
0>
#1060000
1!
1"
0,
#1060686
1:
1<
#1061635
1=
#1063008
1>
#1064855
0{!
1z!
#1065994
0I
#1066056
0G
#1066119
0F
#1066156
1B
#1066177
1I
#1066574
1G
#1067322
1D
#1067838
04
0+
#1068682
15
1*
#1080000
0!
0"
1,
#1080850
0:
0<
#1081781
0=
#1083203
0>
#1100000
1!
1"
0,
#1100686
1:
1<
#1101635
1=
#1103008
1>
#1104855
1{!
#1106120
0B
#1106197
1F
#1106255
0I
#1106634
0G
#1106710
1J
#1107302
0D
#1107402
1K
#1107674
0H
#1107817
1L
#1107841
14
1+
#1120000
0!
0"
1,
#1120850
0:
0<
#1121781
0=
#1123203
0>
#1140000
1!
1"
0,
#1140686
1:
1<
#1141635
1=
#1143008
1>
#1144852
1N
#1144855
0{!
0z!
#1145200
1O
#1145912
0J
#1145999
1P
#1146057
0W
#1146113
1G
#1146115
1_
#1146119
0F
#1146156
1B
#1146178
1I
#1146236
0P
#1146294
1W
#1146352
0_
#1146556
0G
#1146633
1J
#1146641
0K
#1147087
0L
#1147322
1D
#1147325
1K
#1147740
1L
#1147838
04
0+
#1147893
16
1)
#1148786
05
0*
#1160000
0!
0"
1,
#1160850
0:
0<
#1161781
0=
#1163203
0>
#1180000
1!
1"
0,
#1180686
1:
1<
#1181635
1=
#1183008
1>
#1184855
1{!
#1185457
1V
#1186120
0B
#1186197
1F
#1186652
1G
#1187302
0D
#1187693
1H
#1187841
14
1+
#1200000
0!
0"
1,
#1200850
0:
0<
#1201781
0=
#1203203
0>
#1220000
1!
1"
0,
#1220686
1:
1<
#1221635
1=
#1223008
1>
#1224855
0{!
1z!
#1225994
0I
#1226052
1P
#1226056
0G
#1226110
0W
#1226119
0F
#1226156
1B
#1226168
1_
#1226177
1I
#1226235
0P
#1226293
1W
#1226351
0_
#1226574
1G
#1227322
1D
#1227838
04
0+
#1228682
15
1*
#1240000
0!
0"
1,
#1240850
0:
0<
#1241781
0=
#1243203
0>
#1260000
1!
1"
0,
#1260686
1:
1<
#1261635
1=
#1263008
1>
#1264855
1{!
#1266120
0B
#1266197
1F
#1266255
0I
#1266313
1P
#1266371
0W
#1266429
1_
#1266634
0G
#1266692
0J
#1266750
0Q
#1266808
0X
#1266884
1`
#1267271
0Y
#1267302
0D
#1267343
1a
#1267421
0K
#1267481
0R
#1267646
1b
#1267674
0H
#1267717
0Z
#1267802
0S
#1267841
14
1+
#1267867
0L
#1280000
0!
0"
1,
#1280850
0:
0<
#1281781
0=
#1283203
0>
#1300000
1!
1"
0,
#1300686
1:
1<
#1301635
1=
#1303008
1>
#1304852
0N
0T
0[
1c
#1304855
0{!
0z!
#1305197
1d
#1305257
0U
#1305259
0O
#1305391
0\
#1305427
0V
#1305662
1]
#1305942
0f
#1305967
0_
#1305972
0P
#1306004
1X
#1306011
1J
#1306025
1f
#1306113
1G
#1306119
0F
#1306141
1W
#1306156
1B
#1306176
0]
#1306178
1I
#1306462
1Y
#1306556
0G
#1306578
0X
#1306615
0J
#1306703
1K
#1306877
1Z
#1307041
0Y
#1307118
1L
#1307322
1D
#1307344
0K
#1307487
0Z
#1307724
07
0(
#1307726
19
1&
#1307790
0L
#1307838
08
04
0'
0+
#1307920
06
0)
#1308786
05
0*
#1320000
0!
0"
1,
#1320850
0:
0<
#1321781
0=
#1323203
0>
#1340000
1!
1"
0,
#1340686
1:
1<
#1341635
1=
#1343008
1>
#1344855
1{!
#1346120
0B
#1346197
1F
#1346652
1G
#1347302
0D
#1347693
1H
#1347841
14
1+
#1360000
0!
0"
1,
#1360850
0:
0<
#1361781
0=
#1363203
0>
#1380000
1!
1"
0,
#1380686
1:
1<
#1381635
1=
#1383008
1>
#1384855
0{!
1z!
#1385994
0I
#1386056
0G
#1386119
0F
#1386156
1B
#1386177
1I
#1386574
1G
#1387322
1D
#1387838
04
0+
#1388682
15
1*
#1400000
0!
0"
1,
#1400850
0:
0<
#1401781
0=
#1403203
0>
#1420000
1!
1"
0,
#1420686
1:
1<
#1421635
1=
#1423008
1>
#1424855
1{!
#1426120
0B
#1426197
1F
#1426255
0I
#1426634
0G
#1426710
1J
#1427302
0D
#1427402
1K
#1427674
0H
#1427817
1L
#1427841
14
1+
#1440000
0!
0"
1,
#1440850
0:
0<
#1441781
0=
#1443203
0>
#1460000
1!
1"
0,
#1460686
1:
1<
#1461635
1=
#1463008
1>
#1464852
1N
#1464855
0{!
0z!
#1465200
1O
#1465912
0J
#1465999
1P
#1466113
1G
#1466119
0F
#1466156
1B
#1466178
1I
#1466236
0P
#1466556
0G
#1466633
1J
#1466641
0K
#1467087
0L
#1467322
1D
#1467325
1K
#1467740
1L
#1467838
04
0+
#1467893
16
1)
#1468786
05
0*
#1480000
0!
0"
1,
#1480850
0:
0<
#1481781
0=
#1483203
0>
#1500000
1!
1"
0,
#1500686
1:
1<
#1501635
1=
#1503008
1>
#1504855
1{!
#1506120
0B
#1506197
1F
#1506652
1G
#1507302
0D
#1507693
1H
#1507841
14
1+
#1520000
0!
0"
1,
#1520850
0:
0<
#1521781
0=
#1523203
0>
#1540000
1!
1"
0,
#1540686
1:
1<
#1541635
1=
#1543008
1>
#1544855
0{!
1z!
#1545994
0I
#1546052
1P
#1546056
0G
#1546119
0F
#1546156
1B
#1546177
1I
#1546235
0P
#1546574
1G
#1547322
1D
#1547838
04
0+
#1548682
15
1*
#1560000
0!
0"
1,
#1560850
0:
0<
#1561781
0=
#1563203
0>
#1580000
1!
1"
0,
#1580686
1:
1<
#1581635
1=
#1583008
1>
#1584855
1{!
#1586120
0B
#1586197
1F
#1586255
0I
#1586313
1P
#1586634
0G
#1586692
0J
#1586768
1Q
#1587302
0D
#1587421
0K
#1587454
1R
#1587674
0H
#1587759
1S
#1587841
14
1+
#1587867
0L
#1600000
0!
0"
1,
#1600850
0:
0<
#1601781
0=
#1603203
0>
#1620000
1!
1"
0,
#1620686
1:
1<
#1621635
1=
#1623008
1>
#1624852
0N
1T
#1624855
0{!
0z!
#1625198
1U
#1625259
0O
#1625935
0W
#1625972
0P
#1626011
1J
#1626030
1W
#1626113
1G
#1626119
0F
#1626156
1B
#1626178
1I
#1626556
0G
#1626615
0J
#1626703
1K
#1627118
1L
#1627322
1D
#1627344
0K
#1627691
17
1(
#1627790
0L
#1627838
04
0+
#1627920
06
0)
#1628786
05
0*
#1640000
0!
0"
1,
#1640850
0:
0<
#1641781
0=
#1643203
0>
#1660000
1!
1"
0,
#1660686
1:
1<
#1661635
1=
#1663008
1>
#1664855
1{!
#1666120
0B
#1666197
1F
#1666652
1G
#1667302
0D
#1667693
1H
#1667841
14
1+
#1680000
0!
0"
1,
#1680850
0:
0<
#1681781
0=
#1683203
0>
#1700000
1!
1"
0,
#1700686
1:
1<
#1701635
1=
#1703008
1>
#1704855
0{!
1z!
#1705994
0I
#1706056
0G
#1706119
0F
#1706156
1B
#1706177
1I
#1706574
1G
#1707322
1D
#1707838
04
0+
#1708682
15
1*
#1720000
0!
0"
1,
#1720850
0:
0<
#1721781
0=
#1723203
0>
#1740000
1!
1"
0,
#1740686
1:
1<
#1741635
1=
#1743008
1>
#1744855
1{!
#1746120
0B
#1746197
1F
#1746255
0I
#1746634
0G
#1746710
1J
#1747302
0D
#1747402
1K
#1747674
0H
#1747817
1L
#1747841
14
1+
#1760000
0!
0"
1,
#1760850
0:
0<
#1761781
0=
#1763203
0>
#1780000
1!
1"
0,
#1780686
1:
1<
#1781635
1=
#1783008
1>
#1784852
1N
#1784855
0{!
0z!
#1785200
1O
#1785912
0J
#1785999
1P
#1786057
0W
#1786113
1G
#1786119
0F
#1786156
1B
#1786178
1I
#1786236
0P
#1786294
1W
#1786556
0G
#1786633
1J
#1786641
0K
#1787087
0L
#1787322
1D
#1787325
1K
#1787740
1L
#1787838
04
0+
#1787893
16
1)
#1788786
05
0*
#1800000
0!
0"
1,
#1800850
0:
0<
#1801781
0=
#1803203
0>
#1820000
1!
1"
0,
#1820686
1:
1<
#1821635
1=
#1823008
1>
#1824855
1{!
#1825457
1V
#1826120
0B
#1826197
1F
#1826652
1G
#1827302
0D
#1827693
1H
#1827841
14
1+
#1840000
0!
0"
1,
#1840850
0:
0<
#1841781
0=
#1843203
0>
#1860000
1!
1"
0,
#1860686
1:
1<
#1861635
1=
#1863008
1>
#1864855
0{!
1z!
#1865994
0I
#1866052
1P
#1866056
0G
#1866110
0W
#1866119
0F
#1866156
1B
#1866177
1I
#1866235
0P
#1866293
1W
#1866574
1G
#1867322
1D
#1867838
04
0+
#1868682
15
1*
#1880000
0!
0"
1,
#1880850
0:
0<
#1881781
0=
#1883203
0>
#1900000
1!
1"
0,
#1900686
1:
1<
#1901635
1=
#1903008
1>
#1904855
1{!
#1906120
0B
#1906197
1F
#1906255
0I
#1906313
1P
#1906371
0W
#1906634
0G
#1906692
0J
#1906750
0Q
#1906826
1X
#1907284
1Y
#1907302
0D
#1907421
0K
#1907481
0R
#1907674
0H
#1907699
1Z
#1907802
0S
#1907841
14
1+
#1907867
0L
#1920000
0!
0"
1,
#1920850
0:
0<
#1921781
0=
#1923203
0>
#1940000
1!
1"
0,
#1940686
1:
1<
#1941635
1=
#1943008
1>
#1944852
0N
0T
1[
#1944855
0{!
0z!
#1945257
0U
#1945259
0O
#1945343
1\
#1945427
0V
#1945911
0X
#1945972
0P
#1946008
1_
#1946011
1J
#1946066
0f
#1946094
1]
#1946113
1G
#1946119
0F
#1946141
1W
#1946156
1B
#1946178
1I
#1946199
0_
#1946257
1f
#1946374
0Y
#1946556
0G
#1946596
1X
#1946615
0J
#1946703
1K
#1946820
0Z
#1947054
1Y
#1947118
1L
#1947322
1D
#1947344
0K
#1947469
1Z
#1947724
07
0(
#1947790
0L
#1947813
18
1'
#1947838
04
0+
#1947920
06
0)
#1948786
05
0*
#1960000
0!
0"
1,
#1960850
0:
0<
#1961781
0=
#1963203
0>
#1980000
1!
1"
0,
#1980686
1:
1<
#1981635
1=
#1983008
1>
#1984855
1{!
#1986120
0B
#1986197
1F
#1986652
1G
#1987302
0D
#1987693
1H
#1987841
14
1+
#2000000
0!
0"
1,
#2000850
0:
0<
#2001781
0=
#2003203
0>
#2020000
1!
1"
0,
#2020686
1:
1<
#2021635
1=
#2023008
1>
#2024855
0{!
1z!
#2025994
0I
#2026056
0G
#2026119
0F
#2026156
1B
#2026177
1I
