4/simulation/qsim/PWM.msim.vcd
$comment
	File created using the following command:
		vcd file PWM.msim.vcd -direction
$end
$date
	Sun May 13 15:29:01 2018
$end
$version
	ModelSim Version 10.1d
$end
$timescale
	1ps
$end
$scope module pwm_demo_sc_vhd_vec_tst $end
$var wire 1 ! clk_pwm_out $end
$var wire 1 " clk_sys $end
$var wire 1 # count [2] $end
$var wire 1 $ count [1] $end
$var wire 1 % count [0] $end
$var wire 1 & duty [2] $end
$var wire 1 ' duty [1] $end
$var wire 1 ( duty [0] $end
$var wire 1 ) pwm $end
$scope module i1 $end
$var wire 1 * gnd $end
$var wire 1 + vcc $end
$var wire 1 , unknown $end
$var wire 1 - devoe $end
$var wire 1 . devclrn $end
$var wire 1 / devpor $end
$var wire 1 0 ww_devoe $end
$var wire 1 1 ww_devclrn $end
$var wire 1 2 ww_devpor $end
$var wire 1 3 ww_duty [2] $end
$var wire 1 4 ww_duty [1] $end
$var wire 1 5 ww_duty [0] $end
$var wire 1 6 ww_clk_sys $end
$var wire 1 7 ww_clk_pwm_out $end
$var wire 1 8 ww_pwm $end
$var wire 1 9 ww_count [2] $end
$var wire 1 : ww_count [1] $end
$var wire 1 ; ww_count [0] $end
$var wire 1 < \rtl~0clkctrl_INCLK_bus\ [3] $end
$var wire 1 = \rtl~0clkctrl_INCLK_bus\ [2] $end
$var wire 1 > \rtl~0clkctrl_INCLK_bus\ [1] $end
$var wire 1 ? \rtl~0clkctrl_INCLK_bus\ [0] $end
$var wire 1 @ \clk_sys~inputclkctrl_INCLK_bus\ [3] $end
$var wire 1 A \clk_sys~inputclkctrl_INCLK_bus\ [2] $end
$var wire 1 B \clk_sys~inputclkctrl_INCLK_bus\ [1] $end
$var wire 1 C \clk_sys~inputclkctrl_INCLK_bus\ [0] $end
$var wire 1 D \clk_pwm_out~output_o\ $end
$var wire 1 E \pwm~output_o\ $end
$var wire 1 F \count[0]~output_o\ $end
$var wire 1 G \count[1]~output_o\ $end
$var wire 1 H \count[2]~output_o\ $end
$var wire 1 I \clk_sys~input_o\ $end
$var wire 1 J \clk_sys~inputclkctrl_outclk\ $end
$var wire 1 K \sc_counter[0]~2_combout\ $end
$var wire 1 L \sc_counter~0_combout\ $end
$var wire 1 M \sc_counter~1_combout\ $end
$var wire 1 N \sc_counter[1]~feeder_combout\ $end
$var wire 1 O \rtl~0_combout\ $end
$var wire 1 P \rtl~0clkctrl_outclk\ $end
$var wire 1 Q \pwm_counter~1_combout\ $end
$var wire 1 R \pwm_counter~2_combout\ $end
$var wire 1 S \pwm_counter~0_combout\ $end
$var wire 1 T \duty[2]~input_o\ $end
$var wire 1 U \duty[0]~input_o\ $end
$var wire 1 V \duty[1]~input_o\ $end
$var wire 1 W \LessThan1~0_combout\ $end
$var wire 1 X \LessThan1~1_combout\ $end
$var wire 1 Y pwm_counter [2] $end
$var wire 1 Z pwm_counter [1] $end
$var wire 1 [ pwm_counter [0] $end
$var wire 1 \ sc_counter [2] $end
$var wire 1 ] sc_counter [1] $end
$var wire 1 ^ sc_counter [0] $end
$upscope $end
$upscope $end
$enddefinitions $end
#0
$dumpvars
0!
0"
1)
0*
1+
x,
1-
1.
1/
10
11
12
06
07
18
0D
1E
0F
0G
0H
0I
0J
1K
0L
0M
0N
0O
0P
0Q
1R
0S
0T
1U
1V
1W
1X
0&
1'
1(
03
14
15
09
0:
0;
0Y
0Z
0[
0\
0]
0^
1@
1A
1B
0C
1<
1=
1>
0?
0#
0$
0%
$end
#10000
1"
16
1I
1C
1J
1^
0K
1M
1N
#20000
0"
06
0I
0C
0J
#30000
1"
16
1I
1C
1J
0^
1]
1K
#40000
0"
06
0I
0C
0J
#50000
1"
16
1I
1C
1J
1^
0K
1L
0M
0N
#60000
0"
06
0I
0C
0J
#70000
1"
16
1I
1C
1\
0L
1O
1J
1?
0^
0]
1P
1D
0O
1K
1L
17
0?
1[
1!
1Q
0R
0P
0D
07
1F
0!
1;
1%
#80000
0"
06
0I
0C
0J
#90000
1"
16
1I
1C
1J
1^
0K
0L
#100000
0"
06
0I
0C
0J
#110000
1"
16
1I
1C
0\
1M
1J
1N
0^
1K
0M
0N
#120000
0"
06
0I
0C
0J
#130000
1"
16
1I
1C
1J
1^
0K
1M
1N
#140000
0"
06
0I
0C
0J
#150000
1"
16
1I
1C
1J
0^
1]
1K
#160000
0"
06
0I
0C
0J
#170000
1"
16
1I
1C
1J
1^
0K
1L
0M
0N
#180000
0"
06
0I
0C
0J
#190000
1"
16
1I
1C
1\
0L
1O
1J
1?
0^
0]
1P
1D
0O
1K
1L
17
0?
1Z
0[
1!
1R
0P
0D
07
0F
1G
0!
0;
1:
0%
1$
#200000
0"
06
0I
0C
0J
#210000
1"
16
1I
1C
1J
1^
0K
0L
#220000
0"
06
0I
0C
0J
#230000
1"
16
1I
1C
0\
1M
1J
1N
0^
1K
0M
0N
#240000
0"
06
0I
0C
0J
#250000
1"
16
1I
1C
1J
1^
0K
1M
1N
#260000
0"
06
0I
0C
0J
#270000
1"
16
1I
1C
1J
0^
1]
1K
#280000
0"
06
0I
0C
0J
#290000
1"
16
1I
1C
1J
1^
0K
1L
0M
0N
#300000
0"
06
0I
0C
0J
#310000
1"
16
1I
1C
1\
0L
1O
1J
1?
0^
0]
1P
1D
0O
1K
1L
17
0?
1[
1!
0Q
0R
1S
0W
0P
0D
0X
07
1F
0!
1;
1%
0E
08
0)
#320000
0"
06
0I
0C
0J
#330000
1"
16
1I
1C
1J
1^
0K
0L
#340000
0"
06
0I
0C
0J
#350000
1"
16
1I
1C
0\
1M
1J
1N
0^
1K
0M
0N
#360000
0"
06
0I
0C
0J
#370000
1"
16
1I
1C
1J
1^
0K
1M
1N
#380000
0"
06
0I
0C
0J
#390000
1"
16
1I
1C
1J
0^
1]
1K
#400000
0"
06
0I
0C
0J
#410000
1"
16
1I
1C
1J
1^
0K
1L
0M
0N
#420000
0"
06
0I
0C
0J
#430000
1"
16
1I
1C
1\
0L
1O
1J
1?
0^
0]
1P
1D
0O
1K
1L
17
0?
0Z
0[
1Y
1!
1R
1W
0P
0D
07
1H
0F
0G
0!
19
0;
0:
0%
0$
1#
#440000
0"
06
0I
0C
0J
#450000
1"
16
1I
1C
1J
1^
0K
0L
#460000
0"
06
0I
0C
0J
#470000
1"
16
1I
1C
0\
1M
1J
1N
0^
1K
0M
0N
#480000
0"
06
0I
0C
0J
#490000
1"
16
1I
1C
1J
1^
0K
1M
1N
#500000
0"
06
0I
0C
0J
#510000
1"
16
1I
1C
1J
0^
1]
1K
#520000
0"
06
0I
0C
0J
#530000
1"
16
1I
1C
1J
1^
0K
1L
0M
0N
#540000
0"
06
0I
0C
0J
#550000
1"
16
1I
1C
1\
0L
1O
1J
1?
0^
0]
1P
1D
0O
1K
1L
17
0?
1[
1!
1Q
0R
0P
0D
07
1F
0!
1;
1%
#560000
0"
06
0I
0C
0J
#570000
1"
16
1I
1C
1J
1^
0K
0L
#580000
0"
06
0I
0C
0J
#590000
1"
16
1I
1C
0\
1M
1J
1N
0^
1K
0M
0N
#600000
0"
06
0I
0C
0J
#610000
1"
16
1I
1C
1J
1^
0K
1M
1N
#620000
0"
06
0I
0C
0J
#630000
1"
16
1I
1C
1J
0^
1]
1K
#640000
0"
06
0I
0C
0J
#650000
1"
16
1I
1C
1J
1^
0K
1L
0M
0N
#660000
0"
06
0I
0C
0J
#670000
1"
16
1I
1C
1\
0L
1O
1J
1?
0^
0]
1P
1D
0O
1K
1L
17
0?
1Z
0[
1!
0Q
0S
0P
0D
07
0F
1G
0!
0;
1:
0%
1$
#680000
0"
06
0I
0C
0J
#690000
1"
16
1I
1C
1J
1^
0K
0L
#700000
0"
06
0I
0C
0J
#710000
1"
16
1I
1C
0\
1M
1J
1N
0^
1K
0M
0N
#720000
0"
06
0I
0C
0J
#730000
1"
16
1I
1C
1J
1^
0K
1M
1N
#740000
0"
06
0I
0C
0J
#750000
1"
16
1I
1C
1J
0^
1]
1K
#760000
0"
06
0I
0C
0J
#770000
1"
16
1I
1C
1J
1^
0K
1L
0M
0N
#780000
0"
06
0I
0C
0J
#790000
1"
16
1I
1C
1\
0L
1O
1J
1?
0^
0]
1P
1D
0O
1K
1L
17
0?
0Z
0Y
1!
1X
1R
0P
0D
07
0H
0G
0!
09
0:
1E
0$
0#
18
1)
#800000
0"
06
0I
0C
0J
#810000
1"
16
1I
1C
1J
1^
0K
0L
#820000
0"
06
0I
0C
0J
#830000
1"
16
1I
1C
0\
1M
1J
1N
0^
1K
0M
0N
#840000
0"
06
0I
0C
0J
#850000
1"
16
1I
1C
1J
1^
0K
1M
1N
#860000
0"
06
0I
0C
0J
#870000
1"
16
1I
1C
1J
0^
1]
1K
#880000
0"
06
0I
0C
0J
#890000
1"
16
1I
1C
1J
1^
0K
1L
0M
0N
#900000
0"
06
0I
0C
0J
#910000
1"
16
1I
1C
1\
0L
1O
1J
1?
0^
0]
1P
1D
0O
1K
1L
17
0?
1[
1!
1Q
0R
0P
0D
07
1F
0!
1;
1%
#920000
0"
06
0I
0C
0J
#930000
1"
16
1I
1C
1J
1^
0K
0L
#940000
0"
06
0I
0C
0J
#950000
1"
16
1I
1C
0\
1M
1J
1N
0^
1K
0M
0N
#960000
0"
06
0I
0C
0J
#970000
1"
16
1I
1C
1J
1^
0K
1M
1N
#980000
0"
06
0I
0C
0J
#990000
1"
16
1I
1C
1J
0^
1]
1K
