3/debouncer/simulation/qsim/bit_counter.msim.vcd
$comment
	File created using the following command:
		vcd file bit_counter.msim.vcd -direction
$end
$date
	Fri May 04 03:16:08 2018
$end
$version
	ModelSim Version 10.1d
$end
$timescale
	1ps
$end
$scope module debouncer_vhd_vec_tst $end
$var wire 1 ! clk $end
$var wire 1 " count_debounced [3] $end
$var wire 1 # count_debounced [2] $end
$var wire 1 $ count_debounced [1] $end
$var wire 1 % count_debounced [0] $end
$var wire 1 & count_x [3] $end
$var wire 1 ' count_x [2] $end
$var wire 1 ( count_x [1] $end
$var wire 1 ) count_x [0] $end
$var wire 1 * reset $end
$var wire 1 + ssd_debounced [6] $end
$var wire 1 , ssd_debounced [5] $end
$var wire 1 - ssd_debounced [4] $end
$var wire 1 . ssd_debounced [3] $end
$var wire 1 / ssd_debounced [2] $end
$var wire 1 0 ssd_debounced [1] $end
$var wire 1 1 ssd_debounced [0] $end
$var wire 1 2 ssd_x [6] $end
$var wire 1 3 ssd_x [5] $end
$var wire 1 4 ssd_x [4] $end
$var wire 1 5 ssd_x [3] $end
$var wire 1 6 ssd_x [2] $end
$var wire 1 7 ssd_x [1] $end
$var wire 1 8 ssd_x [0] $end
$var wire 1 9 x $end
$scope module i1 $end
$var wire 1 : gnd $end
$var wire 1 ; vcc $end
$var wire 1 < unknown $end
$var wire 1 = devoe $end
$var wire 1 > devclrn $end
$var wire 1 ? devpor $end
$var wire 1 @ ww_devoe $end
$var wire 1 A ww_devclrn $end
$var wire 1 B ww_devpor $end
$var wire 1 C ww_x $end
$var wire 1 D ww_clk $end
$var wire 1 E ww_reset $end
$var wire 1 F ww_count_x [3] $end
$var wire 1 G ww_count_x [2] $end
$var wire 1 H ww_count_x [1] $end
$var wire 1 I ww_count_x [0] $end
$var wire 1 J ww_count_debounced [3] $end
$var wire 1 K ww_count_debounced [2] $end
$var wire 1 L ww_count_debounced [1] $end
$var wire 1 M ww_count_debounced [0] $end
$var wire 1 N ww_ssd_x [6] $end
$var wire 1 O ww_ssd_x [5] $end
$var wire 1 P ww_ssd_x [4] $end
$var wire 1 Q ww_ssd_x [3] $end
$var wire 1 R ww_ssd_x [2] $end
$var wire 1 S ww_ssd_x [1] $end
$var wire 1 T ww_ssd_x [0] $end
$var wire 1 U ww_ssd_debounced [6] $end
$var wire 1 V ww_ssd_debounced [5] $end
$var wire 1 W ww_ssd_debounced [4] $end
$var wire 1 X ww_ssd_debounced [3] $end
$var wire 1 Y ww_ssd_debounced [2] $end
$var wire 1 Z ww_ssd_debounced [1] $end
$var wire 1 [ ww_ssd_debounced [0] $end
$var wire 1 \ \reset~inputclkctrl_INCLK_bus\ [3] $end
$var wire 1 ] \reset~inputclkctrl_INCLK_bus\ [2] $end
$var wire 1 ^ \reset~inputclkctrl_INCLK_bus\ [1] $end
$var wire 1 _ \reset~inputclkctrl_INCLK_bus\ [0] $end
$var wire 1 ` \x~inputclkctrl_INCLK_bus\ [3] $end
$var wire 1 a \x~inputclkctrl_INCLK_bus\ [2] $end
$var wire 1 b \x~inputclkctrl_INCLK_bus\ [1] $end
$var wire 1 c \x~inputclkctrl_INCLK_bus\ [0] $end
$var wire 1 d \clk~inputclkctrl_INCLK_bus\ [3] $end
$var wire 1 e \clk~inputclkctrl_INCLK_bus\ [2] $end
$var wire 1 f \clk~inputclkctrl_INCLK_bus\ [1] $end
$var wire 1 g \clk~inputclkctrl_INCLK_bus\ [0] $end
$var wire 1 h \count_x[0]~output_o\ $end
$var wire 1 i \count_x[1]~output_o\ $end
$var wire 1 j \count_x[2]~output_o\ $end
$var wire 1 k \count_x[3]~output_o\ $end
$var wire 1 l \count_debounced[0]~output_o\ $end
$var wire 1 m \count_debounced[1]~output_o\ $end
$var wire 1 n \count_debounced[2]~output_o\ $end
$var wire 1 o \count_debounced[3]~output_o\ $end
$var wire 1 p \ssd_x[0]~output_o\ $end
$var wire 1 q \ssd_x[1]~output_o\ $end
$var wire 1 r \ssd_x[2]~output_o\ $end
$var wire 1 s \ssd_x[3]~output_o\ $end
$var wire 1 t \ssd_x[4]~output_o\ $end
$var wire 1 u \ssd_x[5]~output_o\ $end
$var wire 1 v \ssd_x[6]~output_o\ $end
$var wire 1 w \ssd_debounced[0]~output_o\ $end
$var wire 1 x \ssd_debounced[1]~output_o\ $end
$var wire 1 y \ssd_debounced[2]~output_o\ $end
$var wire 1 z \ssd_debounced[3]~output_o\ $end
$var wire 1 { \ssd_debounced[4]~output_o\ $end
$var wire 1 | \ssd_debounced[5]~output_o\ $end
$var wire 1 } \ssd_debounced[6]~output_o\ $end
$var wire 1 ~ \x~input_o\ $end
$var wire 1 !! \x~inputclkctrl_outclk\ $end
$var wire 1 "! \var_count[0]~3_combout\ $end
$var wire 1 #! \reset~input_o\ $end
$var wire 1 $! \reset~inputclkctrl_outclk\ $end
$var wire 1 %! \var_count[1]~0_combout\ $end
$var wire 1 &! \var_count[2]~1_combout\ $end
$var wire 1 '! \var_count[3]~2_combout\ $end
$var wire 1 (! \clk~input_o\ $end
$var wire 1 )! \clk~inputclkctrl_outclk\ $end
$var wire 1 *! \pressed~0_combout\ $end
$var wire 1 +! \pressed~q\ $end
$var wire 1 ,! \counter[1]~0_combout\ $end
$var wire 1 -! \counter[0]~1_combout\ $end
$var wire 1 .! \var_count_debounced[0]~0_combout\ $end
$var wire 1 /! \var_count_debounced[0]~1_combout\ $end
$var wire 1 0! \var_count_debounced[1]~2_combout\ $end
$var wire 1 1! \var_count_debounced[2]~3_combout\ $end
$var wire 1 2! \var_count_debounced[3]~4_combout\ $end
$var wire 1 3! \var_count_debounced[3]~5_combout\ $end
$var wire 1 4! \Mux6~0_combout\ $end
$var wire 1 5! \Mux5~0_combout\ $end
$var wire 1 6! \Mux4~0_combout\ $end
$var wire 1 7! \Mux3~0_combout\ $end
$var wire 1 8! \Mux2~0_combout\ $end
$var wire 1 9! \Mux1~0_combout\ $end
$var wire 1 :! \Mux0~0_combout\ $end
$var wire 1 ;! \Mux13~0_combout\ $end
$var wire 1 <! \Mux12~0_combout\ $end
$var wire 1 =! \Mux11~0_combout\ $end
$var wire 1 >! \Mux10~0_combout\ $end
$var wire 1 ?! \Mux9~0_combout\ $end
$var wire 1 @! \Mux8~0_combout\ $end
$var wire 1 A! \Mux7~0_combout\ $end
$var wire 1 B! var_count [3] $end
$var wire 1 C! var_count [2] $end
$var wire 1 D! var_count [1] $end
$var wire 1 E! var_count [0] $end
$var wire 1 F! var_count_debounced [3] $end
$var wire 1 G! var_count_debounced [2] $end
$var wire 1 H! var_count_debounced [1] $end
$var wire 1 I! var_count_debounced [0] $end
$var wire 1 J! counter [1] $end
$var wire 1 K! counter [0] $end
$var wire 1 L! \ALT_INV_x~inputclkctrl_outclk\ $end
$var wire 1 M! \ALT_INV_Mux13~0_combout\ $end
$var wire 1 N! \ALT_INV_Mux6~0_combout\ $end
$upscope $end
$upscope $end
$enddefinitions $end
#0
$dumpvars
0!
1*
19
0:
1;
x<
1=
1>
1?
1@
1A
1B
1C
0D
1E
0h
0i
0j
0k
0l
0m
0n
0o
0p
0q
0r
0s
0t
0u
0v
0w
0x
0y
0z
0{
0|
0}
x~
x!!
1"!
x#!
x$!
x%!
x&!
x'!
x(!
x)!
x*!
0+!
x,!
x-!
0.!
x/!
x0!
x1!
x2!
x3!
x4!
x5!
x6!
x7!
x8!
x9!
x:!
x;!
x<!
x=!
x>!
x?!
x@!
xA!
xL!
xM!
xN!
0F
0G
0H
0I
0J
0K
0L
0M
0N
0O
0P
0Q
0R
0S
0T
0U
0V
0W
0X
0Y
0Z
0[
0B!
0C!
0D!
0E!
0F!
0G!
0H!
0I!
0J!
0K!
1`
1a
1b
xc
1\
1]
1^
x_
1d
1e
1f
xg
0"
0#
0$
0%
0&
0'
0(
0)
0+
0,
0-
0.
0/
00
01
02
03
04
05
06
07
08
$end
#450
0&!
0%!
#453
01!
00!
#461
0'!
#495
09!
#513
12!
#596
1~
1#!
1c
1_
#703
0,!
#722
03!
#730
0*!
#761
0(!
0g
#776
1!!
1$!
0L!
#908
08!
#919
0)!
#928
04!
1N!
#930
0@!
#931
0?!
#933
0;!
1M!
#934
0=!
#935
0<!
#936
0A!
#937
0>!
#1144
0:!
#1146
05!
#1158
06!
#1160
07!
#1261
0/!
#2072
0-!
#3057
xt
xP
x4
#3072
xr
xR
x6
#3233
xq
xS
x7
#3235
xp
xT
x8
#3278
xs
xQ
x5
#3385
xy
xY
x/
#3439
xw
x[
x1
#3480
xx
x{
xZ
xW
x0
x-
#3499
xv
xN
x2
#3512
xz
xX
x.
#3547
xu
xO
x3
#3639
x}
xU
x+
#3860
x|
xV
x,
#3920
0t
0P
04
#3969
0u
0O
03
#4138
1p
1T
18
#4185
0r
0R
06
#4295
0y
0Y
0/
#4319
0q
0S
07
#4372
1w
1[
11
#4384
0x
0Z
00
#4393
0s
0Q
05
#4394
0{
0W
0-
#4432
0z
0X
0.
#4544
0}
0U
0+
#4592
0v
0N
02
#4738
0|
0V
0,
#10000
1!
1D
#10596
1(!
1g
#10776
1)!
#20000
0!
0D
#20761
0(!
0g
#20919
0)!
#30000
1!
1D
#30596
1(!
1g
#30776
1)!
#40000
0!
0D
#40761
0(!
0g
#40919
0)!
#50000
1!
1D
#50596
1(!
1g
#50776
1)!
#60000
0!
0D
#60761
0(!
0g
#60919
0)!
#70000
1!
1D
#70596
1(!
1g
#70776
1)!
#80000
0!
09
0D
0C
#80761
0~
0(!
0c
0g
#80919
0!!
0)!
1L!
#82237
1-!
#82419
1E!
#82788
0"!
#82803
1%!
#83495
16!
#83498
17!
#83499
1:!
#83501
15!
#86057
1h
1I
1)
#86567
1r
1R
16
#86734
1q
1S
17
#86776
1s
1Q
15
#86998
1v
1N
12
#87500
19
1C
#88096
1~
1c
#88276
1!!
0L!
#89572
0-!
#90000
1!
1D
#90596
1(!
1g
#90776
1)!
#95000
09
0C
#95761
0~
0c
#95919
0!!
1L!
#97237
1-!
#97419
1D!
0E!
#97772
1"!
#97788
0%!
#97879
1%!
#98262
14!
0N!
#98282
07!
#98285
0:!
#98577
06!
#98584
18!
#100000
0!
0D
#100761
0(!
0g
#100919
0)!
#101008
1i
1H
1(
#101029
0h
0I
0)
#101515
0s
0Q
05
#101528
0p
0T
08
#101604
0r
0R
06
#101641
1t
1P
14
#101733
0v
0N
02
#102500
19
1C
#103096
1~
1c
#103276
1!!
0L!
#104572
0-!
#110000
09
1!
0C
1D
#110596
1(!
1g
#110761
0~
0c
#110776
1)!
#110919
0!!
1L!
#112237
1-!
#112419
1E!
#112788
0"!
#112793
0%!
#112803
1&!
#113495
16!
#113519
08!
#116057
1h
1I
1)
#116531
0t
0P
04
#116567
1r
1R
16
#117500
19
1C
#118096
1~
1c
#118276
1!!
0L!
#119572
0-!
#120000
0!
0D
#120761
0(!
0g
#120919
0)!
#125000
09
0C
#125761
0~
0c
#125919
0!!
1L!
#127237
1-!
#127419
1C!
0D!
0E!
#127772
1"!
1%!
#127788
0&!
#127827
04!
1N!
#127836
17!
#127869
0%!
#127879
1&!
#128313
19!
#128331
05!
#128333
14!
0N!
#128356
07!
#128562
09!
#128567
17!
#128568
1:!
#130000
1!
1D
#130596
1(!
1g
#130757
1j
1G
1'
#130776
1)!
#130985
0i
0H
0(
#131029
0h
0I
0)
#131037
1p
1T
18
#131114
1s
1Q
15
#131504
0q
0S
07
#131589
0s
0Q
05
#131599
0p
0T
08
#131845
1s
1Q
15
#131860
1u
1O
13
#132036
0u
0O
03
#132067
1v
1N
12
#132272
1K!
#132500
19
1C
#132747
0-!
#132885
1,!
#133096
1~
1c
#133276
1!!
0L!
#134520
0,!
#140000
09
0!
0C
0D
#140761
0(!
0~
0g
0c
#140919
0)!
0!!
1L!
#142220
1,!
#142419
1E!
#142788
0"!
#142803
1%!
#143473
19!
#143494
0:!
#143510
07!
#146057
1h
1I
1)
#146743
0s
0Q
05
#146942
0v
0N
02
#147020
1u
1O
13
#147500
19
1C
#148096
1~
1c
#148276
1!!
0L!
#149520
0,!
#150000
1!
1D
#150596
1(!
1g
#150776
1)!
#152272
0K!
#155000
09
0C
#155761
0~
0c
#155919
0!!
1L!
#157237
1-!
#157419
1D!
0E!
#157772
1"!
#157788
0%!
#157816
1'!
#157879
1%!
#158123
0'!
#158248
09!
#158263
15!
#158276
04!
1N!
#158283
17!
#158541
14!
0N!
#158542
19!
#158565
05!
#158577
06!
#158579
07!
#160000
0!
0D
#160761
0(!
0g
#160919
0)!
#161008
1i
1H
1(
#161029
0h
0I
0)
#161486
1p
1T
18
#161496
1q
1S
17
#161561
1s
1Q
15
#161604
0r
0R
06
#161722
0u
0O
03
#161738
0q
0S
07
#161807
0p
0T
08
#161812
0s
0Q
05
#162089
1u
1O
13
#170000
1!
1D
#170596
1(!
1g
#170776
1)!
#172272
1K!
#172747
0-!
#172885
1,!
#180000
0!
19
0D
1C
#180596
1~
1c
#180761
0(!
0g
#180776
1!!
0L!
#180919
0)!
#182020
0,!
#190000
1!
1D
#190596
1(!
1g
#190776
1)!
#192272
0K!
#200000
0!
09
0D
0C
#200761
0~
0(!
0c
0g
#200919
0!!
0)!
1L!
#202237
1-!
#202419
1E!
#202788
0"!
#202793
0&!
0%!
#203035
1'!
#203467
04!
1N!
#203493
09!
#203495
16!
#203498
17!
#203501
15!
#206057
1h
1I
1)
#206567
1r
1R
16
#206677
1p
1T
18
#206734
1q
1S
17
#206776
1s
1Q
15
#206967
0u
0O
03
#210000
1!
1D
#210596
1(!
1g
#210776
1)!
#212272
1K!
#212747
0-!
#212885
1,!
#220000
0!
19
0D
1C
#220596
1~
1c
#220761
0(!
0g
#220776
1!!
0L!
#220919
0)!
#222020
0,!
#230000
1!
1D
#230596
1(!
1g
#230776
1)!
#232272
0K!
#240000
0!
0D
#240761
0(!
0g
#240919
0)!
#241819
09
0C
#242580
0~
0c
#242738
0!!
1L!
#244056
1-!
#244238
1B!
0C!
0D!
0E!
#244591
1"!
1%!
1&!
#244607
0'!
#244688
0%!
0&!
#244709
1'!
#244734
07!
05!
#244735
06!
#244743
19!
#244744
14!
0N!
#244745
1:!
#245138
09!
#245162
16!
#245179
0:!
#245396
06!
#247555
0j
0G
0'
#247762
0r
0R
06
#247804
0i
0H
0(
#247848
0h
0I
0)
#247907
0q
0S
07
#247967
0s
0Q
05
#248010
0p
0T
08
#248234
1r
1R
16
#248244
1v
1N
12
#248290
1u
1O
13
#248423
0r
0R
06
#248612
0u
0O
03
#248627
0v
0N
02
#249111
1k
1F
1&
#250000
1!
1D
#250596
1(!
1g
#250776
1)!
#252219
19
1C
#252272
1K!
#252747
0-!
#252815
1~
1c
#252885
1,!
#252995
1!!
0L!
#254239
0,!
#260000
09
0!
0C
0D
#260761
0(!
0~
0g
0c
#260919
0)!
0!!
1L!
#262220
1,!
#262419
1E!
#262741
19
1C
#262788
0"!
#262803
1%!
#263337
1~
1c
#263495
16!
#263517
1!!
0L!
#264761
0,!
#266057
1h
1I
1)
#266567
1r
1R
16
#267241
09
0C
#268002
0~
0c
#268160
0!!
1L!
#269461
1,!
#269660
1D!
0E!
#270000
1!
1D
#270013
1"!
#270029
0%!
#270120
1%!
#270483
19!
#270516
06!
#270527
1:!
#270596
1(!
1g
#270776
1)!
#270803
09!
#270804
0:!
#270808
17!
#272272
0K!
1J!
#272637
1*!
#272834
1-!
#272965
1.!
#273249
1i
1H
1(
#273270
0h
0I
0)
#273543
0r
0R
06
#274026
1v
1N
12
#274030
1u
1O
13
#274086
1s
1Q
15
#274195
1/!
#274252
0v
0N
02
#274277
0u
0O
03
#280000
0!
0D
#280761
0(!
0g
#280919
0)!
#290000
1!
1D
#290596
1(!
1g
#290776
1)!
#292272
1I!
1K!
1+!
#292641
0*!
0/!
#292657
10!
#292759
0,!
#292778
0.!
0-!
#292902
1*!
#293136
1A!
1>!
#293137
1=!
#293141
1<!
#293997
00!
#294027
1/!
#295940
1l
1M
1%
#296508
1y
1Y
1/
#296588
1x
1Z
10
#296617
1z
1X
1.
#296753
1}
1U
1+
#300000
0!
0D
#300761
0(!
0g
#300919
0)!
#310000
1!
1D
#310596
1(!
1g
#310776
1)!
#312272
0K!
0J!
#320000
0!
0D
#320761
0(!
0g
#320919
0)!
#330000
1!
1D
#330596
1(!
1g
#330776
1)!
#331696
19
1C
#332292
1~
1c
#332472
1!!
0L!
#333769
1-!
#334229
09
0C
#334990
0~
0c
#335148
0!!
1L!
#336465
0-!
#336648
1E!
#337017
0"!
#337022
0%!
#337032
1&!
#337702
19!
#337728
1:!
#337739
07!
#338362
19
1C
#338958
1~
1c
#339138
1!!
0L!
#340000
0!
0D
#340286
1h
1I
1)
#340435
1-!
#340761
0(!
0g
#340895
09
0C
#340919
0)!
#340972
0s
0Q
05
#341227
1v
1N
12
#341249
1u
1O
13
#341656
0~
0c
#341814
0!!
1L!
#343131
0-!
#343314
1C!
0D!
0E!
#343667
1"!
1%!
#343683
0&!
#343722
0:!
#343731
17!
#343733
18!
#343764
0%!
#343774
1&!
#344214
09!
#344222
08!
#344232
15!
#344251
07!
#344256
1:!
#344431
04!
1N!
#344437
19!
#344458
0:!
#344460
05!
#344479
18!
#345028
19
1C
#345624
1~
1c
#345804
1!!
0L!
#346652
1j
1G
1'
#346790
1t
1P
14
#346880
0i
0H
0(
#346924
0h
0I
0)
#347009
1s
1Q
15
#347101
1-!
#347170
0v
0N
02
#347234
0t
0P
04
#347465
1q
1S
17
#347484
0s
0Q
05
#347536
1t
1P
14
#347561
09
0C
#347633
0q
0S
07
#347641
1p
1T
18
#347688
0u
0O
03
#347755
1v
1N
12
#347906
0v
0N
02
#347984
1u
1O
13
#348322
0~
0c
#348480
0!!
1L!
#349797
0-!
#349980
1E!
#350000
19
1!
1C
1D
#350349
0"!
#350364
1%!
#350596
1(!
1~
1g
1c
#350776
1)!
1!!
0L!
#351033
14!
0N!
#351054
09!
#351060
1:!
#351062
15!
#351080
08!
#352073
1-!
#353618
1h
1I
1)
#354092
0t
0P
04
#354295
1q
1S
17
#354299
0p
0T
08
#354528
0u
0O
03
#354559
1v
1N
12
#360000
0!
0D
#360761
0(!
0g
#360919
0)!
#370000
1!
1D
#370596
1(!
1g
#370776
1)!
#372272
1K!
#372747
0-!
#372885
1,!
#380000
0!
0D
#380761
0(!
0g
#380919
0)!
#390000
1!
1D
#390596
1(!
1g
#390776
1)!
#392272
0K!
1J!
#392627
0*!
#392834
1-!
#400000
0!
0D
#400761
0(!
0g
#400919
0)!
#410000
1!
1D
#410596
1(!
1g
#410776
1)!
#412272
1K!
0+!
#412625
1*!
#412835
0-!
#412839
0,!
#413002
0*!
#420000
0!
0D
#420761
0(!
0g
#420919
0)!
#430000
1!
09
1D
0C
#430596
1(!
1g
#430761
0~
0c
#430776
1)!
#430919
0!!
1L!
#432040
19
1C
#432220
1,!
#432237
1-!
#432272
0K!
0J!
#432419
1D!
0E!
#432625
1*!
#432636
1~
1c
#432704
0*!
#432772
1"!
#432788
0%!
#432806
0'!
#432816
1!!
0L!
#432879
1%!
#432975
0,!
#433124
1'!
#433242
19!
#433257
05!
#433259
18!
#433283
17!
#433285
0:!
#433579
07!
#434112
0-!
#436008
1i
1H
1(
#436029
0h
0I
0)
#436316
1t
1P
14
#436430
0q
0S
07
#436561
1s
1Q
15
#436733
0v
0N
02
#436789
1u
1O
13
#436812
0s
0Q
05
#438440
09
0C
#439201
0~
0c
#439359
0!!
1L!
#440000
0!
0D
#440677
1-!
#440761
0(!
0g
#440859
1E!
#440919
0)!
#441228
0"!
#441233
0&!
0%!
#441474
0'!
#441938
17!
#444497
1h
1I
1)
#445216
1s
1Q
15
#450000
1!
1D
#450596
1(!
1g
#450776
1)!
#452272
1K!
#452747
0-!
#452885
1,!
#460000
0!
0D
#460761
0(!
0g
#460919
0)!
#470000
1!
1D
#470596
1(!
1g
#470776
1)!
#472272
0K!
1J!
#472637
1*!
#472834
1-!
#472965
1.!
#474164
10!
#474207
0/!
#480000
0!
0D
#480761
0(!
0g
#480919
0)!
#490000
1!
1D
#490596
1(!
1g
#490776
1)!
#492272
1H!
0I!
1K!
1+!
#492625
1/!
#492641
0*!
00!
#492687
0A!
#492688
0>!
#492689
02!
#492695
1;!
0M!
#492735
10!
#492759
0,!
#492778
0.!
0-!
#492902
1*!
#492969
12!
#493206
0=!
#493212
1?!
#494039
0/!
#495947
0l
0M
0%
#496111
0w
0[
01
#496183
0z
0X
0.
#496295
0}
0U
0+
#496407
1m
1L
1$
#496567
0y
0Y
0/
#496644
1{
1W
1-
#500000
0!
19
0D
1C
#500596
1~
1c
#500761
0(!
0g
#500776
1!!
0L!
#500919
0)!
#502021
1,!
#502073
1-!
#504707
09
0C
#505468
0~
0c
#505626
0!!
1L!
#506926
0,!
#506943
0-!
#507126
0B!
0C!
0D!
0E!
#507479
1"!
1%!
1&!
1'!
#507576
0%!
0&!
#507587
0'!
#507621
09!
#507622
07!
#507623
08!
#507632
15!
#507633
16!
#508054
04!
1N!
#508064
17!
#508068
1:!
#508270
0:!
#508272
05!
#508284
06!
#508286
07!
#509307
19
1C
#509903
1~
1c
#510000
09
1!
0C
1D
#510083
1!!
0L!
#510443
0j
0G
0'
#510596
1(!
1g
#510635
0t
0P
04
#510692
0i
0H
0(
#510705
1r
1R
16
#510736
0h
0I
0)
#510761
0~
0c
#510776
1)!
#510855
0s
0Q
05
#510865
1q
1S
17
#510919
0!!
1L!
#511095
0u
0O
03
#511264
1p
1T
18
#511311
0r
0R
06
#511328
1,!
#511342
1s
1Q
15
#511380
1-!
#511445
0q
0S
07
#511519
0s
0Q
05
#511567
1v
1N
12
#511718
0v
0N
02
#512062
0k
0F
0&
#512219
0,!
#512236
0-!
#512272
0K!
0J!
#512419
1E!
#512788
0"!
#512803
1%!
#513495
16!
#513498
17!
#513499
1:!
#513501
15!
#516057
1h
1I
1)
#516567
1r
1R
16
#516734
1q
1S
17
#516776
1s
1Q
15
#516998
1v
1N
12
#520000
0!
0D
#520761
0(!
0g
#520919
0)!
#530000
1!
1D
#530596
1(!
1g
#530776
1)!
#540000
0!
0D
#540761
0(!
0g
#540919
0)!
#550000
1!
19
1D
1C
#550596
1~
1(!
1c
1g
#550776
1!!
1)!
0L!
#551277
09
0C
#552038
0~
0c
#552073
1-!
#552196
0!!
1L!
#553513
0-!
#553696
1D!
0E!
#554049
1"!
#554065
0%!
#554156
1%!
#554539
14!
0N!
#554559
07!
#554562
0:!
#554854
06!
#554861
18!
#555144
19
1C
#555740
1~
1c
#555920
1!!
0L!
#557217
1-!
#557285
1i
1H
1(
#557306
0h
0I
0)
#557792
0s
0Q
05
#557805
0p
0T
08
#557881
0r
0R
06
#557918
1t
1P
14
#557943
09
0C
#558010
0v
0N
02
#558704
0~
0c
#558862
0!!
1L!
#560000
0!
0D
#560179
0-!
#560362
1E!
#560731
0"!
#560736
0%!
#560746
1&!
#560761
0(!
0g
#560919
0)!
#561438
16!
#561462
08!
#561810
19
1C
#562406
1~
1c
#562586
1!!
0L!
#563883
1-!
#564000
1h
1I
1)
#564474
0t
0P
04
#564510
1r
1R
16
#564609
09
0C
#565370
0~
0c
#565528
0!!
1L!
#566845
0-!
#567028
1C!
0D!
0E!
#567381
1"!
1%!
#567397
0&!
#567436
04!
1N!
#567445
17!
#567478
0%!
#567488
1&!
#567922
19!
#567940
05!
#567942
14!
0N!
#567965
07!
#568171
09!
#568176
17!
#568177
1:!
#568476
19
1C
#569072
1~
1c
#569252
1!!
0L!
#570000
09
1!
0C
1D
#570366
1j
1G
1'
#570549
1-!
#570594
0i
0H
0(
#570596
1(!
1g
#570638
0h
0I
0)
#570646
1p
1T
18
#570723
1s
1Q
15
#570761
0~
0c
#570776
1)!
#570919
0!!
1L!
#571113
0q
0S
07
#571198
0s
0Q
05
#571208
0p
0T
08
#571454
1s
1Q
15
#571469
1u
1O
13
#571645
0u
0O
03
#571676
1v
1N
12
#572236
0-!
#572272
1K!
#572419
1E!
#572788
0"!
#572803
1%!
#573473
19!
#573494
0:!
#573510
07!
#576057
1h
1I
1)
#576743
0s
0Q
05
#576942
0v
0N
02
#577020
1u
1O
13
#580000
19
0!
1C
0D
#580596
1~
1c
#580761
0(!
0g
#580776
1!!
0L!
#580919
0)!
#582021
1,!
#590000
1!
1D
#590596
1(!
1g
#590776
1)!
#592272
0K!
1J!
#592627
0*!
#592834
1-!
#600000
0!
0D
#600761
0(!
0g
#600919
0)!
#610000
1!
1D
#610596
1(!
1g
#610776
1)!
#612272
1K!
0+!
#612625
1*!
#612835
0-!
#612839
0,!
#613002
0*!
#620000
0!
0D
#620761
0(!
0g
#620919
0)!
#630000
1!
1D
#630596
1(!
1g
#630776
1)!
#632272
0K!
0J!
#640000
0!
0D
#640761
0(!
0g
#640919
0)!
#650000
1!
1D
#650596
1(!
1g
#650776
1)!
#660000
0!
09
0D
0C
#660761
0~
0(!
0c
0g
#660919
0!!
0)!
1L!
#660926
19
1C
#661522
1~
1c
#661702
1!!
0L!
#662237
1-!
#662419
1D!
0E!
#662772
1"!
#662788
0%!
#662816
1'!
#662879
1%!
#662998
0-!
#663123
0'!
#663248
09!
#663263
15!
#663276
04!
1N!
#663283
17!
#663541
14!
0N!
#663542
19!
#663565
05!
#663577
06!
#663579
07!
#663592
09
0C
#664353
0~
0c
#664511
0!!
1L!
#665829
1-!
#666008
1i
1H
1(
#666011
1E!
#666029
0h
0I
0)
#666380
0"!
#666385
0&!
0%!
#666486
1p
1T
18
#666496
1q
1S
17
#666561
1s
1Q
15
#666604
0r
0R
06
#666627
1'!
#666722
0u
0O
03
#666738
0q
0S
07
#666807
0p
0T
08
#666812
0s
0Q
05
#667059
04!
1N!
#667085
09!
#667087
16!
#667089
1u
1O
13
#667090
17!
#667093
15!
#667592
19
1C
#668188
1~
1c
#668368
1!!
0L!
#669649
1h
1I
1)
#669664
0-!
#670000
1!
1D
#670159
1r
1R
16
#670258
09
0C
#670269
1p
1T
18
#670326
1q
1S
17
#670368
1s
1Q
15
#670559
0u
0O
03
#670596
1(!
1g
#670776
1)!
#671019
0~
0c
#671177
0!!
1L!
#672495
1-!
#672677
1B!
0C!
0D!
0E!
#673030
1"!
1%!
1&!
#673046
0'!
#673127
0%!
0&!
#673148
1'!
#673173
07!
05!
#673174
06!
#673182
19!
#673183
14!
0N!
#673184
1:!
#673577
09!
#673601
16!
#673618
0:!
#673835
06!
#674258
19
1C
#674854
1~
1c
#675034
1!!
0L!
#675994
0j
0G
0'
#676201
0r
0R
06
#676243
0i
0H
0(
#676287
0h
0I
0)
#676330
0-!
#676346
0q
0S
07
#676406
0s
0Q
05
#676449
0p
0T
08
#676673
1r
1R
16
#676683
1v
1N
12
#676729
1u
1O
13
#676862
0r
0R
06
#676924
09
0C
#677051
0u
0O
03
#677066
0v
0N
02
#677550
1k
1F
1&
#677685
0~
0c
#677843
0!!
1L!
#679161
1-!
#679343
1E!
#679712
0"!
#679727
1%!
#680000
19
0!
1C
0D
#680419
16!
#680596
1~
1c
#680761
0(!
0g
#680776
1!!
0L!
#680919
0)!
#682072
0-!
#682981
1h
1I
1)
#683491
1r
1R
16
#690000
1!
1D
#690596
1(!
1g
#690776
1)!
#700000
0!
0D
#700761
0(!
0g
#700919
0)!
#710000
1!
1D
#710596
1(!
1g
#710776
1)!
#720000
0!
0D
#720761
0(!
0g
#720919
0)!
#730000
1!
1D
#730596
1(!
1g
#730776
1)!
#740000
0!
09
0D
0C
#740761
0~
0(!
0c
0g
#740919
0!!
0)!
1L!
#742237
1-!
#742419
1D!
0E!
#742772
1"!
#742788
0%!
#742879
1%!
#743242
19!
#743275
06!
#743286
1:!
#743562
09!
#743563
0:!
#743567
17!
#746008
1i
1H
1(
#746029
0h
0I
0)
#746302
0r
0R
06
#746785
1v
1N
12
#746789
1u
1O
13
#746845
1s
1Q
15
#747011
0v
0N
02
#747036
0u
0O
03
#750000
1!
1D
#750596
1(!
1g
#750776
1)!
#752272
1K!
#752747
0-!
#752885
1,!
#760000
0!
0D
#760761
0(!
0g
#760919
0)!
#770000
1!
1D
#770596
1(!
1g
#770776
1)!
#772272
0K!
1J!
#772637
1*!
#772834
1-!
#772965
1.!
#774195
1/!
#780000
0!
0D
#780761
0(!
0g
#780919
0)!
#790000
1!
1D
#790596
1(!
1g
#790776
1)!
#792272
1I!
1K!
1+!
#792641
0*!
0/!
#792647
00!
#792657
11!
#792759
0,!
#792778
0.!
0-!
#792881
02!
#792902
1*!
#793135
0?!
#793137
1=!
#793993
10!
#793997
01!
#794027
1/!
#795940
1l
1M
1%
#796508
1y
1Y
1/
#796598
0{
0W
0-
#800000
0!
0*
0D
0E
#800761
0#!
0(!
0_
0g
#800919
0$!
0)!
#802398
0B!
0D!
#802428
0H!
0I!
#802767
0%!
0'!
#802797
0/!
00!
#802930
0;!
1M!
#802941
12!
#802943
1A!
#802944
1>!
#803011
07!
15!
#803013
18!
#803306
08!
#803310
05!
#803326
04!
1N!
#803362
0=!
#803363
0<!
#803364
0A!
#803365
0>!
#805964
0i
0H
0(
#806070
1t
1P
14
#806103
0l
0M
0%
#806244
1q
0s
1S
0Q
17
05
#806318
0t
0P
04
#806369
1w
1[
11
#806425
1z
1X
1.
#806483
0q
0S
07
#806536
1p
1T
18
#806560
1}
1U
1+
#806563
0m
0L
0$
#806723
0y
0Y
0/
#806812
0x
0Z
00
#806860
0z
0X
0.
#806972
0}
0U
0+
#807334
0k
0F
0&
#810000
1!
1D
#810596
1(!
1g
#810776
1)!
#812272
0K!
0J!
#820000
0!
0D
#820761
0(!
0g
#820919
0)!
#830000
1!
19
1D
1C
#830596
1~
1(!
1c
1g
#830776
1!!
1)!
0L!
#832073
1-!
#840000
0!
1*
0D
1E
#840596
1#!
1_
#840761
0(!
0g
#840776
1$!
