3/debouncer/simulation/qsim/bit_counter.msim.vcd
$comment
	File created using the following command:
		vcd file bit_counter.msim.vcd -direction
$end
$date
	Thu May 03 16:35:35 2018
$end
$version
	ModelSim Version 10.1d
$end
$timescale
	1ps
$end
$scope module debouncer_vhd_vec_tst $end
$var wire 1 ! clk $end
$var wire 1 " debounced_count [3] $end
$var wire 1 # debounced_count [2] $end
$var wire 1 $ debounced_count [1] $end
$var wire 1 % debounced_count [0] $end
$var wire 1 & x $end
$var wire 1 ' x_count [3] $end
$var wire 1 ( x_count [2] $end
$var wire 1 ) x_count [1] $end
$var wire 1 * x_count [0] $end
$scope module i1 $end
$var wire 1 + gnd $end
$var wire 1 , vcc $end
$var wire 1 - unknown $end
$var wire 1 . devoe $end
$var wire 1 / devclrn $end
$var wire 1 0 devpor $end
$var wire 1 1 ww_devoe $end
$var wire 1 2 ww_devclrn $end
$var wire 1 3 ww_devpor $end
$var wire 1 4 ww_x $end
$var wire 1 5 ww_clk $end
$var wire 1 6 ww_x_count [3] $end
$var wire 1 7 ww_x_count [2] $end
$var wire 1 8 ww_x_count [1] $end
$var wire 1 9 ww_x_count [0] $end
$var wire 1 : ww_debounced_count [3] $end
$var wire 1 ; ww_debounced_count [2] $end
$var wire 1 < ww_debounced_count [1] $end
$var wire 1 = ww_debounced_count [0] $end
$var wire 1 > \x~inputclkctrl_INCLK_bus\ [3] $end
$var wire 1 ? \x~inputclkctrl_INCLK_bus\ [2] $end
$var wire 1 @ \x~inputclkctrl_INCLK_bus\ [1] $end
$var wire 1 A \x~inputclkctrl_INCLK_bus\ [0] $end
$var wire 1 B \clk~inputclkctrl_INCLK_bus\ [3] $end
$var wire 1 C \clk~inputclkctrl_INCLK_bus\ [2] $end
$var wire 1 D \clk~inputclkctrl_INCLK_bus\ [1] $end
$var wire 1 E \clk~inputclkctrl_INCLK_bus\ [0] $end
$var wire 1 F \x_count[0]~output_o\ $end
$var wire 1 G \x_count[1]~output_o\ $end
$var wire 1 H \x_count[2]~output_o\ $end
$var wire 1 I \x_count[3]~output_o\ $end
$var wire 1 J \debounced_count[0]~output_o\ $end
$var wire 1 K \debounced_count[1]~output_o\ $end
$var wire 1 L \debounced_count[2]~output_o\ $end
$var wire 1 M \debounced_count[3]~output_o\ $end
$var wire 1 N \x~input_o\ $end
$var wire 1 O \x~inputclkctrl_outclk\ $end
$var wire 1 P \var_count[0]~9_combout\ $end
$var wire 1 Q \var_count[1]~3_combout\ $end
$var wire 1 R \var_count[1]~4\ $end
$var wire 1 S \var_count[2]~5_combout\ $end
$var wire 1 T \var_count[2]~6\ $end
$var wire 1 U \var_count[3]~7_combout\ $end
$var wire 1 V \clk~input_o\ $end
$var wire 1 W \clk~inputclkctrl_outclk\ $end
$var wire 1 X \counter[0]~1_combout\ $end
$var wire 1 Y \counter[0]~feeder_combout\ $end
$var wire 1 Z \pressed~0_combout\ $end
$var wire 1 [ \pressed~feeder_combout\ $end
$var wire 1 \ \pressed~q\ $end
$var wire 1 ] \counter[1]~0_combout\ $end
$var wire 1 ^ \counter[1]~feeder_combout\ $end
$var wire 1 _ \var_debounced_count[0]~3_combout\ $end
$var wire 1 ` \var_debounced_count[0]~4_combout\ $end
$var wire 1 a \var_debounced_count[1]~5_combout\ $end
$var wire 1 b \var_debounced_count[1]~6\ $end
$var wire 1 c \var_debounced_count[2]~7_combout\ $end
$var wire 1 d \var_debounced_count[2]~8\ $end
$var wire 1 e \var_debounced_count[3]~9_combout\ $end
$var wire 1 f var_count [31] $end
$var wire 1 g var_count [30] $end
$var wire 1 h var_count [29] $end
$var wire 1 i var_count [28] $end
$var wire 1 j var_count [27] $end
$var wire 1 k var_count [26] $end
$var wire 1 l var_count [25] $end
$var wire 1 m var_count [24] $end
$var wire 1 n var_count [23] $end
$var wire 1 o var_count [22] $end
$var wire 1 p var_count [21] $end
$var wire 1 q var_count [20] $end
$var wire 1 r var_count [19] $end
$var wire 1 s var_count [18] $end
$var wire 1 t var_count [17] $end
$var wire 1 u var_count [16] $end
$var wire 1 v var_count [15] $end
$var wire 1 w var_count [14] $end
$var wire 1 x var_count [13] $end
$var wire 1 y var_count [12] $end
$var wire 1 z var_count [11] $end
$var wire 1 { var_count [10] $end
$var wire 1 | var_count [9] $end
$var wire 1 } var_count [8] $end
$var wire 1 ~ var_count [7] $end
$var wire 1 !! var_count [6] $end
$var wire 1 "! var_count [5] $end
$var wire 1 #! var_count [4] $end
$var wire 1 $! var_count [3] $end
$var wire 1 %! var_count [2] $end
$var wire 1 &! var_count [1] $end
$var wire 1 '! var_count [0] $end
$var wire 1 (! var_debounced_count [31] $end
$var wire 1 )! var_debounced_count [30] $end
$var wire 1 *! var_debounced_count [29] $end
$var wire 1 +! var_debounced_count [28] $end
$var wire 1 ,! var_debounced_count [27] $end
$var wire 1 -! var_debounced_count [26] $end
$var wire 1 .! var_debounced_count [25] $end
$var wire 1 /! var_debounced_count [24] $end
$var wire 1 0! var_debounced_count [23] $end
$var wire 1 1! var_debounced_count [22] $end
$var wire 1 2! var_debounced_count [21] $end
$var wire 1 3! var_debounced_count [20] $end
$var wire 1 4! var_debounced_count [19] $end
$var wire 1 5! var_debounced_count [18] $end
$var wire 1 6! var_debounced_count [17] $end
$var wire 1 7! var_debounced_count [16] $end
$var wire 1 8! var_debounced_count [15] $end
$var wire 1 9! var_debounced_count [14] $end
$var wire 1 :! var_debounced_count [13] $end
$var wire 1 ;! var_debounced_count [12] $end
$var wire 1 <! var_debounced_count [11] $end
$var wire 1 =! var_debounced_count [10] $end
$var wire 1 >! var_debounced_count [9] $end
$var wire 1 ?! var_debounced_count [8] $end
$var wire 1 @! var_debounced_count [7] $end
$var wire 1 A! var_debounced_count [6] $end
$var wire 1 B! var_debounced_count [5] $end
$var wire 1 C! var_debounced_count [4] $end
$var wire 1 D! var_debounced_count [3] $end
$var wire 1 E! var_debounced_count [2] $end
$var wire 1 F! var_debounced_count [1] $end
$var wire 1 G! var_debounced_count [0] $end
$var wire 1 H! counter [1] $end
$var wire 1 I! counter [0] $end
$upscope $end
$upscope $end
$enddefinitions $end
#0
$dumpvars
0!
0&
0+
1,
x-
1.
1/
10
11
12
13
04
05
0F
0G
0H
0I
0J
0K
0L
0M
xN
xO
1P
xQ
xR
xS
xT
xU
xV
xW
xX
xY
xZ
x[
0\
x]
x^
x_
x`
xa
xb
xc
xd
xe
06
07
08
09
0:
0;
0<
0=
xf
xg
xh
xi
xj
xk
xl
xm
xn
xo
xp
xq
xr
xs
xt
xu
xv
xw
xx
xy
xz
x{
x|
x}
x~
x!!
x"!
x#!
0$!
0%!
0&!
0'!
x(!
x)!
x*!
x+!
x,!
x-!
x.!
x/!
x0!
x1!
x2!
x3!
x4!
x5!
x6!
x7!
x8!
x9!
x:!
x;!
x<!
x=!
x>!
x?!
x@!
xA!
xB!
xC!
0D!
0E!
0F!
0G!
0H!
0I!
1>
1?
1@
xA
1B
1C
1D
xE
0"
0#
0$
0%
0'
0(
0)
0*
$end
#568
0Z
#569
0]
#664
0R
#665
0b
#712
0_
#721
0a
#722
1T
#723
1d
#761
0V
0N
0E
0A
#851
0Q
#919
0W
0O
#1101
0S
#1102
0c
#1159
0U
#1160
0e
#1766
0[
#1891
0^
#2149
0`
#2325
1X
#3643
1Y
#10000
1!
15
#10596
1V
1E
#10776
1W
#12272
1I!
#12633
0X
#12641
1]
#13944
0Y
#13963
1^
#20000
0!
1&
05
14
#20596
1N
1A
#20761
0V
0E
#20776
1O
#20919
0W
#22207
0]
#22255
1'!
#22624
0P
#23007
1Q
#23529
0^
#25369
1F
19
1*
#30000
1!
15
#30596
1V
1E
#30776
1W
#32272
0I!
#40000
0!
0&
05
04
#40761
0N
0V
0A
0E
#40919
0O
0W
#42325
1X
#43643
1Y
#50000
1!
15
#50596
1V
1E
#50776
1W
#52272
1I!
#52633
0X
#52641
1]
#53944
0Y
#53963
1^
#60000
0!
1&
05
14
#60596
1N
1A
#60761
0V
0E
#60776
1O
#60919
0W
#62207
0]
#62255
1&!
0'!
#62608
1P
#62888
0Q
#62965
1R
#63054
0R
#63078
1Q
#63420
1S
#63491
0S
#63529
0^
#65360
0F
09
0*
#65383
1G
18
1)
#70000
1!
15
#70596
1V
1E
#70776
1W
#72272
0I!
#80000
0!
0&
05
04
#80761
0N
0V
0A
0E
#80919
0O
0W
#82325
1X
#83643
1Y
#90000
1!
15
#90596
1V
1E
#90776
1W
#92272
1I!
#92633
0X
#92641
1]
#93944
0Y
#93963
1^
#100000
0!
1&
05
14
#100596
1N
1A
#100761
0V
0E
#100776
1O
#100919
0W
#102207
0]
#102255
1'!
#102624
0P
#103035
0Q
#103104
1R
#103529
0^
#103559
1S
#105369
1F
19
1*
#110000
1!
15
#110596
1V
1E
#110776
1W
#112272
0I!
#120000
0!
0&
05
04
#120761
0N
0V
0A
0E
#120919
0O
0W
#122325
1X
#123643
1Y
#130000
1!
15
#130596
1V
1E
#130776
1W
#132272
1I!
#132633
0X
#132641
1]
#133944
0Y
#133963
1^
#140000
0!
1&
05
14
#140596
1N
1A
#140761
0V
0E
#140776
1O
#140919
0W
#142207
0]
#142255
0&!
0'!
#142608
1P
#142618
1%!
#142919
0R
#142945
1Q
#143106
0Q
#143252
0S
#143374
1S
#143529
0^
#145360
0F
09
0*
#145377
0G
08
0)
#145774
1H
17
1(
#150000
1!
15
#150596
1V
1E
#150776
1W
#152272
0I!
#160000
0!
0&
05
04
#160761
0N
0V
0A
0E
#160919
0O
0W
#162325
1X
#163643
1Y
#170000
1!
15
#170596
1V
1E
#170776
1W
#172272
1I!
#172633
0X
#172641
1]
#173944
0Y
#173963
1^
#180000
0!
1&
05
14
#180596
1N
1A
#180761
0V
0E
#180776
1O
#180919
0W
#182207
0]
#182255
1'!
#182624
0P
#183007
1Q
#183529
0^
#185369
1F
19
1*
#190000
1!
15
#190596
1V
1E
#190776
1W
#192272
0I!
#200000
0!
0&
05
04
#200761
0N
0V
0A
0E
#200919
0O
0W
#202325
1X
#203643
1Y
#210000
1!
15
#210596
1V
1E
#210776
1W
#212272
1I!
#212633
0X
#212641
1]
#213944
0Y
#213963
1^
#220000
0!
1&
05
14
#220596
1N
1A
#220761
0V
0E
#220776
1O
#220919
0W
#222207
0]
#222255
1&!
0'!
#222608
1P
#222888
0Q
#222965
1R
#223023
0T
#223054
0R
#223078
1Q
#223112
1T
#223402
0S
#223478
1U
#223509
1S
#223529
0^
#223549
0U
#225360
0F
09
0*
#225383
1G
18
1)
#230000
1!
15
#230596
1V
1E
#230776
1W
#232272
0I!
#240000
0!
0&
05
04
#240761
0N
0V
0A
0E
#240919
0O
0W
#242325
1X
#243643
1Y
#250000
1!
15
#250596
1V
1E
#250776
1W
#252272
1I!
#252633
0X
#252641
1]
#253944
0Y
#253963
1^
#260000
0!
1&
05
14
#260596
1N
1A
#260761
0V
0E
#260776
1O
#260919
0W
#262207
0]
#262255
1'!
#262624
0P
#263035
0Q
#263104
1R
#263162
0T
#263529
0^
#263541
0S
#263617
1U
#265369
1F
19
1*
#270000
1!
15
#270596
1V
1E
#270776
1W
#272272
0I!
#280000
0!
0&
05
04
#280761
0N
0V
0A
0E
#280919
0O
0W
#282325
1X
#283643
1Y
#290000
1!
15
#290596
1V
1E
#290776
1W
#292272
1I!
#292633
0X
#292641
1]
#293944
0Y
#293963
1^
#300000
0!
1&
05
14
#300596
1N
1A
#300761
0V
0E
#300776
1O
#300919
0W
#302207
0]
#302255
0&!
0'!
#302608
1P
#302618
1$!
0%!
#302919
0R
#302945
1Q
#302977
1T
#303106
0Q
#303529
0^
#305360
0F
09
0*
#305377
0G
08
0)
#305762
1I
16
1'
#305767
0H
07
0(
#310000
1!
15
#310596
1V
1E
#310776
1W
#312272
0I!
#320000
0!
0&
05
04
#320761
0N
0V
0A
0E
#320919
0O
0W
#322325
1X
#323643
1Y
#330000
1!
15
#330596
1V
1E
#330776
1W
#332272
1I!
#332633
0X
#332641
1]
#333944
0Y
#333963
1^
#340000
0!
05
#340761
0V
0E
#340919
0W
#350000
1!
15
#350596
1V
1E
#350776
1W
#352272
1H!
0I!
#352720
1_
#352724
1X
#352971
1Z
#354042
1Y
#354146
1`
#354200
1[
#360000
0!
05
#360761
0V
0E
#360919
0W
#370000
1!
15
#370596
1V
1E
#370776
1W
#372272
1G!
1\
1I!
#372631
0_
#372641
0`
#372878
1a
#372888
0]
#372908
0X
#374056
1`
#374210
0^
#374219
0Y
#375657
1J
1=
1%
#380000
0!
05
#380761
0V
0E
#380919
0W
#390000
1!
15
#390596
1V
1E
#390776
1W
#392272
0H!
0I!
#400000
0!
05
#400761
0V
0E
#400919
0W
#410000
1!
15
#410596
1V
1E
#410776
1W
#420000
0!
05
#420761
0V
0E
#420919
0W
#430000
1!
15
#430596
1V
1E
#430776
1W
#440000
0!
05
#440761
0V
0E
#440919
0W
#450000
1!
15
#450596
1V
1E
#450776
1W
#460000
0!
05
#460761
0V
0E
#460919
0W
#470000
1!
1&
15
14
#470596
1N
1V
1A
1E
#470776
1O
1W
#472207
1X
#472255
1'!
#472624
0P
#473007
1Q
#473525
1Y
#475369
1F
19
1*
#480000
0!
0&
05
04
#480761
0N
0V
0A
0E
#480919
0O
0W
#482342
0X
#483653
0Y
#490000
1!
15
#490596
1V
1E
#490776
1W
#500000
0!
1&
05
14
#500596
1N
1A
#500761
0V
0E
#500776
1O
#500919
0W
#502207
1X
#502255
1&!
0'!
#502608
1P
#502888
0Q
#502965
1R
#503054
0R
#503078
1Q
#503420
1S
#503491
0S
#503525
1Y
#505360
0F
09
0*
#505383
1G
18
1)
#510000
1!
15
#510596
1V
1E
#510776
1W
#512272
1I!
#512633
0X
#512641
1]
#513944
0Y
#513963
1^
#520000
0!
05
#520761
0V
0E
#520919
0W
#530000
1!
15
#530596
1V
1E
#530776
1W
#532272
1H!
0I!
#532724
1X
#532972
0Z
#534042
1Y
#534170
0[
#540000
0!
05
#540761
0V
0E
#540919
0W
#550000
1!
15
#550596
1V
1E
#550776
1W
#552272
0\
1I!
#552979
0]
#552996
0X
#554301
0^
#554307
0Y
#560000
0!
05
#560761
0V
0E
#560919
0W
#570000
1!
0&
15
04
#570596
1V
1E
#570761
0N
0A
#570776
1W
#570919
0O
#572272
0H!
0I!
#572313
1]
#572325
1X
#572720
1_
#572841
0]
#572984
0_
#573635
1^
#573643
1Y
#574158
0`
#574163
0^
#574409
1`
#580000
0!
05
#580761
0V
0E
#580919
0W
#590000
1!
15
#590596
1V
1E
#590776
1W
#592272
1I!
#592633
0X
#592641
1]
#593944
0Y
#593963
1^
#600000
0!
05
#600761
0V
0E
#600919
0W
#610000
1!
15
#610596
1V
1E
#610776
1W
#612272
1H!
0I!
#612720
1_
#612724
1X
#612971
1Z
#614042
1Y
#614158
0`
#614200
1[
#620000
0!
05
#620761
0V
0E
#620919
0W
#630000
1!
15
#630596
1V
1E
#630776
1W
#632272
1F!
0G!
1\
1I!
#632625
1`
#632631
0_
#632888
0]
#632905
0a
#632908
0X
#632965
1a
#634068
0`
#634210
0^
#634219
0Y
#635679
0J
0=
0%
#636784
1K
1<
1$
#640000
0!
05
#640761
0V
0E
#640919
0W
#650000
1!
15
#650596
1V
1E
#650776
1W
#652272
0H!
0I!
#660000
0!
05
#660761
0V
0E
#660919
0W
#670000
1!
1&
15
14
#670596
1N
1V
1A
1E
#670776
1O
1W
#672207
1X
#672255
1'!
#672624
0P
#673035
0Q
#673104
1R
#673525
1Y
#673559
1S
#675369
1F
19
1*
#680000
0!
05
#680761
0V
0E
#680919
0W
#690000
1!
15
#690596
1V
1E
#690776
1W
#692272
1I!
#692633
0X
#692641
1]
#693944
0Y
#693963
1^
#700000
0!
0&
05
04
#700761
0N
0V
0A
0E
#700919
0O
0W
#702323
0]
#703645
0^
