3/debouncer/simulation/qsim/bit_counter.msim.vcd
$comment
	File created using the following command:
		vcd file bit_counter.msim.vcd -direction
$end
$date
	Fri May 04 10:29:07 2018
$end
$version
	ModelSim Version 10.1d
$end
$timescale
	1ps
$end
$scope module debouncer_vhd_vec_tst $end
$var wire 1 ! clk $end
$var wire 1 " x $end
$var wire 1 # y $end
$scope module i1 $end
$var wire 1 $ gnd $end
$var wire 1 % vcc $end
$var wire 1 & unknown $end
$var wire 1 ' devoe $end
$var wire 1 ( devclrn $end
$var wire 1 ) devpor $end
$var wire 1 * ww_devoe $end
$var wire 1 + ww_devclrn $end
$var wire 1 , ww_devpor $end
$var wire 1 - ww_x $end
$var wire 1 . ww_clk $end
$var wire 1 / ww_y $end
$var wire 1 0 \clk~inputclkctrl_INCLK_bus\ [3] $end
$var wire 1 1 \clk~inputclkctrl_INCLK_bus\ [2] $end
$var wire 1 2 \clk~inputclkctrl_INCLK_bus\ [1] $end
$var wire 1 3 \clk~inputclkctrl_INCLK_bus\ [0] $end
$var wire 1 4 \y~output_o\ $end
$var wire 1 5 \clk~input_o\ $end
$var wire 1 6 \clk~inputclkctrl_outclk\ $end
$var wire 1 7 \x~input_o\ $end
$var wire 1 8 \counter[1]~1_combout\ $end
$var wire 1 9 \counter[0]~0_combout\ $end
$var wire 1 : \pressed~0_combout\ $end
$var wire 1 ; \pressed~q\ $end
$var wire 1 < counter [1] $end
$var wire 1 = counter [0] $end
$var wire 1 > \ALT_INV_pressed~q\ $end
$upscope $end
$upscope $end
$enddefinitions $end
#0
$dumpvars
0!
1"
0#
0$
1%
x&
1'
1(
1)
1*
1+
1,
1-
0.
0/
04
x5
x6
x7
x8
x9
x:
0;
1>
0<
0=
10
11
12
x3
$end
#420
0:
#596
17
#687
08
#761
05
03
#919
06
#2944
14
1/
1#
#3487
09
#10000
1!
1.
#10596
15
13
#10776
16
#20000
0!
0.
#20761
05
03
#20919
06
#30000
1!
1.
#30596
15
13
#30776
16
#40000
0!
0.
#40761
05
03
#40919
06
#50000
1!
1.
#50596
15
13
#50776
16
#60000
0!
0.
#60761
05
03
#60919
06
#70000
1!
1.
#70596
15
13
#70776
16
#80000
0!
0"
0.
0-
#80761
07
05
03
#80919
06
#83923
19
#87500
1"
1-
#88096
17
#90000
1!
1.
#90596
15
13
#90776
16
#90987
09
#95000
0"
0-
#95761
07
#98923
19
#100000
0!
0.
#100761
05
03
#100919
06
#102500
1"
1-
#103096
17
#105987
09
#110000
0"
1!
0-
1.
#110596
15
13
#110761
07
#110776
16
#113923
19
#117500
1"
1-
#118096
17
#120000
0!
0.
#120761
05
03
#120919
06
#120987
09
#125000
0"
0-
#125761
07
#128923
19
#130000
1!
1.
#130596
15
13
#130776
16
#132268
1=
#132500
1"
1-
#132637
09
#132877
18
#133096
17
#135988
08
#140000
0"
0!
0-
0.
#140761
05
07
03
#140919
06
#143922
18
#147500
1"
1-
#148096
17
#150000
1!
1.
#150596
15
13
#150776
16
#150988
08
#152268
0=
#155000
0"
0-
#155761
07
#158923
19
#160000
0!
0.
#160761
05
03
#160919
06
#170000
1!
1.
#170596
15
13
#170776
16
#172268
1=
#172637
09
#172877
18
#180000
0!
1"
0.
1-
#180596
17
#180761
05
03
#180919
06
#183488
08
#190000
1!
1.
#190596
15
13
#190776
16
#192268
0=
#200000
0!
0"
0.
0-
#200761
07
05
03
#200919
06
#203923
19
#210000
1!
1.
#210596
15
13
#210776
16
#212268
1=
#212637
09
#212877
18
#220000
0!
1"
0.
1-
#220596
17
#220761
05
03
#220919
06
#223488
08
#230000
1!
1.
#230596
15
13
#230776
16
#232268
0=
#240000
0!
0.
#240761
05
03
#240919
06
#241819
0"
0-
#242580
07
#245742
19
#250000
1!
1.
#250596
15
13
#250776
16
#252219
1"
1-
#252268
1=
#252637
09
#252815
17
#252877
18
#255707
08
#260000
0"
0!
0-
0.
#260761
05
07
03
#260919
06
#262741
1"
1-
#263337
17
#263922
18
#266229
08
#267241
0"
0-
#268002
07
#270000
1!
1.
#270596
15
13
#270776
16
#271163
18
#272268
0=
1<
#272621
19
#272908
1:
#280000
0!
0.
#280761
05
03
#280919
06
#290000
1!
1.
#290596
15
13
#290776
16
#292268
1;
1=
0>
#292635
09
08
#295184
04
0/
0#
#300000
0!
0.
#300761
05
03
#300919
06
#310000
1!
1.
#310596
15
13
#310776
16
#312268
0=
0<
#320000
0!
0.
#320761
05
03
#320919
06
#330000
1!
1.
#330596
15
13
#330776
16
#331696
1"
1-
#332292
17
#334229
0"
0-
#334990
07
#335178
19
#338157
09
#338362
1"
1-
#338958
17
#340000
0!
0.
#340761
05
03
#340895
0"
0-
#340919
06
#341656
07
#341844
19
#344823
09
#345028
1"
1-
#345624
17
#347561
0"
0-
#348322
07
#348510
19
#350000
1"
1!
1-
1.
#350596
15
17
13
#350776
16
#351489
09
#353482
19
#360000
0!
0.
#360761
05
03
#360919
06
#370000
1!
1.
#370596
15
13
#370776
16
#372268
1=
#372637
09
#372877
18
#380000
0!
0.
#380761
05
03
#380919
06
#390000
1!
1.
#390596
15
13
#390776
16
#392268
0=
1<
#392621
19
#392918
0:
#400000
0!
0.
#400761
05
03
#400919
06
#410000
1!
1.
#410596
15
13
#410776
16
#412268
0;
1=
1>
#412706
08
#412708
09
#415212
14
1/
1#
#420000
0!
0.
#420761
05
03
#420919
06
#430000
1!
0"
1.
0-
#430596
15
13
#430761
07
#430776
16
#432040
1"
1-
#432268
0=
0<
#432636
17
#433923
19
#435527
09
#438440
0"
0-
#439201
07
#440000
0!
0.
#440761
05
03
#440919
06
#442363
19
#450000
1!
1.
#450596
15
13
#450776
16
#452268
1=
#452637
09
#452877
18
#460000
0!
0.
#460761
05
03
#460919
06
#470000
1!
1.
#470596
15
13
#470776
16
#472268
0=
1<
#472621
19
#472908
1:
#480000
0!
0.
#480761
05
03
#480919
06
#490000
1!
1.
#490596
15
13
#490776
16
#492268
1;
1=
0>
#492635
09
08
#495184
04
0/
0#
#500000
0!
1"
0.
1-
#500596
17
#500761
05
03
#500919
06
#503482
19
#503483
18
#504707
0"
0-
#505468
07
#508634
08
#508635
09
#509307
1"
1-
#509903
17
#510000
0"
1!
0-
1.
#510596
15
13
#510761
07
#510776
16
#512268
0=
0<
#512789
19
#512790
18
#512955
08
#513928
09
#520000
0!
0.
#520761
05
03
#520919
06
#530000
1!
1.
#530596
15
13
#530776
16
#540000
0!
0.
#540761
05
03
#540919
06
#550000
1!
1"
1.
1-
#550596
17
15
13
#550776
16
#551277
0"
0-
#552038
07
#553482
19
#555144
1"
1-
#555205
09
#555740
17
#557943
0"
0-
#558626
19
#558704
07
#560000
0!
0.
#560761
05
03
#560919
06
#561810
1"
1-
#561871
09
#562406
17
#564609
0"
0-
#565292
19
#565370
07
#568476
1"
1-
#568537
09
#569072
17
#570000
0"
1!
0-
1.
#570596
15
13
#570761
07
#570776
16
#571958
19
#572268
1=
#572637
09
#572877
18
#573927
08
#580000
1"
0!
1-
0.
#580596
17
#580761
05
03
#580919
06
#583483
18
#590000
1!
1.
#590596
15
13
#590776
16
#592268
0=
1<
#592621
19
#592918
0:
#600000
0!
0.
#600761
05
03
#600919
06
#610000
1!
1.
#610596
15
13
#610776
16
#612268
0;
1=
1>
#612706
08
#612708
09
#615212
14
1/
1#
#620000
0!
0.
#620761
05
03
#620919
06
#630000
1!
1.
#630596
15
13
#630776
16
#632268
0=
0<
#640000
0!
0.
#640761
05
03
#640919
06
#650000
1!
1.
#650596
15
13
#650776
16
#660000
0!
0"
0.
0-
#660761
07
05
03
#660919
06
#660926
1"
1-
#661522
17
#663592
0"
0-
#663923
19
#664353
07
#664413
09
#667515
19
#667592
1"
1-
#668188
17
#670000
1!
1.
#670258
0"
0-
#670596
15
13
#670776
16
#671019
07
#671079
09
#674181
19
#674258
1"
1-
#674854
17
#676924
0"
0-
#677685
07
#677745
09
#680000
1"
0!
1-
0.
#680596
17
#680761
05
03
#680847
19
#680919
06
#683487
09
#690000
1!
1.
#690596
15
13
#690776
16
#700000
0!
0.
#700761
05
03
#700919
06
#710000
1!
1.
#710596
15
13
#710776
16
#720000
0!
0.
#720761
05
03
#720919
06
#730000
1!
1.
#730596
15
13
#730776
16
#740000
0!
0"
0.
0-
#740761
07
05
03
#740919
06
#743923
19
#750000
1!
1.
#750596
15
13
#750776
16
#752268
1=
#752637
09
#752877
18
#760000
0!
0.
#760761
05
03
#760919
06
#770000
1!
1.
#770596
15
13
#770776
16
#772268
0=
1<
#772621
19
#772908
1:
#780000
0!
0.
#780761
05
03
#780919
06
#790000
1!
1.
#790596
15
13
#790776
16
#792268
1;
1=
0>
#792635
09
08
#795184
04
0/
0#
#800000
0!
0.
#800761
05
03
#800919
06
#810000
1!
1.
#810596
15
13
#810776
16
#812268
0=
0<
#820000
0!
0.
#820761
05
03
#820919
06
#830000
1!
1"
1.
1-
#830596
17
15
13
#830776
16
#833482
19
#840000
0!
0.
#840761
05
03
#840919
06
#850000
1!
1.
#850596
15
13
#850776
16
#852268
1=
#852637
09
#852877
18
#860000
0!
0.
#860761
05
03
#860919
06
#870000
1!
1.
#870596
15
13
#870776
16
#872268
0=
1<
#872621
19
#872918
0:
#880000
0!
0.
#880761
05
03
#880919
06
#890000
1!
1.
#890596
15
13
#890776
16
#892268
0;
1=
1>
#892706
08
#892708
09
#895212
14
1/
1#
#900000
0!
0"
0.
0-
#900761
07
05
03
#900919
06
#903138
1"
1-
#903734
17
#903922
18
#903923
19
#905404
0"
0-
#906165
07
#906625
09
#906626
08
#909326
18
#909327
19
#909804
1"
1-
#910000
1!
1.
#910400
17
#910596
15
13
#910776
16
#912070
0"
0-
#912831
07
#913291
09
#913292
08
#915992
18
#915993
19
#916470
1"
1-
#917066
17
#918736
0"
0-
#919497
07
#919957
09
#919958
08
#920000
1"
0!
1-
0.
#920596
17
#920761
05
03
#920919
06
#921467
0"
0-
#922228
07
#922658
18
#922659
19
#923487
09
#923488
08
#924367
1"
1-
#924963
17
#925389
18
#925390
19
#926467
0"
0-
#927228
07
#927854
09
#927855
08
#929367
1"
1-
#929963
17
#930000
0"
1!
0-
1.
#930389
18
#930390
19
#930596
15
13
#930761
07
#930776
16
#932854
09
#932855
08
#933922
18
#933923
19
#940000
0!
0.
#940761
05
03
#940919
06
#950000
1!
1.
#950596
15
13
#950776
16
#960000
0!
0.
#960761
05
03
#960919
06
#970000
1!
1.
#970596
15
13
#970776
16
#980000
0!
0.
#980761
05
03
#980919
06
#990000
1!
1.
#990596
15
13
#990776
16
