4/calc_ceil_log2/simulation/qsim/calc_ceil_log2.msim.vcd
$comment
	File created using the following command:
		vcd file calc_ceil_log2.msim.vcd -direction
$end
$date
	Sun May 13 20:59:11 2018
$end
$version
	ModelSim Version 10.1d
$end
$timescale
	1ps
$end
$scope module calc_ceil_log2_vlg_vec_tst $end
$var reg 8 ! x [7:0] $end
$var wire 1 " y [7] $end
$var wire 1 # y [6] $end
$var wire 1 $ y [5] $end
$var wire 1 % y [4] $end
$var wire 1 & y [3] $end
$var wire 1 ' y [2] $end
$var wire 1 ( y [1] $end
$var wire 1 ) y [0] $end
$var wire 1 * sampler $end
$scope module i1 $end
$var wire 1 + gnd $end
$var wire 1 , vcc $end
$var wire 1 - unknown $end
$var tri1 1 . devclrn $end
$var tri1 1 / devpor $end
$var tri1 1 0 devoe $end
$var wire 1 1 y[0]~output_o $end
$var wire 1 2 y[1]~output_o $end
$var wire 1 3 y[2]~output_o $end
$var wire 1 4 y[3]~output_o $end
$var wire 1 5 y[4]~output_o $end
$var wire 1 6 y[5]~output_o $end
$var wire 1 7 y[6]~output_o $end
$var wire 1 8 y[7]~output_o $end
$var wire 1 9 x[3]~input_o $end
$var wire 1 : x[4]~input_o $end
$var wire 1 ; x[2]~input_o $end
$var wire 1 < x[5]~input_o $end
$var wire 1 = ceil_log2~39_combout $end
$var wire 1 > x[0]~input_o $end
$var wire 1 ? x[1]~input_o $end
$var wire 1 @ ceil_log2~37_combout $end
$var wire 1 A x[7]~input_o $end
$var wire 1 B x[6]~input_o $end
$var wire 1 C ceil_log2~41_combout $end
$var wire 1 D ceil_log2~38_combout $end
$var wire 1 E ceil_log2~43_combout $end
$var wire 1 F ceil_log2~7_combout $end
$var wire 1 G ceil_log2~5_combout $end
$var wire 1 H ceil_log2~51_combout $end
$var wire 1 I LessThan5~1_combout $end
$var wire 1 J ceil_log2~49_combout $end
$var wire 1 K LessThan5~0_combout $end
$var wire 1 L ceil_log2~42_combout $end
$var wire 1 M ceil_log2~44_combout $end
$var wire 1 N ceil_log2~17_combout $end
$var wire 1 O ceil_log2~15_combout $end
$var wire 1 P ceil_log2~52_combout $end
$var wire 1 Q ceil_log2~45_combout $end
$var wire 1 R ceil_log2~46_combout $end
$var wire 1 S ceil_log2~25_combout $end
$var wire 1 T ceil_log2~53_combout $end
$var wire 1 U ceil_log2~50_combout $end
$var wire 1 V ceil_log2~40_combout $end
$var wire 1 W ceil_log2~47_combout $end
$var wire 1 X ceil_log2~48_combout $end
$upscope $end
$upscope $end
$enddefinitions $end
#0
$dumpvars
b1 !
x)
x(
x'
x&
0%
0$
0#
0"
x*
0+
1,
x-
1.
1/
10
x1
x2
x3
x4
05
06
07
08
09
0:
0;
0<
x=
1>
0?
x@
0A
0B
xC
xD
xE
xF
xG
xH
xI
xJ
xK
xL
xM
xN
xO
xP
xQ
xR
xS
xT
xU
xV
xW
xX
$end
#1634
0@
#2248
0C
#3242
1X
#3419
0J
#3929
0S
#3977
0I
#4025
0K
#4093
0F
#4101
0N
#4386
1U
#4420
1D
#4427
1=
#4524
0T
#4714
0E
#4802
0V
#5082
0W
#5737
0O
#5853
0G
#5935
0Q
#5942
1L
#6329
0P
#6447
0H
#6468
04
0&
#6900
0M
#6927
0R
#8671
03
0'
#9636
01
0)
#9744
02
0(
#80000
b101 !
0*
#80676
1;
#84266
0=
#84272
1S
#84440
1N
#84441
1F
#84828
1T
#85991
1O
#86128
1G
#86549
1P
#86687
1H
#87106
1M
#87108
1R
#89863
11
1)
#89925
12
1(
#160000
b10101 !
b11101 !
b11111 !
b11110 !
1*
#160666
19
#160670
1:
#160690
1?
#160852
0>
#164750
1V
#164751
0U
#164765
0D
#164785
0F
#164788
0N
#164916
0P
#164917
0H
#165095
1E
#165167
1W
#165370
0M
#165514
0R
#166424
0O
#166545
0G
#166886
1M
#168331
02
0(
#168683
13
1'
#240000
b111110 !
b101110 !
b101100 !
b101101 !
0*
#240666
1<
#240690
1>
#240832
0:
#240852
0?
#244365
1K
#244369
1I
#245252
1D
#245698
0L
#245710
1Q
#246016
1R
#246021
0M
#248757
01
0)
#248833
12
1(
#320000
b100101 !
b101 !
b111 !
1*
#320690
1?
#320830
0<
09
#324579
1U
#324807
0I
#324825
0E
#324855
0K
#325249
0V
#325266
1F
#325277
1N
#325696
0W
#326755
0Q
#326772
1L
#326828
1O
#326953
1G
#327076
0R
#327386
1P
#327512
1H
#327931
1M
#327945
1R
#329285
03
0'
#330688
11
1)
#400000
b1000111 !
b1000011 !
b1001011 !
b1101011 !
b1101001 !
0*
#400666
1<
19
#400690
1B
#400840
0;
#400852
0?
#403854
1J
#404067
1E
#404117
1I
#404133
0U
#404365
1K
#404379
0P
#404382
0H
#404581
1V
#404602
0O
#404645
0G
#404785
0F
#404788
0N
#404835
0M
#404977
0R
#404998
1W
#405710
1Q
#405858
1M
#406016
1R
#408514
13
1'
#480000
b11101001 !
b11101000 !
b11101100 !
1*
#480676
1A
1;
#480852
0>
#482455
1@
1N
#482460
1F
#482621
0K
#483570
0W
#483661
0X
#483871
0E
#484272
1K
#484439
0N
#484440
0F
#485740
0M
#485801
0Q
#486122
0R
#486849
14
1&
#487159
03
0'
#488476
01
0)
#488939
02
0(
#560000
b10101100 !
b10100100 !
b10000100 !
b10000000 !
0*
#560830
0<
09
#560840
0;
#560852
0B
#564271
0J
#564579
1U
#564807
0I
#564855
0K
0S
#564995
0V
#565257
1=
#565450
0T
#565803
1C
#565805
1X
#565985
0L
#566507
1W
#566772
1L
#567702
1M
#567964
1R
#569031
04
0&
#570023
13
1'
#570459
11
1)
#570781
12
1(
#640000
b10010000 !
b10010010 !
b10010 !
b10011 !
b11011 !
b11111 !
1*
#640666
19
#640670
1:
#640676
1;
#640690
1?
1>
#640840
0A
#642301
1N
#642324
0@
#642938
0C
#642942
0X
#643694
0W
#643852
1O
#644082
1X
#644266
0=
#644272
1S
#644611
1T
#644659
1P
#644750
1V
#644751
0U
#644765
0D
#644788
0N
#644916
0P
#644925
0M
#645095
1E
#645167
1W
#645514
0R
#646424
0O
#646886
1M
#647661
01
0)
#648331
02
0(
#649643
11
1)
#720000
b1011111 !
b1001111 !
b1001101 !
0*
#720690
1B
#720832
0:
#720852
0?
#723854
1J
#724117
1I
#725252
1D
#725977
1Q
#726283
1R
#729100
12
1(
#800000
b1101101 !
b11101101 !
b11111101 !
b11111111 !
1*
#800666
1<
#800670
1:
#800676
1A
#800690
1?
#803570
0W
#803661
0X
#803871
0E
#804365
1K
#804765
0D
#805740
0M
#805801
0Q
#806122
0R
#806849
14
1&
#807159
03
0'
#808476
01
0)
#808939
02
0(
#880000
b11111110 !
b11110110 !
b11110010 !
b10110010 !
b10010010 !
b10010 !
b10 !
0*
#880830
0<
09
#880832
0:
#880840
0A
0;
#880852
0B
0>
#883999
1W
#884082
1X
#884271
0J
#884292
1E
#884769
0S
#884807
0I
#884855
0K
#885218
1U
#885252
1D
#885257
1=
#885266
1F
#885364
0T
#885546
0E
#885634
0V
#885922
0W
#885985
0L
#886772
1L
#886953
1G
#887308
04
0&
#887512
1H
#887931
1M
#890688
11
1)
#960000
b0 !
b1000 !
b11000 !
1*
#960666
19
#960670
1:
#960852
0?
#962414
0F
#962421
1@
#964174
0G
#964611
1T
#964737
0D
#964750
0=
#964751
0U
#964768
0H
#964773
1F
#964783
1N
#965067
1E
#965199
1V
#965221
0M
#965616
1W
#966334
1O
#966460
1G
#966858
1M
#969132
13
1'
