3/guess_the_circuit/guess_the_circuit/simulation/qsim/guess_the_circuit.msim.vcd
$comment
	File created using the following command:
		vcd file guess_the_circuit.msim.vcd -direction
$end
$date
	Thu May 03 15:58:16 2018
$end
$version
	ModelSim Version 10.1d
$end
$timescale
	1ps
$end
$scope module guess_the_circuit_vlg_vec_tst $end
$var reg 1 ! clk $end
$var wire 1 " y $end
$var wire 1 # sampler $end
$scope module i1 $end
$var wire 1 $ gnd $end
$var wire 1 % vcc $end
$var wire 1 & unknown $end
$var tri1 1 ' devclrn $end
$var tri1 1 ( devpor $end
$var tri1 1 ) devoe $end
$var wire 1 * y~output_o $end
$var wire 1 + clk~input_o $end
$var wire 1 , clk~inputclkctrl_outclk $end
$var wire 1 - i[0]~2_combout $end
$var wire 1 . i~0_combout $end
$var wire 1 / i~1_combout $end
$var wire 1 0 Equal1~0_combout $end
$var wire 1 1 y~reg0_q $end
$var wire 1 2 i [2] $end
$var wire 1 3 i [1] $end
$var wire 1 4 i [0] $end
$upscope $end
$upscope $end
$enddefinitions $end
#0
$dumpvars
0!
x"
x#
0$
1%
x&
1'
1(
1)
x*
0+
x,
1-
x.
x/
x0
01
04
03
02
$end
#158
0,
#427
0.
#432
0/
#711
00
#2479
0*
0"
#40000
1!
0#
#40690
1+
#40870
1,
#42373
14
#42734
1.
#42739
10
#42742
0-
#80000
0!
1#
#80852
0+
#81010
0,
#120000
1!
0#
#120690
1+
#120870
1,
#122373
04
13
11
#122726
1-
#124841
1*
1"
#160000
0!
1#
#160852
0+
#161010
0,
#200000
1!
0#
#200690
1+
#200870
1,
#202373
14
#202724
0.
#202739
1/
#202742
0-
#240000
0!
1#
#240852
0+
#241010
0,
#280000
1!
0#
#280690
1+
#280870
1,
#282373
04
03
12
#282726
1-
#320000
0!
1#
#320852
0+
#321010
0,
#360000
1!
0#
#360690
1+
#360870
1,
#362373
14
#362729
0/
#362742
0-
#400000
0!
1#
#400852
0+
#401010
0,
#440000
1!
0#
#440690
1+
#440870
1,
#442373
04
02
#442726
1-
#443084
00
#480000
0!
1#
#480852
0+
#481010
0,
#520000
1!
0#
#520690
1+
#520870
1,
#522373
14
01
#522734
1.
#522739
10
#522742
0-
#524852
0*
0"
#560000
0!
1#
#560852
0+
#561010
0,
#600000
1!
0#
#600690
1+
#600870
1,
#602373
04
13
11
#602726
1-
#604841
1*
1"
#640000
0!
1#
#640852
0+
#641010
0,
#680000
1!
0#
#680690
1+
#680870
1,
#682373
14
#682724
0.
#682739
1/
#682742
0-
#720000
0!
1#
#720852
0+
#721010
0,
#760000
1!
0#
#760690
1+
#760870
1,
#762373
04
03
12
#762726
1-
#800000
0!
1#
#800852
0+
#801010
0,
#840000
1!
0#
#840690
1+
#840870
1,
#842373
14
#842729
0/
#842742
0-
#880000
0!
1#
#880852
0+
#881010
0,
#920000
1!
0#
#920690
1+
#920870
1,
#922373
04
02
#922726
1-
#923084
00
#960000
0!
1#
#960852
0+
